EESchema Schematic File Version 4
EELAYER 30 0
EELAYER END
$Descr A4 8268 11693 portrait
encoding utf-8
Sheet 1 3
Title "MightyPix Run2020 PCB"
Date "2021-02-08"
Rev "1.0"
Comp "HISKP. University of Bonn."
Comment1 "Design by: Klaas Padeken"
Comment2 ""
Comment3 ""
Comment4 ""
$EndDescr
Text Label 1900 6950 2    50   ~ 0
LVDS_IN0_N
Wire Wire Line
	1900 6950 1450 6950
Text Label 1900 6850 2    50   ~ 0
LVDS_IN0_P
Text Label 1900 6650 2    50   ~ 0
DIN6
Wire Wire Line
	1900 6650 1450 6650
Text Label 1900 6550 2    50   ~ 0
DIN5
Wire Wire Line
	1900 6550 1450 6550
Text Label 1900 6450 2    50   ~ 0
DIN4
Wire Wire Line
	1900 6450 1450 6450
Text Label 1900 6350 2    50   ~ 0
DIN3
Wire Wire Line
	1900 6350 1450 6350
Text Label 1900 6250 2    50   ~ 0
DIN2
Wire Wire Line
	1900 6250 1450 6250
Text Label 1900 6150 2    50   ~ 0
DIN1
Wire Wire Line
	1900 6150 1450 6150
Text Label 1900 6050 2    50   ~ 0
DIN0
Wire Wire Line
	1900 6050 1450 6050
Wire Wire Line
	3500 6350 3050 6350
Text Label 3050 6350 0    50   ~ 0
VSSA
Wire Wire Line
	3500 6450 3050 6450
Text Label 3050 6450 0    50   ~ 0
VDDA
Wire Wire Line
	3500 6550 3050 6550
Text Label 3050 6550 0    50   ~ 0
VDDD
Wire Wire Line
	3500 6650 3050 6650
Text Label 3050 6650 0    50   ~ 0
VGate
Wire Wire Line
	3500 6750 3050 6750
Text Label 3050 6750 0    50   ~ 0
VDD_IO
Wire Wire Line
	3500 6850 3050 6850
Text Label 3050 6850 0    50   ~ 0
BL
Wire Wire Line
	3500 6950 3050 6950
Text Label 3050 6950 0    50   ~ 0
VCasc1
Wire Wire Line
	3500 7050 3050 7050
Text Label 3050 7050 0    50   ~ 0
VDDRAM
Wire Wire Line
	1900 8050 1450 8050
Text Label 1900 8050 2    50   ~ 0
FAST_ADC0
Wire Wire Line
	3050 7150 3500 7150
Wire Wire Line
	3050 7250 3500 7250
Wire Wire Line
	3050 7350 3500 7350
Wire Wire Line
	3050 7450 3500 7450
Wire Wire Line
	3050 8300 3500 8300
Text Label 3050 7150 0    50   ~ 0
TH1
Text Label 3050 7250 0    50   ~ 0
TH2
Text Label 3050 7350 0    50   ~ 0
TH3
Text Label 3050 7450 0    50   ~ 0
VLo
Text Label 3050 8300 0    50   ~ 0
INJ
Text Label 1500 4850 2    50   ~ 0
VDDA
Text Label 1500 4700 2    50   ~ 0
VSSA
Text Label 1950 4600 1    50   ~ 0
VDDRAM
Text Label 2050 4600 1    50   ~ 0
TH1
Text Label 3350 4600 1    50   ~ 0
DIN3
Text Label 3450 4600 1    50   ~ 0
DIN2
Text Label 3550 4600 1    50   ~ 0
DIN1
Text Label 3650 4600 1    50   ~ 0
DIN0
Text Label 3750 4600 1    50   ~ 0
Ctl_RB
Text Label 3850 4600 1    50   ~ 0
DOUT0
Text Label 2250 4600 1    50   ~ 0
DIN6
Text Label 2350 4600 1    50   ~ 0
DIN5
Text Label 2450 4600 1    50   ~ 0
DIN4
Text Label 2550 4600 1    50   ~ 0
DOUT1
Text Label 2650 4600 1    50   ~ 0
Res_n
Text Label 2750 4650 1    50   ~ 0
LVDS_IN2_P
Text Label 2850 4650 1    50   ~ 0
LVDS_IN2_N
Text Label 2950 4650 1    50   ~ 0
LVDS_IN1_P
Text Label 3150 4650 1    50   ~ 0
LVDS_IN0_P
Text Label 3250 4650 1    50   ~ 0
LVDS_IN0_N
Text Label 4850 4600 1    50   ~ 0
VDDD
Text Label 3050 4650 1    50   ~ 0
LVDS_IN1_N
Wire Wire Line
	1900 6850 1450 6850
$Sheet
S 1900 5950 1150 2400
U 5FA940BE
F0 "LF2_PCBcomponents_sheet" 50
F1 "LF2_PCBcomponents.sch" 50
F2 "DIN0" O L 1900 6050 50 
F3 "DIN4" O L 1900 6450 50 
F4 "DIN6" O L 1900 6650 50 
F5 "LVDS_IN0_P" O L 1900 6850 50 
F6 "LVDS_IN0_N" O L 1900 6950 50 
F7 "VSSA" O R 3050 6350 50 
F8 "VDDA" O R 3050 6450 50 
F9 "VDDD" O R 3050 6550 50 
F10 "VGate" O R 3050 6650 50 
F11 "VDD_IO" O R 3050 6750 50 
F12 "BL" O R 3050 6850 50 
F13 "VCasc1" O R 3050 6950 50 
F14 "VDDRAM" O R 3050 7050 50 
F15 "FAST_ADC0" O L 1900 8050 50 
F16 "INJ" O R 3050 8300 50 
F17 "TH1" O R 3050 7150 50 
F18 "TH2" O R 3050 7250 50 
F19 "TH3" O R 3050 7350 50 
F20 "VLo" O R 3050 7450 50 
F21 "LVDS_IN1_P" O L 1900 7050 50 
F22 "LVDS_IN2_P" O L 1900 7250 50 
F23 "LVDS_IN1_N" O L 1900 7150 50 
F24 "LVDS_IN2_N" O L 1900 7350 50 
F25 "LVDS_OUT0_P" O R 3050 8050 50 
F26 "LVDS_OUT0_N" O R 3050 8150 50 
F27 "VSS_TDAC" O R 3050 7700 50 
F28 "FAST_ADC1" O L 1900 8150 50 
F29 "DIN1" O L 1900 6150 50 
F30 "DIN3" O L 1900 6350 50 
F31 "DIN5" O L 1900 6550 50 
F32 "DIN2" O L 1900 6250 50 
F33 "DOUT0" O L 1900 7450 50 
F34 "DOUT1" O L 1900 7550 50 
F35 "Reset_n" O L 1900 7650 50 
F36 "Ctl_RB" O L 1900 7750 50 
$EndSheet
Text Label 1900 7150 2    50   ~ 0
LVDS_IN1_N
Wire Wire Line
	1900 7150 1450 7150
Text Label 1900 7050 2    50   ~ 0
LVDS_IN1_P
Wire Wire Line
	1900 7050 1450 7050
Text Label 1900 7250 2    50   ~ 0
LVDS_IN2_P
Text Label 1900 7350 2    50   ~ 0
LVDS_IN2_N
Wire Wire Line
	1450 7350 1900 7350
Text Label 3950 4600 1    50   ~ 0
VLo
Text Label 5050 4600 1    50   ~ 0
INJ
$Sheet
S 5700 6400 950  1300
U 61541A83
F0 "Analog_connections" 50
F1 "Analog_connections.sch" 50
F2 "AmpOut" O L 5700 6550 50 
F3 "SUBSTRATE" O L 5700 6650 50 
F4 "PStop" O L 5700 6750 50 
F5 "NwellRing" O L 5700 6950 50 
F6 "PwellRing" O L 5700 7050 50 
F7 "NoToVCO" O L 5700 7200 50 
F8 "ToVCO" O L 5700 7300 50 
F9 "VDDA" I L 5700 7400 50 
$EndSheet
Text Label 6400 4650 1    50   ~ 0
SUBSTRATE
Wire Wire Line
	6400 4650 6400 4200
Text Label 5250 6550 0    50   ~ 0
AmpOut
Text Label 5250 6650 0    50   ~ 0
SUBSTRATE
Text Label 5250 6750 0    50   ~ 0
PStop
Text Label 5250 6950 0    50   ~ 0
NwellRing
Text Label 5250 7050 0    50   ~ 0
PwellRing
Wire Wire Line
	5700 6550 5250 6550
Wire Wire Line
	5700 6650 5250 6650
Wire Wire Line
	5700 6750 5250 6750
Wire Wire Line
	5700 6950 5250 6950
Wire Wire Line
	5700 7050 5250 7050
Text Label 5850 4600 1    50   ~ 0
NwellRing
Text Label 5750 4600 1    50   ~ 0
PwellRing
Text Label 5150 4600 1    50   ~ 0
AmpOut
Text Label 6500 4600 1    50   ~ 0
PStop
Text Label 5650 4600 1    50   ~ 0
TH2
Text Label 5550 4600 1    50   ~ 0
TH3
Text Label 5450 4600 1    50   ~ 0
BL
Text Label 5350 4600 1    50   ~ 0
VCasc1
Text Label 2150 4600 1    50   ~ 0
VGate
Text Label 4050 4600 1    50   ~ 0
VDDA
Text Label 5250 7200 0    50   ~ 0
NoToVCO
Text Label 5250 7300 0    50   ~ 0
ToVCO
Wire Wire Line
	5700 7200 5250 7200
Wire Wire Line
	5700 7300 5250 7300
Text Label 4150 4600 1    50   ~ 0
NoToVCO
Text Label 4250 4600 1    50   ~ 0
ToVCO
Text Label 3050 8050 0    50   ~ 0
LVDS_OUT0_P
Wire Wire Line
	3050 8050 3500 8050
Text Label 3050 8150 0    50   ~ 0
LVDS_OUT0_N
Wire Wire Line
	3050 8150 3500 8150
Text Label 3050 7700 0    50   ~ 0
VSS_TDAC
Wire Wire Line
	3050 7700 3500 7700
Text Label 4450 4800 1    50   ~ 0
LVDS_OUT0_N
Text Label 4550 4800 1    50   ~ 0
LVDS_OUT0_P
Text Label 4650 4600 1    50   ~ 0
VSS_TDAC
$Comp
L power:GND #PWR014
U 1 1 62221949
P 5250 5200
F 0 "#PWR014" H 5250 4950 50  0001 C CNN
F 1 "GND" H 5255 5027 50  0000 C CNN
F 2 "" H 5250 5200 50  0001 C CNN
F 3 "" H 5250 5200 50  0001 C CNN
	1    5250 5200
	1    0    0    -1  
$EndComp
Text Notes 5450 5500 2    50   ~ 0
Not sure here
Wire Wire Line
	1900 8150 1450 8150
Text Label 1900 8150 2    50   ~ 0
FAST_ADC1
Text Label 4950 4600 1    50   ~ 0
FAST_ADC1
$Comp
L power:GND #PWR015
U 1 1 622F666B
P 6950 5050
F 0 "#PWR015" H 6950 4800 50  0001 C CNN
F 1 "GND" V 6955 4922 50  0000 R CNN
F 2 "" H 6950 5050 50  0001 C CNN
F 3 "" H 6950 5050 50  0001 C CNN
	1    6950 5050
	0    -1   -1   0   
$EndComp
Wire Wire Line
	1750 5050 4750 5050
Connection ~ 4750 5050
Wire Wire Line
	4750 5050 6050 5050
Connection ~ 6050 5050
Wire Wire Line
	1450 7250 1900 7250
Wire Wire Line
	1650 4700 5950 4700
Wire Wire Line
	1650 4200 1650 4700
Wire Wire Line
	1650 4700 1500 4700
Connection ~ 1650 4700
Wire Wire Line
	6150 4850 1850 4850
Wire Wire Line
	1850 4850 1500 4850
Connection ~ 1850 4850
Text Label 1900 7450 2    50   ~ 0
DOUT0
Text Label 1900 7550 2    50   ~ 0
DOUT1
Wire Wire Line
	1450 7550 1900 7550
Wire Wire Line
	1450 7450 1900 7450
Wire Wire Line
	900  1000 1400 1000
Wire Wire Line
	900  1650 1400 1650
Wire Wire Line
	900  1750 1400 1750
Wire Wire Line
	900  1850 1400 1850
Wire Wire Line
	900  1950 1400 1950
Wire Wire Line
	900  2050 1400 2050
Wire Wire Line
	900  2150 1400 2150
Wire Wire Line
	900  2250 1400 2250
Wire Wire Line
	900  2350 1400 2350
Wire Wire Line
	900  2450 1400 2450
Wire Wire Line
	900  2550 1400 2550
Wire Wire Line
	900  2650 1400 2650
Wire Wire Line
	900  2750 1400 2750
Wire Wire Line
	6500 4600 6500 4200
Wire Wire Line
	6150 4200 6150 4850
Wire Wire Line
	6050 4200 6050 5050
Wire Wire Line
	5950 4200 5950 4700
Wire Wire Line
	5850 4200 5850 4600
Wire Wire Line
	5750 4200 5750 4600
Wire Wire Line
	5650 4600 5650 4200
Wire Wire Line
	5550 4600 5550 4200
Wire Wire Line
	5450 4600 5450 4200
Wire Wire Line
	5350 4600 5350 4200
Wire Wire Line
	5250 4200 5250 5200
Wire Wire Line
	5150 4600 5150 4200
Wire Wire Line
	5050 4600 5050 4200
Wire Wire Line
	4950 4200 4950 4600
Wire Wire Line
	4850 4200 4850 4600
Wire Wire Line
	4750 4200 4750 5050
Wire Wire Line
	4650 4600 4650 4200
Wire Wire Line
	4550 4800 4550 4200
Wire Wire Line
	4450 4800 4450 4200
Wire Wire Line
	4350 4200 4350 5200
Wire Wire Line
	4250 4200 4250 4600
Wire Wire Line
	4150 4600 4150 4200
Wire Wire Line
	4050 4200 4050 4600
Wire Wire Line
	3950 4600 3950 4200
Wire Wire Line
	3850 4600 3850 4200
Wire Wire Line
	3750 4600 3750 4200
Wire Wire Line
	3650 4600 3650 4200
Wire Wire Line
	3550 4200 3550 4600
Wire Wire Line
	3450 4200 3450 4600
Wire Wire Line
	3350 4200 3350 4600
Wire Wire Line
	3250 4650 3250 4200
Wire Wire Line
	3150 4200 3150 4650
Wire Wire Line
	3050 4650 3050 4200
Wire Wire Line
	2950 4200 2950 4650
Wire Wire Line
	2850 4650 2850 4200
Wire Wire Line
	2750 4650 2750 4200
Wire Wire Line
	2650 4200 2650 4600
Wire Wire Line
	2550 4600 2550 4200
Wire Wire Line
	2450 4600 2450 4200
Wire Wire Line
	2350 4600 2350 4200
Wire Wire Line
	2250 4600 2250 4200
Wire Wire Line
	2150 4600 2150 4200
Wire Wire Line
	2050 4600 2050 4200
Wire Wire Line
	1950 4600 1950 4200
Wire Wire Line
	1850 4200 1850 4850
Wire Wire Line
	1750 4200 1750 5050
$Comp
L tsi_mpw_pcb:MPW_Chip MP1
U 1 1 60265546
P 2650 4100
F 0 "MP1" H 4075 7515 50  0000 C CNN
F 1 "MPW_Chip" H 4075 7424 50  0000 C CNN
F 2 "tsi_mpw_pcb:tsi_mpw_chip_f_w_pads_new" H 4300 5850 50  0001 C CNN
F 3 "" H 4300 5850 50  0001 C CNN
	1    2650 4100
	1    0    0    -1  
$EndComp
Text Label 1900 7650 2    50   ~ 0
Res_n
Text Label 1900 7750 2    50   ~ 0
Ctl_RB
Wire Wire Line
	1450 7750 1900 7750
Wire Wire Line
	1450 7650 1900 7650
$Comp
L power:GND #PWR0101
U 1 1 60498A73
P 4350 5200
F 0 "#PWR0101" H 4350 4950 50  0001 C CNN
F 1 "GND" H 4355 5027 50  0000 C CNN
F 2 "" H 4350 5200 50  0001 C CNN
F 3 "" H 4350 5200 50  0001 C CNN
	1    4350 5200
	1    0    0    -1  
$EndComp
Text Notes 4600 5500 2    50   ~ 0
Not sure here
$Comp
L Connector:Conn_01x16_Male J8
U 1 1 6025E669
P 7650 2150
F 0 "J8" H 7622 2124 50  0000 R CNN
F 1 "Conn_01x16_Male" H 7622 2033 50  0000 R CNN
F 2 "Connector_PinHeader_2.54mm:PinHeader_1x16_P2.54mm_Vertical" H 7650 2150 50  0001 C CNN
F 3 "~" H 7650 2150 50  0001 C CNN
	1    7650 2150
	-1   0    0    -1  
$EndComp
Wire Wire Line
	6750 2950 7450 2950
Wire Wire Line
	6750 2850 7450 2850
Wire Wire Line
	6750 2750 7450 2750
Wire Wire Line
	6750 2650 7450 2650
Wire Wire Line
	6750 2550 7450 2550
Wire Wire Line
	6750 2450 7450 2450
Wire Wire Line
	6750 2350 7450 2350
Wire Wire Line
	6750 2250 7450 2250
Wire Wire Line
	6750 2150 7450 2150
Wire Wire Line
	6750 2050 7450 2050
Wire Wire Line
	6750 1950 7450 1950
Wire Wire Line
	6750 1850 7450 1850
Wire Wire Line
	6750 1750 7450 1750
Wire Wire Line
	6750 1650 7450 1650
Wire Wire Line
	6750 1550 7450 1550
Wire Wire Line
	7450 1000 7450 1450
Wire Wire Line
	6750 1000 7450 1000
$Comp
L Connector:Conn_01x13_Male J7
U 1 1 60368DAE
P 700 2150
F 0 "J7" H 808 2931 50  0000 C CNN
F 1 "Conn_01x13_Male" H 808 2840 50  0000 C CNN
F 2 "Connector_PinHeader_2.54mm:PinHeader_1x13_P2.54mm_Vertical" H 700 2150 50  0001 C CNN
F 3 "~" H 700 2150 50  0001 C CNN
	1    700  2150
	1    0    0    -1  
$EndComp
Wire Wire Line
	900  1000 900  1550
Wire Wire Line
	6050 5050 6950 5050
Wire Wire Line
	6750 3450 7200 3450
$Comp
L power:GND1 #PWR0102
U 1 1 603CBD27
P 7200 3450
F 0 "#PWR0102" H 7200 3200 50  0001 C CNN
F 1 "GND1" V 7205 3322 50  0000 R CNN
F 2 "" H 7200 3450 50  0001 C CNN
F 3 "" H 7200 3450 50  0001 C CNN
	1    7200 3450
	0    -1   -1   0   
$EndComp
Wire Wire Line
	5700 7400 5250 7400
Text Label 5250 7400 0    50   ~ 0
VDDA
$EndSCHEMATC
