%TF.GenerationSoftware,KiCad,Pcbnew,(5.99.0-10436-ga433451bd8)*%
%TF.CreationDate,2021-04-29T10:19:21+02:00*%
%TF.ProjectId,MightyPixRun2020_PCB,4d696768-7479-4506-9978-52756e323032,rev?*%
%TF.SameCoordinates,PX5f57d00PY8f101f0*%
%TF.FileFunction,Soldermask,Top*%
%TF.FilePolarity,Negative*%
%FSLAX46Y46*%
G04 Gerber Fmt 4.6, Leading zero omitted, Abs format (unit mm)*
G04 Created by KiCad (PCBNEW (5.99.0-10436-ga433451bd8)) date 2021-04-29 10:19:21*
%MOMM*%
%LPD*%
G01*
G04 APERTURE LIST*
G04 Aperture macros list*
%AMRoundRect*
0 Rectangle with rounded corners*
0 $1 Rounding radius*
0 $2 $3 $4 $5 $6 $7 $8 $9 X,Y pos of 4 corners*
0 Add a 4 corners polygon primitive as box body*
4,1,4,$2,$3,$4,$5,$6,$7,$8,$9,$2,$3,0*
0 Add four circle primitives for the rounded corners*
1,1,$1+$1,$2,$3*
1,1,$1+$1,$4,$5*
1,1,$1+$1,$6,$7*
1,1,$1+$1,$8,$9*
0 Add four rect primitives between the rounded corners*
20,1,$1+$1,$2,$3,$4,$5,0*
20,1,$1+$1,$4,$5,$6,$7,0*
20,1,$1+$1,$6,$7,$8,$9,0*
20,1,$1+$1,$8,$9,$2,$3,0*%
G04 Aperture macros list end*
%ADD10C,0.100000*%
%ADD11C,0.150000*%
%ADD12C,0.300000*%
%ADD13C,0.400000*%
%ADD14C,0.150001*%
%ADD15C,0.500001*%
%ADD16RoundRect,0.100000X-0.075000X-0.200000X0.075000X-0.200000X0.075000X0.200000X-0.075000X0.200000X0*%
%ADD17RoundRect,0.100000X-0.075000X-0.500000X0.075000X-0.500000X0.075000X0.500000X-0.075000X0.500000X0*%
%ADD18RoundRect,0.100000X0.500000X-0.075000X0.500000X0.075000X-0.500000X0.075000X-0.500000X-0.075000X0*%
%ADD19RoundRect,0.051000X0.850000X0.850000X-0.850000X0.850000X-0.850000X-0.850000X0.850000X-0.850000X0*%
%ADD20O,1.802000X1.802000*%
%ADD21RoundRect,0.051000X-0.850000X0.850000X-0.850000X-0.850000X0.850000X-0.850000X0.850000X0.850000X0*%
%ADD22RoundRect,0.051000X-0.850000X-0.850000X0.850000X-0.850000X0.850000X0.850000X-0.850000X0.850000X0*%
%ADD23RoundRect,0.263000X0.325500X0.263000X-0.325500X0.263000X-0.325500X-0.263000X0.325500X-0.263000X0*%
%ADD24RoundRect,0.263000X0.263000X-0.325500X0.263000X0.325500X-0.263000X0.325500X-0.263000X-0.325500X0*%
%ADD25RoundRect,0.271702X0.366798X0.504298X-0.366798X0.504298X-0.366798X-0.504298X0.366798X-0.504298X0*%
%ADD26RoundRect,0.263000X-0.325500X-0.263000X0.325500X-0.263000X0.325500X0.263000X-0.325500X0.263000X0*%
%ADD27RoundRect,0.263000X-0.263000X0.325500X-0.263000X-0.325500X0.263000X-0.325500X0.263000X0.325500X0*%
%ADD28RoundRect,0.269245X0.681755X-0.444255X0.681755X0.444255X-0.681755X0.444255X-0.681755X-0.444255X0*%
%ADD29C,1.102000*%
%ADD30C,3.702000*%
%ADD31RoundRect,0.051000X0.780000X0.325000X-0.780000X0.325000X-0.780000X-0.325000X0.780000X-0.325000X0*%
%ADD32C,1.552000*%
%ADD33RoundRect,0.263000X0.263000X-0.275500X0.263000X0.275500X-0.263000X0.275500X-0.263000X-0.275500X0*%
%ADD34RoundRect,0.263000X0.275500X0.263000X-0.275500X0.263000X-0.275500X-0.263000X0.275500X-0.263000X0*%
%ADD35RoundRect,0.263000X-0.275500X-0.263000X0.275500X-0.263000X0.275500X0.263000X-0.275500X0.263000X0*%
%ADD36RoundRect,0.263000X-0.263000X0.275500X-0.263000X-0.275500X0.263000X-0.275500X0.263000X0.275500X0*%
%ADD37C,1.302000*%
%ADD38RoundRect,0.269245X-0.444255X-0.681755X0.444255X-0.681755X0.444255X0.681755X-0.444255X0.681755X0*%
%ADD39C,3.302000*%
%ADD40RoundRect,0.051000X-0.500000X-0.500000X0.500000X-0.500000X0.500000X0.500000X-0.500000X0.500000X0*%
G04 APERTURE END LIST*
D10*
D11*
X77027800Y-15994800D02*
X77027800Y-47994800D01*
X185027800Y-47994800D01*
X185027800Y-15994800D01*
X77027800Y-15994800D01*
D10*
D11*
X-89974400Y140012400D02*
X-89974400Y-49994800D01*
X187027800Y-49994800D01*
X187027800Y140012400D01*
X-89974400Y140012400D01*
D10*
D11*
X-87974400Y138012400D02*
X-87974400Y-47994800D01*
X185027800Y-47994800D01*
X185027800Y138012400D01*
X-87974400Y138012400D01*
D10*
D11*
X-39974400Y138012400D02*
X-39974400Y140012400D01*
D10*
D11*
X10025600Y138012400D02*
X10025600Y140012400D01*
D10*
D11*
X60025600Y138012400D02*
X60025600Y140012400D01*
D10*
D11*
X110025600Y138012400D02*
X110025600Y140012400D01*
D10*
D11*
X160025600Y138012400D02*
X160025600Y140012400D01*
D10*
D11*
X-63908924Y138424305D02*
X-64651781Y138424305D01*
X-64280353Y138424305D02*
X-64280353Y139724305D01*
X-64404162Y139538591D01*
X-64527972Y139414781D01*
X-64651781Y139352877D01*
D10*
D11*
X-14651781Y139600496D02*
X-14589877Y139662400D01*
X-14466067Y139724305D01*
X-14156543Y139724305D01*
X-14032734Y139662400D01*
X-13970829Y139600496D01*
X-13908924Y139476686D01*
X-13908924Y139352877D01*
X-13970829Y139167162D01*
X-14713686Y138424305D01*
X-13908924Y138424305D01*
D10*
D11*
X35286314Y139724305D02*
X36091076Y139724305D01*
X35657742Y139229067D01*
X35843457Y139229067D01*
X35967266Y139167162D01*
X36029171Y139105258D01*
X36091076Y138981448D01*
X36091076Y138671924D01*
X36029171Y138548115D01*
X35967266Y138486210D01*
X35843457Y138424305D01*
X35472028Y138424305D01*
X35348219Y138486210D01*
X35286314Y138548115D01*
D10*
D11*
X85967266Y139290972D02*
X85967266Y138424305D01*
X85657742Y139786210D02*
X85348219Y138857639D01*
X86152980Y138857639D01*
D10*
D11*
X136029171Y139724305D02*
X135410123Y139724305D01*
X135348219Y139105258D01*
X135410123Y139167162D01*
X135533933Y139229067D01*
X135843457Y139229067D01*
X135967266Y139167162D01*
X136029171Y139105258D01*
X136091076Y138981448D01*
X136091076Y138671924D01*
X136029171Y138548115D01*
X135967266Y138486210D01*
X135843457Y138424305D01*
X135533933Y138424305D01*
X135410123Y138486210D01*
X135348219Y138548115D01*
D10*
D11*
X185967266Y139724305D02*
X185719647Y139724305D01*
X185595838Y139662400D01*
X185533933Y139600496D01*
X185410123Y139414781D01*
X185348219Y139167162D01*
X185348219Y138671924D01*
X185410123Y138548115D01*
X185472028Y138486210D01*
X185595838Y138424305D01*
X185843457Y138424305D01*
X185967266Y138486210D01*
X186029171Y138548115D01*
X186091076Y138671924D01*
X186091076Y138981448D01*
X186029171Y139105258D01*
X185967266Y139167162D01*
X185843457Y139229067D01*
X185595838Y139229067D01*
X185472028Y139167162D01*
X185410123Y139105258D01*
X185348219Y138981448D01*
D10*
D11*
X-39974400Y-47994800D02*
X-39974400Y-49994800D01*
D10*
D11*
X10025600Y-47994800D02*
X10025600Y-49994800D01*
D10*
D11*
X60025600Y-47994800D02*
X60025600Y-49994800D01*
D10*
D11*
X110025600Y-47994800D02*
X110025600Y-49994800D01*
D10*
D11*
X160025600Y-47994800D02*
X160025600Y-49994800D01*
D10*
D11*
X-63908924Y-49582895D02*
X-64651781Y-49582895D01*
X-64280353Y-49582895D02*
X-64280353Y-48282895D01*
X-64404162Y-48468609D01*
X-64527972Y-48592419D01*
X-64651781Y-48654323D01*
D10*
D11*
X-14651781Y-48406704D02*
X-14589877Y-48344800D01*
X-14466067Y-48282895D01*
X-14156543Y-48282895D01*
X-14032734Y-48344800D01*
X-13970829Y-48406704D01*
X-13908924Y-48530514D01*
X-13908924Y-48654323D01*
X-13970829Y-48840038D01*
X-14713686Y-49582895D01*
X-13908924Y-49582895D01*
D10*
D11*
X35286314Y-48282895D02*
X36091076Y-48282895D01*
X35657742Y-48778133D01*
X35843457Y-48778133D01*
X35967266Y-48840038D01*
X36029171Y-48901942D01*
X36091076Y-49025752D01*
X36091076Y-49335276D01*
X36029171Y-49459085D01*
X35967266Y-49520990D01*
X35843457Y-49582895D01*
X35472028Y-49582895D01*
X35348219Y-49520990D01*
X35286314Y-49459085D01*
D10*
D11*
X85967266Y-48716228D02*
X85967266Y-49582895D01*
X85657742Y-48220990D02*
X85348219Y-49149561D01*
X86152980Y-49149561D01*
D10*
D11*
X136029171Y-48282895D02*
X135410123Y-48282895D01*
X135348219Y-48901942D01*
X135410123Y-48840038D01*
X135533933Y-48778133D01*
X135843457Y-48778133D01*
X135967266Y-48840038D01*
X136029171Y-48901942D01*
X136091076Y-49025752D01*
X136091076Y-49335276D01*
X136029171Y-49459085D01*
X135967266Y-49520990D01*
X135843457Y-49582895D01*
X135533933Y-49582895D01*
X135410123Y-49520990D01*
X135348219Y-49459085D01*
D10*
D11*
X185967266Y-48282895D02*
X185719647Y-48282895D01*
X185595838Y-48344800D01*
X185533933Y-48406704D01*
X185410123Y-48592419D01*
X185348219Y-48840038D01*
X185348219Y-49335276D01*
X185410123Y-49459085D01*
X185472028Y-49520990D01*
X185595838Y-49582895D01*
X185843457Y-49582895D01*
X185967266Y-49520990D01*
X186029171Y-49459085D01*
X186091076Y-49335276D01*
X186091076Y-49025752D01*
X186029171Y-48901942D01*
X185967266Y-48840038D01*
X185843457Y-48778133D01*
X185595838Y-48778133D01*
X185472028Y-48840038D01*
X185410123Y-48901942D01*
X185348219Y-49025752D01*
D10*
D11*
X-89974400Y90012400D02*
X-87974400Y90012400D01*
D10*
D11*
X-89974400Y40012400D02*
X-87974400Y40012400D01*
D10*
D11*
X-89974400Y-9987600D02*
X-87974400Y-9987600D01*
D10*
D11*
X-89283924Y114795734D02*
X-88664877Y114795734D01*
X-89407734Y114424305D02*
X-88974400Y115724305D01*
X-88541067Y114424305D01*
D10*
D11*
X-88881543Y65105258D02*
X-88695829Y65043353D01*
X-88633924Y64981448D01*
X-88572020Y64857639D01*
X-88572020Y64671924D01*
X-88633924Y64548115D01*
X-88695829Y64486210D01*
X-88819639Y64424305D01*
X-89314877Y64424305D01*
X-89314877Y65724305D01*
X-88881543Y65724305D01*
X-88757734Y65662400D01*
X-88695829Y65600496D01*
X-88633924Y65476686D01*
X-88633924Y65352877D01*
X-88695829Y65229067D01*
X-88757734Y65167162D01*
X-88881543Y65105258D01*
X-89314877Y65105258D01*
D10*
D11*
X-88572020Y14548115D02*
X-88633924Y14486210D01*
X-88819639Y14424305D01*
X-88943448Y14424305D01*
X-89129162Y14486210D01*
X-89252972Y14610020D01*
X-89314877Y14733829D01*
X-89376781Y14981448D01*
X-89376781Y15167162D01*
X-89314877Y15414781D01*
X-89252972Y15538591D01*
X-89129162Y15662400D01*
X-88943448Y15724305D01*
X-88819639Y15724305D01*
X-88633924Y15662400D01*
X-88572020Y15600496D01*
D10*
D11*
X-89314877Y-35575695D02*
X-89314877Y-34275695D01*
X-89005353Y-34275695D01*
X-88819639Y-34337600D01*
X-88695829Y-34461409D01*
X-88633924Y-34585219D01*
X-88572020Y-34832838D01*
X-88572020Y-35018552D01*
X-88633924Y-35266171D01*
X-88695829Y-35389980D01*
X-88819639Y-35513790D01*
X-89005353Y-35575695D01*
X-89314877Y-35575695D01*
D10*
D11*
X187027800Y90012400D02*
X185027800Y90012400D01*
D10*
D11*
X187027800Y40012400D02*
X185027800Y40012400D01*
D10*
D11*
X187027800Y-9987600D02*
X185027800Y-9987600D01*
D10*
D11*
X185718276Y114795734D02*
X186337323Y114795734D01*
X185594466Y114424305D02*
X186027800Y115724305D01*
X186461133Y114424305D01*
D10*
D11*
X186120657Y65105258D02*
X186306371Y65043353D01*
X186368276Y64981448D01*
X186430180Y64857639D01*
X186430180Y64671924D01*
X186368276Y64548115D01*
X186306371Y64486210D01*
X186182561Y64424305D01*
X185687323Y64424305D01*
X185687323Y65724305D01*
X186120657Y65724305D01*
X186244466Y65662400D01*
X186306371Y65600496D01*
X186368276Y65476686D01*
X186368276Y65352877D01*
X186306371Y65229067D01*
X186244466Y65167162D01*
X186120657Y65105258D01*
X185687323Y65105258D01*
D10*
D11*
X186430180Y14548115D02*
X186368276Y14486210D01*
X186182561Y14424305D01*
X186058752Y14424305D01*
X185873038Y14486210D01*
X185749228Y14610020D01*
X185687323Y14733829D01*
X185625419Y14981448D01*
X185625419Y15167162D01*
X185687323Y15414781D01*
X185749228Y15538591D01*
X185873038Y15662400D01*
X186058752Y15724305D01*
X186182561Y15724305D01*
X186368276Y15662400D01*
X186430180Y15600496D01*
D10*
D11*
X185687323Y-35575695D02*
X185687323Y-34275695D01*
X185996847Y-34275695D01*
X186182561Y-34337600D01*
X186306371Y-34461409D01*
X186368276Y-34585219D01*
X186430180Y-34832838D01*
X186430180Y-35018552D01*
X186368276Y-35266171D01*
X186306371Y-35389980D01*
X186182561Y-35513790D01*
X185996847Y-35575695D01*
X185687323Y-35575695D01*
D10*
D11*
X100459942Y-43773371D02*
X100459942Y-42273371D01*
X100817085Y-42273371D01*
X101031371Y-42344800D01*
X101174228Y-42487657D01*
X101245657Y-42630514D01*
X101317085Y-42916228D01*
X101317085Y-43130514D01*
X101245657Y-43416228D01*
X101174228Y-43559085D01*
X101031371Y-43701942D01*
X100817085Y-43773371D01*
X100459942Y-43773371D01*
X102602800Y-43773371D02*
X102602800Y-42987657D01*
X102531371Y-42844800D01*
X102388514Y-42773371D01*
X102102800Y-42773371D01*
X101959942Y-42844800D01*
X102602800Y-43701942D02*
X102459942Y-43773371D01*
X102102800Y-43773371D01*
X101959942Y-43701942D01*
X101888514Y-43559085D01*
X101888514Y-43416228D01*
X101959942Y-43273371D01*
X102102800Y-43201942D01*
X102459942Y-43201942D01*
X102602800Y-43130514D01*
X103102800Y-42773371D02*
X103674228Y-42773371D01*
X103317085Y-42273371D02*
X103317085Y-43559085D01*
X103388514Y-43701942D01*
X103531371Y-43773371D01*
X103674228Y-43773371D01*
X104745657Y-43701942D02*
X104602800Y-43773371D01*
X104317085Y-43773371D01*
X104174228Y-43701942D01*
X104102800Y-43559085D01*
X104102800Y-42987657D01*
X104174228Y-42844800D01*
X104317085Y-42773371D01*
X104602800Y-42773371D01*
X104745657Y-42844800D01*
X104817085Y-42987657D01*
X104817085Y-43130514D01*
X104102800Y-43273371D01*
X105459942Y-43630514D02*
X105531371Y-43701942D01*
X105459942Y-43773371D01*
X105388514Y-43701942D01*
X105459942Y-43630514D01*
X105459942Y-43773371D01*
X105459942Y-42844800D02*
X105531371Y-42916228D01*
X105459942Y-42987657D01*
X105388514Y-42916228D01*
X105459942Y-42844800D01*
X105459942Y-42987657D01*
D10*
D11*
X77027800Y-44494800D02*
X185027800Y-44494800D01*
D10*
D11*
X78459942Y-46573371D02*
X78459942Y-45073371D01*
X79317085Y-46573371D02*
X78674228Y-45716228D01*
X79317085Y-45073371D02*
X78459942Y-45930514D01*
X79959942Y-46573371D02*
X79959942Y-45573371D01*
X79959942Y-45073371D02*
X79888514Y-45144800D01*
X79959942Y-45216228D01*
X80031371Y-45144800D01*
X79959942Y-45073371D01*
X79959942Y-45216228D01*
X81531371Y-46430514D02*
X81459942Y-46501942D01*
X81245657Y-46573371D01*
X81102800Y-46573371D01*
X80888514Y-46501942D01*
X80745657Y-46359085D01*
X80674228Y-46216228D01*
X80602800Y-45930514D01*
X80602800Y-45716228D01*
X80674228Y-45430514D01*
X80745657Y-45287657D01*
X80888514Y-45144800D01*
X81102800Y-45073371D01*
X81245657Y-45073371D01*
X81459942Y-45144800D01*
X81531371Y-45216228D01*
X82817085Y-46573371D02*
X82817085Y-45787657D01*
X82745657Y-45644800D01*
X82602800Y-45573371D01*
X82317085Y-45573371D01*
X82174228Y-45644800D01*
X82817085Y-46501942D02*
X82674228Y-46573371D01*
X82317085Y-46573371D01*
X82174228Y-46501942D01*
X82102800Y-46359085D01*
X82102800Y-46216228D01*
X82174228Y-46073371D01*
X82317085Y-46001942D01*
X82674228Y-46001942D01*
X82817085Y-45930514D01*
X84174228Y-46573371D02*
X84174228Y-45073371D01*
X84174228Y-46501942D02*
X84031371Y-46573371D01*
X83745657Y-46573371D01*
X83602800Y-46501942D01*
X83531371Y-46430514D01*
X83459942Y-46287657D01*
X83459942Y-45859085D01*
X83531371Y-45716228D01*
X83602800Y-45644800D01*
X83745657Y-45573371D01*
X84031371Y-45573371D01*
X84174228Y-45644800D01*
X86031371Y-45787657D02*
X86531371Y-45787657D01*
X86745657Y-46573371D02*
X86031371Y-46573371D01*
X86031371Y-45073371D01*
X86745657Y-45073371D01*
X87388514Y-46430514D02*
X87459942Y-46501942D01*
X87388514Y-46573371D01*
X87317085Y-46501942D01*
X87388514Y-46430514D01*
X87388514Y-46573371D01*
X88102800Y-46573371D02*
X88102800Y-45073371D01*
X88459942Y-45073371D01*
X88674228Y-45144800D01*
X88817085Y-45287657D01*
X88888514Y-45430514D01*
X88959942Y-45716228D01*
X88959942Y-45930514D01*
X88888514Y-46216228D01*
X88817085Y-46359085D01*
X88674228Y-46501942D01*
X88459942Y-46573371D01*
X88102800Y-46573371D01*
X89602800Y-46430514D02*
X89674228Y-46501942D01*
X89602800Y-46573371D01*
X89531371Y-46501942D01*
X89602800Y-46430514D01*
X89602800Y-46573371D01*
X90245657Y-46144800D02*
X90959942Y-46144800D01*
X90102800Y-46573371D02*
X90602800Y-45073371D01*
X91102800Y-46573371D01*
X91602800Y-46430514D02*
X91674228Y-46501942D01*
X91602800Y-46573371D01*
X91531371Y-46501942D01*
X91602800Y-46430514D01*
X91602800Y-46573371D01*
X94602800Y-46573371D02*
X94602800Y-45073371D01*
X94745657Y-46001942D02*
X95174228Y-46573371D01*
X95174228Y-45573371D02*
X94602800Y-46144800D01*
X95817085Y-46573371D02*
X95817085Y-45573371D01*
X95817085Y-45073371D02*
X95745657Y-45144800D01*
X95817085Y-45216228D01*
X95888514Y-45144800D01*
X95817085Y-45073371D01*
X95817085Y-45216228D01*
X97174228Y-46501942D02*
X97031371Y-46573371D01*
X96745657Y-46573371D01*
X96602800Y-46501942D01*
X96531371Y-46430514D01*
X96459942Y-46287657D01*
X96459942Y-45859085D01*
X96531371Y-45716228D01*
X96602800Y-45644800D01*
X96745657Y-45573371D01*
X97031371Y-45573371D01*
X97174228Y-45644800D01*
X98459942Y-46573371D02*
X98459942Y-45787657D01*
X98388514Y-45644800D01*
X98245657Y-45573371D01*
X97959942Y-45573371D01*
X97817085Y-45644800D01*
X98459942Y-46501942D02*
X98317085Y-46573371D01*
X97959942Y-46573371D01*
X97817085Y-46501942D01*
X97745657Y-46359085D01*
X97745657Y-46216228D01*
X97817085Y-46073371D01*
X97959942Y-46001942D01*
X98317085Y-46001942D01*
X98459942Y-45930514D01*
X99817085Y-46573371D02*
X99817085Y-45073371D01*
X99817085Y-46501942D02*
X99674228Y-46573371D01*
X99388514Y-46573371D01*
X99245657Y-46501942D01*
X99174228Y-46430514D01*
X99102800Y-46287657D01*
X99102800Y-45859085D01*
X99174228Y-45716228D01*
X99245657Y-45644800D01*
X99388514Y-45573371D01*
X99674228Y-45573371D01*
X99817085Y-45644800D01*
X102102800Y-47144800D02*
X102031371Y-47073371D01*
X101888514Y-46859085D01*
X101817085Y-46716228D01*
X101745657Y-46501942D01*
X101674228Y-46144800D01*
X101674228Y-45859085D01*
X101745657Y-45501942D01*
X101817085Y-45287657D01*
X101888514Y-45144800D01*
X102031371Y-44930514D01*
X102102800Y-44859085D01*
X103388514Y-45073371D02*
X102674228Y-45073371D01*
X102602800Y-45787657D01*
X102674228Y-45716228D01*
X102817085Y-45644800D01*
X103174228Y-45644800D01*
X103317085Y-45716228D01*
X103388514Y-45787657D01*
X103459942Y-45930514D01*
X103459942Y-46287657D01*
X103388514Y-46430514D01*
X103317085Y-46501942D01*
X103174228Y-46573371D01*
X102817085Y-46573371D01*
X102674228Y-46501942D01*
X102602800Y-46430514D01*
X104102800Y-46430514D02*
X104174228Y-46501942D01*
X104102800Y-46573371D01*
X104031371Y-46501942D01*
X104102800Y-46430514D01*
X104102800Y-46573371D01*
X104888514Y-46573371D02*
X105174228Y-46573371D01*
X105317085Y-46501942D01*
X105388514Y-46430514D01*
X105531371Y-46216228D01*
X105602800Y-45930514D01*
X105602800Y-45359085D01*
X105531371Y-45216228D01*
X105459942Y-45144800D01*
X105317085Y-45073371D01*
X105031371Y-45073371D01*
X104888514Y-45144800D01*
X104817085Y-45216228D01*
X104745657Y-45359085D01*
X104745657Y-45716228D01*
X104817085Y-45859085D01*
X104888514Y-45930514D01*
X105031371Y-46001942D01*
X105317085Y-46001942D01*
X105459942Y-45930514D01*
X105531371Y-45859085D01*
X105602800Y-45716228D01*
X106317085Y-46573371D02*
X106602800Y-46573371D01*
X106745657Y-46501942D01*
X106817085Y-46430514D01*
X106959942Y-46216228D01*
X107031371Y-45930514D01*
X107031371Y-45359085D01*
X106959942Y-45216228D01*
X106888514Y-45144800D01*
X106745657Y-45073371D01*
X106459942Y-45073371D01*
X106317085Y-45144800D01*
X106245657Y-45216228D01*
X106174228Y-45359085D01*
X106174228Y-45716228D01*
X106245657Y-45859085D01*
X106317085Y-45930514D01*
X106459942Y-46001942D01*
X106745657Y-46001942D01*
X106888514Y-45930514D01*
X106959942Y-45859085D01*
X107031371Y-45716228D01*
X107674228Y-46430514D02*
X107745657Y-46501942D01*
X107674228Y-46573371D01*
X107602800Y-46501942D01*
X107674228Y-46430514D01*
X107674228Y-46573371D01*
X108674228Y-45073371D02*
X108817085Y-45073371D01*
X108959942Y-45144800D01*
X109031371Y-45216228D01*
X109102800Y-45359085D01*
X109174228Y-45644800D01*
X109174228Y-46001942D01*
X109102800Y-46287657D01*
X109031371Y-46430514D01*
X108959942Y-46501942D01*
X108817085Y-46573371D01*
X108674228Y-46573371D01*
X108531371Y-46501942D01*
X108459942Y-46430514D01*
X108388514Y-46287657D01*
X108317085Y-46001942D01*
X108317085Y-45644800D01*
X108388514Y-45359085D01*
X108459942Y-45216228D01*
X108531371Y-45144800D01*
X108674228Y-45073371D01*
X109817085Y-46001942D02*
X110959942Y-46001942D01*
X112459942Y-46573371D02*
X111602800Y-46573371D01*
X112031371Y-46573371D02*
X112031371Y-45073371D01*
X111888514Y-45287657D01*
X111745657Y-45430514D01*
X111602800Y-45501942D01*
X113388514Y-45073371D02*
X113531371Y-45073371D01*
X113674228Y-45144800D01*
X113745657Y-45216228D01*
X113817085Y-45359085D01*
X113888514Y-45644800D01*
X113888514Y-46001942D01*
X113817085Y-46287657D01*
X113745657Y-46430514D01*
X113674228Y-46501942D01*
X113531371Y-46573371D01*
X113388514Y-46573371D01*
X113245657Y-46501942D01*
X113174228Y-46430514D01*
X113102800Y-46287657D01*
X113031371Y-46001942D01*
X113031371Y-45644800D01*
X113102800Y-45359085D01*
X113174228Y-45216228D01*
X113245657Y-45144800D01*
X113388514Y-45073371D01*
X115174228Y-45573371D02*
X115174228Y-46573371D01*
X114817085Y-45001942D02*
X114459942Y-46073371D01*
X115388514Y-46073371D01*
X115817085Y-45073371D02*
X116745657Y-45073371D01*
X116245657Y-45644800D01*
X116459942Y-45644800D01*
X116602800Y-45716228D01*
X116674228Y-45787657D01*
X116745657Y-45930514D01*
X116745657Y-46287657D01*
X116674228Y-46430514D01*
X116602800Y-46501942D01*
X116459942Y-46573371D01*
X116031371Y-46573371D01*
X115888514Y-46501942D01*
X115817085Y-46430514D01*
X118031371Y-45073371D02*
X117745657Y-45073371D01*
X117602800Y-45144800D01*
X117531371Y-45216228D01*
X117388514Y-45430514D01*
X117317085Y-45716228D01*
X117317085Y-46287657D01*
X117388514Y-46430514D01*
X117459942Y-46501942D01*
X117602800Y-46573371D01*
X117888514Y-46573371D01*
X118031371Y-46501942D01*
X118102800Y-46430514D01*
X118174228Y-46287657D01*
X118174228Y-45930514D01*
X118102800Y-45787657D01*
X118031371Y-45716228D01*
X117888514Y-45644800D01*
X117602800Y-45644800D01*
X117459942Y-45716228D01*
X117388514Y-45787657D01*
X117317085Y-45930514D01*
X118817085Y-46001942D02*
X119959942Y-46001942D01*
X121317085Y-45573371D02*
X121317085Y-46787657D01*
X121245657Y-46930514D01*
X121174228Y-47001942D01*
X121031371Y-47073371D01*
X120817085Y-47073371D01*
X120674228Y-47001942D01*
X121317085Y-46501942D02*
X121174228Y-46573371D01*
X120888514Y-46573371D01*
X120745657Y-46501942D01*
X120674228Y-46430514D01*
X120602800Y-46287657D01*
X120602800Y-45859085D01*
X120674228Y-45716228D01*
X120745657Y-45644800D01*
X120888514Y-45573371D01*
X121174228Y-45573371D01*
X121317085Y-45644800D01*
X122674228Y-46573371D02*
X122674228Y-45787657D01*
X122602800Y-45644800D01*
X122459942Y-45573371D01*
X122174228Y-45573371D01*
X122031371Y-45644800D01*
X122674228Y-46501942D02*
X122531371Y-46573371D01*
X122174228Y-46573371D01*
X122031371Y-46501942D01*
X121959942Y-46359085D01*
X121959942Y-46216228D01*
X122031371Y-46073371D01*
X122174228Y-46001942D01*
X122531371Y-46001942D01*
X122674228Y-45930514D01*
X124031371Y-45573371D02*
X124031371Y-46573371D01*
X123674228Y-45001942D02*
X123317085Y-46073371D01*
X124245657Y-46073371D01*
X124674228Y-45073371D02*
X125602800Y-45073371D01*
X125102800Y-45644800D01*
X125317085Y-45644800D01*
X125459942Y-45716228D01*
X125531371Y-45787657D01*
X125602800Y-45930514D01*
X125602800Y-46287657D01*
X125531371Y-46430514D01*
X125459942Y-46501942D01*
X125317085Y-46573371D01*
X124888514Y-46573371D01*
X124745657Y-46501942D01*
X124674228Y-46430514D01*
X126102800Y-45073371D02*
X127031371Y-45073371D01*
X126531371Y-45644800D01*
X126745657Y-45644800D01*
X126888514Y-45716228D01*
X126959942Y-45787657D01*
X127031371Y-45930514D01*
X127031371Y-46287657D01*
X126959942Y-46430514D01*
X126888514Y-46501942D01*
X126745657Y-46573371D01*
X126317085Y-46573371D01*
X126174228Y-46501942D01*
X126102800Y-46430514D01*
X128317085Y-45573371D02*
X128317085Y-46573371D01*
X127959942Y-45001942D02*
X127602799Y-46073371D01*
X128531371Y-46073371D01*
X129817085Y-45073371D02*
X129102799Y-45073371D01*
X129031371Y-45787657D01*
X129102799Y-45716228D01*
X129245657Y-45644800D01*
X129602799Y-45644800D01*
X129745657Y-45716228D01*
X129817085Y-45787657D01*
X129888514Y-45930514D01*
X129888514Y-46287657D01*
X129817085Y-46430514D01*
X129745657Y-46501942D01*
X129602799Y-46573371D01*
X129245657Y-46573371D01*
X129102799Y-46501942D01*
X129031371Y-46430514D01*
X131317085Y-46573371D02*
X130459942Y-46573371D01*
X130888514Y-46573371D02*
X130888514Y-45073371D01*
X130745657Y-45287657D01*
X130602799Y-45430514D01*
X130459942Y-45501942D01*
X131959942Y-46573371D02*
X131959942Y-45073371D01*
X131959942Y-45644800D02*
X132102799Y-45573371D01*
X132388514Y-45573371D01*
X132531371Y-45644800D01*
X132602799Y-45716228D01*
X132674228Y-45859085D01*
X132674228Y-46287657D01*
X132602799Y-46430514D01*
X132531371Y-46501942D01*
X132388514Y-46573371D01*
X132102799Y-46573371D01*
X131959942Y-46501942D01*
X133959942Y-46573371D02*
X133959942Y-45073371D01*
X133959942Y-46501942D02*
X133817085Y-46573371D01*
X133531371Y-46573371D01*
X133388514Y-46501942D01*
X133317085Y-46430514D01*
X133245657Y-46287657D01*
X133245657Y-45859085D01*
X133317085Y-45716228D01*
X133388514Y-45644800D01*
X133531371Y-45573371D01*
X133817085Y-45573371D01*
X133959942Y-45644800D01*
X134888514Y-45716228D02*
X134745657Y-45644800D01*
X134674228Y-45573371D01*
X134602799Y-45430514D01*
X134602799Y-45359085D01*
X134674228Y-45216228D01*
X134745657Y-45144800D01*
X134888514Y-45073371D01*
X135174228Y-45073371D01*
X135317085Y-45144800D01*
X135388514Y-45216228D01*
X135459942Y-45359085D01*
X135459942Y-45430514D01*
X135388514Y-45573371D01*
X135317085Y-45644800D01*
X135174228Y-45716228D01*
X134888514Y-45716228D01*
X134745657Y-45787657D01*
X134674228Y-45859085D01*
X134602799Y-46001942D01*
X134602799Y-46287657D01*
X134674228Y-46430514D01*
X134745657Y-46501942D01*
X134888514Y-46573371D01*
X135174228Y-46573371D01*
X135317085Y-46501942D01*
X135388514Y-46430514D01*
X135459942Y-46287657D01*
X135459942Y-46001942D01*
X135388514Y-45859085D01*
X135317085Y-45787657D01*
X135174228Y-45716228D01*
X135959942Y-47144800D02*
X136031371Y-47073371D01*
X136174228Y-46859085D01*
X136245657Y-46716228D01*
X136317085Y-46501942D01*
X136388514Y-46144800D01*
X136388514Y-45859085D01*
X136317085Y-45501942D01*
X136245657Y-45287657D01*
X136174228Y-45144800D01*
X136031371Y-44930514D01*
X135959942Y-44859085D01*
D10*
D11*
X77027800Y-41494800D02*
X185027800Y-41494800D01*
D10*
D12*
X164437085Y-43773371D02*
X163937085Y-43059085D01*
X163579942Y-43773371D02*
X163579942Y-42273371D01*
X164151371Y-42273371D01*
X164294228Y-42344800D01*
X164365657Y-42416228D01*
X164437085Y-42559085D01*
X164437085Y-42773371D01*
X164365657Y-42916228D01*
X164294228Y-42987657D01*
X164151371Y-43059085D01*
X163579942Y-43059085D01*
X165651371Y-43701942D02*
X165508514Y-43773371D01*
X165222800Y-43773371D01*
X165079942Y-43701942D01*
X165008514Y-43559085D01*
X165008514Y-42987657D01*
X165079942Y-42844800D01*
X165222800Y-42773371D01*
X165508514Y-42773371D01*
X165651371Y-42844800D01*
X165722800Y-42987657D01*
X165722800Y-43130514D01*
X165008514Y-43273371D01*
X166222800Y-42773371D02*
X166579942Y-43773371D01*
X166937085Y-42773371D01*
X167508514Y-43630514D02*
X167579942Y-43701942D01*
X167508514Y-43773371D01*
X167437085Y-43701942D01*
X167508514Y-43630514D01*
X167508514Y-43773371D01*
X167508514Y-42844800D02*
X167579942Y-42916228D01*
X167508514Y-42987657D01*
X167437085Y-42916228D01*
X167508514Y-42844800D01*
X167508514Y-42987657D01*
D10*
D11*
X78388514Y-43701942D02*
X78602800Y-43773371D01*
X78959942Y-43773371D01*
X79102800Y-43701942D01*
X79174228Y-43630514D01*
X79245657Y-43487657D01*
X79245657Y-43344800D01*
X79174228Y-43201942D01*
X79102800Y-43130514D01*
X78959942Y-43059085D01*
X78674228Y-42987657D01*
X78531371Y-42916228D01*
X78459942Y-42844800D01*
X78388514Y-42701942D01*
X78388514Y-42559085D01*
X78459942Y-42416228D01*
X78531371Y-42344800D01*
X78674228Y-42273371D01*
X79031371Y-42273371D01*
X79245657Y-42344800D01*
X79888514Y-43773371D02*
X79888514Y-42773371D01*
X79888514Y-42273371D02*
X79817085Y-42344800D01*
X79888514Y-42416228D01*
X79959942Y-42344800D01*
X79888514Y-42273371D01*
X79888514Y-42416228D01*
X80459942Y-42773371D02*
X81245657Y-42773371D01*
X80459942Y-43773371D01*
X81245657Y-43773371D01*
X82388514Y-43701942D02*
X82245657Y-43773371D01*
X81959942Y-43773371D01*
X81817085Y-43701942D01*
X81745657Y-43559085D01*
X81745657Y-42987657D01*
X81817085Y-42844800D01*
X81959942Y-42773371D01*
X82245657Y-42773371D01*
X82388514Y-42844800D01*
X82459942Y-42987657D01*
X82459942Y-43130514D01*
X81745657Y-43273371D01*
X83102800Y-43630514D02*
X83174228Y-43701942D01*
X83102800Y-43773371D01*
X83031371Y-43701942D01*
X83102800Y-43630514D01*
X83102800Y-43773371D01*
X83102800Y-42844800D02*
X83174228Y-42916228D01*
X83102800Y-42987657D01*
X83031371Y-42916228D01*
X83102800Y-42844800D01*
X83102800Y-42987657D01*
X84888514Y-43344800D02*
X85602800Y-43344800D01*
X84745657Y-43773371D02*
X85245657Y-42273371D01*
X85745657Y-43773371D01*
X86888514Y-42773371D02*
X86888514Y-43773371D01*
X86531371Y-42201942D02*
X86174228Y-43273371D01*
X87102800Y-43273371D01*
D10*
D11*
X163459942Y-46573371D02*
X163459942Y-45073371D01*
X164817085Y-46573371D02*
X164817085Y-45073371D01*
X164817085Y-46501942D02*
X164674228Y-46573371D01*
X164388514Y-46573371D01*
X164245657Y-46501942D01*
X164174228Y-46430514D01*
X164102800Y-46287657D01*
X164102800Y-45859085D01*
X164174228Y-45716228D01*
X164245657Y-45644800D01*
X164388514Y-45573371D01*
X164674228Y-45573371D01*
X164817085Y-45644800D01*
X165531371Y-46430514D02*
X165602800Y-46501942D01*
X165531371Y-46573371D01*
X165459942Y-46501942D01*
X165531371Y-46430514D01*
X165531371Y-46573371D01*
X165531371Y-45644800D02*
X165602800Y-45716228D01*
X165531371Y-45787657D01*
X165459942Y-45716228D01*
X165531371Y-45644800D01*
X165531371Y-45787657D01*
X168174228Y-46573371D02*
X167317085Y-46573371D01*
X167745657Y-46573371D02*
X167745657Y-45073371D01*
X167602800Y-45287657D01*
X167459942Y-45430514D01*
X167317085Y-45501942D01*
X169888514Y-45001942D02*
X168602800Y-46930514D01*
X171174228Y-46573371D02*
X170317085Y-46573371D01*
X170745657Y-46573371D02*
X170745657Y-45073371D01*
X170602800Y-45287657D01*
X170459942Y-45430514D01*
X170317085Y-45501942D01*
D10*
D11*
X77027800Y-37494800D02*
X185027800Y-37494800D01*
D10*
D13*
X78740180Y-38199561D02*
X79883038Y-38199561D01*
X79061609Y-40199561D02*
X79311609Y-38199561D01*
X80299704Y-40199561D02*
X80466371Y-38866228D01*
X80549704Y-38199561D02*
X80442561Y-38294800D01*
X80525895Y-38390038D01*
X80633038Y-38294800D01*
X80549704Y-38199561D01*
X80525895Y-38390038D01*
X81133038Y-38866228D02*
X81894942Y-38866228D01*
X81502085Y-38199561D02*
X81287800Y-39913847D01*
X81359228Y-40104323D01*
X81537800Y-40199561D01*
X81728276Y-40199561D01*
X82680657Y-40199561D02*
X82502085Y-40104323D01*
X82430657Y-39913847D01*
X82644942Y-38199561D01*
X84216371Y-40104323D02*
X84013990Y-40199561D01*
X83633038Y-40199561D01*
X83454466Y-40104323D01*
X83383038Y-39913847D01*
X83478276Y-39151942D01*
X83597323Y-38961466D01*
X83799704Y-38866228D01*
X84180657Y-38866228D01*
X84359228Y-38961466D01*
X84430657Y-39151942D01*
X84406847Y-39342419D01*
X83430657Y-39532895D01*
X85180657Y-40009085D02*
X85263990Y-40104323D01*
X85156847Y-40199561D01*
X85073514Y-40104323D01*
X85180657Y-40009085D01*
X85156847Y-40199561D01*
X85311609Y-38961466D02*
X85394942Y-39056704D01*
X85287800Y-39151942D01*
X85204466Y-39056704D01*
X85311609Y-38961466D01*
X85287800Y-39151942D01*
D10*
D11*
X78959942Y-35587657D02*
X78459942Y-35587657D01*
X78459942Y-36373371D02*
X78459942Y-34873371D01*
X79174228Y-34873371D01*
X79745657Y-36373371D02*
X79745657Y-35373371D01*
X79745657Y-34873371D02*
X79674228Y-34944800D01*
X79745657Y-35016228D01*
X79817085Y-34944800D01*
X79745657Y-34873371D01*
X79745657Y-35016228D01*
X80674228Y-36373371D02*
X80531371Y-36301942D01*
X80459942Y-36159085D01*
X80459942Y-34873371D01*
X81817085Y-36301942D02*
X81674228Y-36373371D01*
X81388514Y-36373371D01*
X81245657Y-36301942D01*
X81174228Y-36159085D01*
X81174228Y-35587657D01*
X81245657Y-35444800D01*
X81388514Y-35373371D01*
X81674228Y-35373371D01*
X81817085Y-35444800D01*
X81888514Y-35587657D01*
X81888514Y-35730514D01*
X81174228Y-35873371D01*
X82531371Y-36230514D02*
X82602800Y-36301942D01*
X82531371Y-36373371D01*
X82459942Y-36301942D01*
X82531371Y-36230514D01*
X82531371Y-36373371D01*
X82531371Y-35444800D02*
X82602800Y-35516228D01*
X82531371Y-35587657D01*
X82459942Y-35516228D01*
X82531371Y-35444800D01*
X82531371Y-35587657D01*
X84388514Y-36373371D02*
X84388514Y-34873371D01*
X84888514Y-35944800D01*
X85388514Y-34873371D01*
X85388514Y-36373371D01*
X86102800Y-36373371D02*
X86102800Y-35373371D01*
X86102800Y-34873371D02*
X86031371Y-34944800D01*
X86102800Y-35016228D01*
X86174228Y-34944800D01*
X86102800Y-34873371D01*
X86102800Y-35016228D01*
X87459942Y-35373371D02*
X87459942Y-36587657D01*
X87388514Y-36730514D01*
X87317085Y-36801942D01*
X87174228Y-36873371D01*
X86959942Y-36873371D01*
X86817085Y-36801942D01*
X87459942Y-36301942D02*
X87317085Y-36373371D01*
X87031371Y-36373371D01*
X86888514Y-36301942D01*
X86817085Y-36230514D01*
X86745657Y-36087657D01*
X86745657Y-35659085D01*
X86817085Y-35516228D01*
X86888514Y-35444800D01*
X87031371Y-35373371D01*
X87317085Y-35373371D01*
X87459942Y-35444800D01*
X88174228Y-36373371D02*
X88174228Y-34873371D01*
X88817085Y-36373371D02*
X88817085Y-35587657D01*
X88745657Y-35444800D01*
X88602800Y-35373371D01*
X88388514Y-35373371D01*
X88245657Y-35444800D01*
X88174228Y-35516228D01*
X89317085Y-35373371D02*
X89888514Y-35373371D01*
X89531371Y-34873371D02*
X89531371Y-36159085D01*
X89602800Y-36301942D01*
X89745657Y-36373371D01*
X89888514Y-36373371D01*
X90245657Y-35373371D02*
X90602800Y-36373371D01*
X90959942Y-35373371D02*
X90602800Y-36373371D01*
X90459942Y-36730514D01*
X90388514Y-36801942D01*
X90245657Y-36873371D01*
X91531371Y-36373371D02*
X91531371Y-34873371D01*
X92102800Y-34873371D01*
X92245657Y-34944800D01*
X92317085Y-35016228D01*
X92388514Y-35159085D01*
X92388514Y-35373371D01*
X92317085Y-35516228D01*
X92245657Y-35587657D01*
X92102800Y-35659085D01*
X91531371Y-35659085D01*
X93031371Y-36373371D02*
X93031371Y-35373371D01*
X93031371Y-34873371D02*
X92959942Y-34944800D01*
X93031371Y-35016228D01*
X93102800Y-34944800D01*
X93031371Y-34873371D01*
X93031371Y-35016228D01*
X93602800Y-36373371D02*
X94388514Y-35373371D01*
X93602800Y-35373371D02*
X94388514Y-36373371D01*
X95817085Y-36373371D02*
X95317085Y-35659085D01*
X94959942Y-36373371D02*
X94959942Y-34873371D01*
X95531371Y-34873371D01*
X95674228Y-34944800D01*
X95745657Y-35016228D01*
X95817085Y-35159085D01*
X95817085Y-35373371D01*
X95745657Y-35516228D01*
X95674228Y-35587657D01*
X95531371Y-35659085D01*
X94959942Y-35659085D01*
X97102800Y-35373371D02*
X97102800Y-36373371D01*
X96459942Y-35373371D02*
X96459942Y-36159085D01*
X96531371Y-36301942D01*
X96674228Y-36373371D01*
X96888514Y-36373371D01*
X97031371Y-36301942D01*
X97102800Y-36230514D01*
X97817085Y-35373371D02*
X97817085Y-36373371D01*
X97817085Y-35516228D02*
X97888514Y-35444800D01*
X98031371Y-35373371D01*
X98245657Y-35373371D01*
X98388514Y-35444800D01*
X98459942Y-35587657D01*
X98459942Y-36373371D01*
X99102800Y-35016228D02*
X99174228Y-34944800D01*
X99317085Y-34873371D01*
X99674228Y-34873371D01*
X99817085Y-34944800D01*
X99888514Y-35016228D01*
X99959942Y-35159085D01*
X99959942Y-35301942D01*
X99888514Y-35516228D01*
X99031371Y-36373371D01*
X99959942Y-36373371D01*
X100888514Y-34873371D02*
X101031371Y-34873371D01*
X101174228Y-34944800D01*
X101245657Y-35016228D01*
X101317085Y-35159085D01*
X101388514Y-35444800D01*
X101388514Y-35801942D01*
X101317085Y-36087657D01*
X101245657Y-36230514D01*
X101174228Y-36301942D01*
X101031371Y-36373371D01*
X100888514Y-36373371D01*
X100745657Y-36301942D01*
X100674228Y-36230514D01*
X100602800Y-36087657D01*
X100531371Y-35801942D01*
X100531371Y-35444800D01*
X100602800Y-35159085D01*
X100674228Y-35016228D01*
X100745657Y-34944800D01*
X100888514Y-34873371D01*
X101959942Y-35016228D02*
X102031371Y-34944800D01*
X102174228Y-34873371D01*
X102531371Y-34873371D01*
X102674228Y-34944800D01*
X102745657Y-35016228D01*
X102817085Y-35159085D01*
X102817085Y-35301942D01*
X102745657Y-35516228D01*
X101888514Y-36373371D01*
X102817085Y-36373371D01*
X103745657Y-34873371D02*
X103888514Y-34873371D01*
X104031371Y-34944800D01*
X104102800Y-35016228D01*
X104174228Y-35159085D01*
X104245657Y-35444800D01*
X104245657Y-35801942D01*
X104174228Y-36087657D01*
X104102800Y-36230514D01*
X104031371Y-36301942D01*
X103888514Y-36373371D01*
X103745657Y-36373371D01*
X103602800Y-36301942D01*
X103531371Y-36230514D01*
X103459942Y-36087657D01*
X103388514Y-35801942D01*
X103388514Y-35444800D01*
X103459942Y-35159085D01*
X103531371Y-35016228D01*
X103602800Y-34944800D01*
X103745657Y-34873371D01*
X104531371Y-36516228D02*
X105674228Y-36516228D01*
X106031371Y-36373371D02*
X106031371Y-34873371D01*
X106602800Y-34873371D01*
X106745657Y-34944800D01*
X106817085Y-35016228D01*
X106888514Y-35159085D01*
X106888514Y-35373371D01*
X106817085Y-35516228D01*
X106745657Y-35587657D01*
X106602800Y-35659085D01*
X106031371Y-35659085D01*
X108388514Y-36230514D02*
X108317085Y-36301942D01*
X108102800Y-36373371D01*
X107959942Y-36373371D01*
X107745657Y-36301942D01*
X107602800Y-36159085D01*
X107531371Y-36016228D01*
X107459942Y-35730514D01*
X107459942Y-35516228D01*
X107531371Y-35230514D01*
X107602800Y-35087657D01*
X107745657Y-34944800D01*
X107959942Y-34873371D01*
X108102800Y-34873371D01*
X108317085Y-34944800D01*
X108388514Y-35016228D01*
X109531371Y-35587657D02*
X109745657Y-35659085D01*
X109817085Y-35730514D01*
X109888514Y-35873371D01*
X109888514Y-36087657D01*
X109817085Y-36230514D01*
X109745657Y-36301942D01*
X109602800Y-36373371D01*
X109031371Y-36373371D01*
X109031371Y-34873371D01*
X109531371Y-34873371D01*
X109674228Y-34944800D01*
X109745657Y-35016228D01*
X109817085Y-35159085D01*
X109817085Y-35301942D01*
X109745657Y-35444800D01*
X109674228Y-35516228D01*
X109531371Y-35587657D01*
X109031371Y-35587657D01*
X110531371Y-36230514D02*
X110602800Y-36301942D01*
X110531371Y-36373371D01*
X110459942Y-36301942D01*
X110531371Y-36230514D01*
X110531371Y-36373371D01*
X111245657Y-36373371D02*
X111245657Y-34873371D01*
X111388514Y-35801942D02*
X111817085Y-36373371D01*
X111817085Y-35373371D02*
X111245657Y-35944800D01*
X112459942Y-36373371D02*
X112459942Y-35373371D01*
X112459942Y-34873371D02*
X112388514Y-34944800D01*
X112459942Y-35016228D01*
X112531371Y-34944800D01*
X112459942Y-34873371D01*
X112459942Y-35016228D01*
X113817085Y-36301942D02*
X113674228Y-36373371D01*
X113388514Y-36373371D01*
X113245657Y-36301942D01*
X113174228Y-36230514D01*
X113102800Y-36087657D01*
X113102800Y-35659085D01*
X113174228Y-35516228D01*
X113245657Y-35444800D01*
X113388514Y-35373371D01*
X113674228Y-35373371D01*
X113817085Y-35444800D01*
X115102800Y-36373371D02*
X115102800Y-35587657D01*
X115031371Y-35444800D01*
X114888514Y-35373371D01*
X114602800Y-35373371D01*
X114459942Y-35444800D01*
X115102800Y-36301942D02*
X114959942Y-36373371D01*
X114602800Y-36373371D01*
X114459942Y-36301942D01*
X114388514Y-36159085D01*
X114388514Y-36016228D01*
X114459942Y-35873371D01*
X114602800Y-35801942D01*
X114959942Y-35801942D01*
X115102800Y-35730514D01*
X116459942Y-36373371D02*
X116459942Y-34873371D01*
X116459942Y-36301942D02*
X116317085Y-36373371D01*
X116031371Y-36373371D01*
X115888514Y-36301942D01*
X115817085Y-36230514D01*
X115745657Y-36087657D01*
X115745657Y-35659085D01*
X115817085Y-35516228D01*
X115888514Y-35444800D01*
X116031371Y-35373371D01*
X116317085Y-35373371D01*
X116459942Y-35444800D01*
X116817085Y-36516228D02*
X117959942Y-36516228D01*
X118317085Y-35373371D02*
X118317085Y-36873371D01*
X118317085Y-35444800D02*
X118459942Y-35373371D01*
X118745657Y-35373371D01*
X118888514Y-35444800D01*
X118959942Y-35516228D01*
X119031371Y-35659085D01*
X119031371Y-36087657D01*
X118959942Y-36230514D01*
X118888514Y-36301942D01*
X118745657Y-36373371D01*
X118459942Y-36373371D01*
X118317085Y-36301942D01*
X120317085Y-36301942D02*
X120174228Y-36373371D01*
X119888514Y-36373371D01*
X119745657Y-36301942D01*
X119674228Y-36230514D01*
X119602800Y-36087657D01*
X119602800Y-35659085D01*
X119674228Y-35516228D01*
X119745657Y-35444800D01*
X119888514Y-35373371D01*
X120174228Y-35373371D01*
X120317085Y-35444800D01*
X120959942Y-36373371D02*
X120959942Y-34873371D01*
X120959942Y-35444800D02*
X121102800Y-35373371D01*
X121388514Y-35373371D01*
X121531371Y-35444800D01*
X121602800Y-35516228D01*
X121674228Y-35659085D01*
X121674228Y-36087657D01*
X121602800Y-36230514D01*
X121531371Y-36301942D01*
X121388514Y-36373371D01*
X121102800Y-36373371D01*
X120959942Y-36301942D01*
D10*
D11*
X77027800Y-31494800D02*
X185027800Y-31494800D01*
D10*
D11*
X78388514Y-33601942D02*
X78602800Y-33673371D01*
X78959942Y-33673371D01*
X79102800Y-33601942D01*
X79174228Y-33530514D01*
X79245657Y-33387657D01*
X79245657Y-33244800D01*
X79174228Y-33101942D01*
X79102800Y-33030514D01*
X78959942Y-32959085D01*
X78674228Y-32887657D01*
X78531371Y-32816228D01*
X78459942Y-32744800D01*
X78388514Y-32601942D01*
X78388514Y-32459085D01*
X78459942Y-32316228D01*
X78531371Y-32244800D01*
X78674228Y-32173371D01*
X79031371Y-32173371D01*
X79245657Y-32244800D01*
X79888514Y-33673371D02*
X79888514Y-32173371D01*
X80531371Y-33673371D02*
X80531371Y-32887657D01*
X80459942Y-32744800D01*
X80317085Y-32673371D01*
X80102800Y-32673371D01*
X79959942Y-32744800D01*
X79888514Y-32816228D01*
X81817085Y-33601942D02*
X81674228Y-33673371D01*
X81388514Y-33673371D01*
X81245657Y-33601942D01*
X81174228Y-33459085D01*
X81174228Y-32887657D01*
X81245657Y-32744800D01*
X81388514Y-32673371D01*
X81674228Y-32673371D01*
X81817085Y-32744800D01*
X81888514Y-32887657D01*
X81888514Y-33030514D01*
X81174228Y-33173371D01*
X83102800Y-33601942D02*
X82959942Y-33673371D01*
X82674228Y-33673371D01*
X82531371Y-33601942D01*
X82459942Y-33459085D01*
X82459942Y-32887657D01*
X82531371Y-32744800D01*
X82674228Y-32673371D01*
X82959942Y-32673371D01*
X83102800Y-32744800D01*
X83174228Y-32887657D01*
X83174228Y-33030514D01*
X82459942Y-33173371D01*
X83602800Y-32673371D02*
X84174228Y-32673371D01*
X83817085Y-32173371D02*
X83817085Y-33459085D01*
X83888514Y-33601942D01*
X84031371Y-33673371D01*
X84174228Y-33673371D01*
X84674228Y-33530514D02*
X84745657Y-33601942D01*
X84674228Y-33673371D01*
X84602800Y-33601942D01*
X84674228Y-33530514D01*
X84674228Y-33673371D01*
X84674228Y-32744800D02*
X84745657Y-32816228D01*
X84674228Y-32887657D01*
X84602800Y-32816228D01*
X84674228Y-32744800D01*
X84674228Y-32887657D01*
D10*
D12*
D10*
D11*
D10*
D11*
D10*
D11*
D10*
D11*
D10*
D11*
X97027800Y-41494800D02*
X97027800Y-44494800D01*
D10*
D11*
X161027800Y-41494800D02*
X161027800Y-47994800D01*
D14*
X57100600Y57012400D02*
G75*
G03*
X57100600Y57012400I-75000J0D01*
G01*
X43100600Y44012399D02*
G75*
G03*
X43100600Y44012399I-75000J0D01*
G01*
X57100600Y44022400D02*
G75*
G03*
X57100600Y44022400I-75000J0D01*
G01*
D15*
X5275600Y25012400D02*
G75*
G03*
X5275600Y25012400I-250000J0D01*
G01*
X87275600Y95012400D02*
G75*
G03*
X87275600Y95012400I-250000J0D01*
G01*
D14*
X43100600Y57012400D02*
G75*
G03*
X43100600Y57012400I-75000J0D01*
G01*
D15*
X15275600Y95012400D02*
G75*
G03*
X15275600Y95012400I-250000J0D01*
G01*
D14*
X157100600Y-92987600D02*
G75*
G03*
X157100600Y-92987600I-75000J0D01*
G01*
D10*
%TO.C,MP1*%
X53305600Y46942400D02*
X46385600Y46942400D01*
X46385600Y46942400D02*
X46385600Y53252400D01*
X46385600Y53252400D02*
X53305600Y53252400D01*
X53305600Y53252400D02*
X53305600Y46942400D01*
G36*
X53305600Y46942400D02*
G01*
X46385600Y46942400D01*
X46385600Y53252400D01*
X53305600Y53252400D01*
X53305600Y46942400D01*
G37*
X53305600Y46942400D02*
X46385600Y46942400D01*
X46385600Y53252400D01*
X53305600Y53252400D01*
X53305600Y46942400D01*
D14*
X57100600Y57012400D02*
G75*
G03*
X57100600Y57012400I-75000J0D01*
G01*
X43100600Y44012399D02*
G75*
G03*
X43100600Y44012399I-75000J0D01*
G01*
X57100600Y44022400D02*
G75*
G03*
X57100600Y44022400I-75000J0D01*
G01*
D15*
X5275600Y25012400D02*
G75*
G03*
X5275600Y25012400I-250000J0D01*
G01*
X87275600Y95012400D02*
G75*
G03*
X87275600Y95012400I-250000J0D01*
G01*
D14*
X43100600Y57012400D02*
G75*
G03*
X43100600Y57012400I-75000J0D01*
G01*
D15*
X15275600Y95012400D02*
G75*
G03*
X15275600Y95012400I-250000J0D01*
G01*
D14*
X157100600Y-92987600D02*
G75*
G03*
X157100600Y-92987600I-75000J0D01*
G01*
D10*
X53305600Y46942400D02*
X46385600Y46942400D01*
X46385600Y46942400D02*
X46385600Y53252400D01*
X46385600Y53252400D02*
X53305600Y53252400D01*
X53305600Y53252400D02*
X53305600Y46942400D01*
G36*
X53305600Y46942400D02*
G01*
X46385600Y46942400D01*
X46385600Y53252400D01*
X53305600Y53252400D01*
X53305600Y46942400D01*
G37*
X53305600Y46942400D02*
X46385600Y46942400D01*
X46385600Y53252400D01*
X53305600Y53252400D01*
X53305600Y46942400D01*
%TD*%
D16*
%TO.C,MP1*%
X47017983Y46082000D03*
X44821200Y42772400D03*
X47323200Y46082000D03*
X45081200Y42772400D03*
X47619234Y46082000D03*
X45341200Y42772400D03*
X47873651Y46082000D03*
X45601200Y42772400D03*
X48128068Y46082000D03*
X45861200Y42772400D03*
X48382485Y46082000D03*
X47098240Y42772400D03*
X47348240Y42772400D03*
X48636902Y46082000D03*
X48891319Y46082000D03*
X47598240Y42772400D03*
X47848240Y42772400D03*
X49145736Y46082000D03*
X49400153Y46082000D03*
X48887400Y42772400D03*
X49654570Y46082000D03*
X49169872Y42772400D03*
X49908987Y46082000D03*
X49419872Y42772400D03*
X50158987Y45182000D03*
X49669872Y42772400D03*
X50423404Y46082000D03*
X50673404Y45182000D03*
X50741504Y42772400D03*
X50991504Y42772400D03*
X50926655Y46082000D03*
X51241504Y42772400D03*
X51176655Y45182000D03*
X52313136Y42772400D03*
X51336400Y46082000D03*
X52563136Y42772400D03*
X51641200Y46082000D03*
X52813136Y42772400D03*
X51944323Y46082000D03*
X54295600Y42772400D03*
X52198740Y46082000D03*
X54545600Y42772400D03*
X52453157Y46082000D03*
X54795600Y42772400D03*
X52707574Y46082000D03*
X55045600Y42772400D03*
X52962000Y46082000D03*
X55295600Y42772400D03*
D17*
X47587200Y54787600D03*
D18*
X43135600Y53110800D03*
X45085600Y52234800D03*
X43104400Y52311200D03*
X45085600Y51828400D03*
X43135600Y51510800D03*
X45085600Y51422000D03*
X43155200Y50710800D03*
X45085600Y51015600D03*
X43135600Y49910800D03*
X45085600Y50622000D03*
X43104400Y49110800D03*
X45085600Y50202800D03*
D17*
X52464000Y54787600D03*
D18*
X55258000Y52501600D03*
X57340800Y52616800D03*
X55258000Y52058915D03*
X57340800Y51971534D03*
X55258000Y51616230D03*
X57340800Y51326268D03*
X55258000Y51173545D03*
X57340800Y50681002D03*
X55258000Y50730860D03*
X57340800Y50035736D03*
X55258000Y50288175D03*
X57340800Y49390470D03*
X55258000Y49845490D03*
X57340800Y48745200D03*
X55258000Y49402800D03*
X55258000Y47780000D03*
%TD*%
D19*
%TO.C,JP4*%
X54875500Y13631400D03*
D20*
X54875500Y16171400D03*
X54875500Y18711400D03*
%TD*%
D19*
%TO.C,JP5*%
X37875500Y13631400D03*
D20*
X37875500Y16171400D03*
X37875500Y18711400D03*
%TD*%
D19*
%TO.C,JP17*%
X23169900Y23412400D03*
D20*
X23169900Y25952400D03*
X23169900Y28492400D03*
%TD*%
D19*
%TO.C,JP6*%
X42375500Y13631400D03*
D20*
X42375500Y16171400D03*
X42375500Y18711400D03*
%TD*%
D19*
%TO.C,JP13*%
X19169900Y23412400D03*
D20*
X19169900Y25952400D03*
X19169900Y28492400D03*
%TD*%
D19*
%TO.C,JP7*%
X46875500Y13631400D03*
D20*
X46875500Y16171400D03*
X46875500Y18711400D03*
%TD*%
D19*
%TO.C,JP15*%
X15169900Y23412400D03*
D20*
X15169900Y25952400D03*
X15169900Y28492400D03*
%TD*%
D19*
%TO.C,JP8*%
X50875500Y13631400D03*
D20*
X50875500Y16171400D03*
X50875500Y18711400D03*
%TD*%
D19*
%TO.C,JP16*%
X11275600Y23412400D03*
D20*
X11275600Y25952400D03*
X11275600Y28492400D03*
%TD*%
D21*
%TO.C,JP9*%
X97205600Y29542400D03*
D20*
X94665600Y29542400D03*
X92125600Y29542400D03*
%TD*%
D21*
%TO.C,JP11*%
X96825600Y63512400D03*
D20*
X94285600Y63512400D03*
X91745600Y63512400D03*
%TD*%
D21*
%TO.C,JP12*%
X96875600Y51206400D03*
D20*
X94335600Y51206400D03*
X91795600Y51206400D03*
%TD*%
D21*
%TO.C,JP19*%
X85535600Y45502400D03*
D20*
X82995600Y45502400D03*
%TD*%
D22*
%TO.C,JP20*%
X88037100Y87412400D03*
D20*
X88037100Y84872400D03*
%TD*%
D23*
%TO.C,C7*%
X45515600Y31042400D03*
X43790600Y31042400D03*
%TD*%
D24*
%TO.C,C8*%
X89340600Y28297400D03*
X89340600Y30022400D03*
%TD*%
D25*
%TO.C,C13*%
X45690600Y29042400D03*
X43615600Y29042400D03*
%TD*%
D26*
%TO.C,C14*%
X93580600Y22742400D03*
X95305600Y22742400D03*
%TD*%
D23*
%TO.C,C19*%
X45515600Y27042400D03*
X43790600Y27042400D03*
%TD*%
D26*
%TO.C,C23*%
X18263100Y31112400D03*
X19988100Y31112400D03*
%TD*%
D23*
%TO.C,C25*%
X16025600Y31112400D03*
X14300600Y31112400D03*
%TD*%
%TO.C,C26*%
X12250600Y31212400D03*
X10525600Y31212400D03*
%TD*%
D27*
%TO.C,C27*%
X89025600Y64374900D03*
X89025600Y62649900D03*
%TD*%
D24*
%TO.C,C28*%
X88925600Y50374900D03*
X88925600Y52099900D03*
%TD*%
D26*
%TO.C,C30*%
X26388100Y31137400D03*
X28113100Y31137400D03*
%TD*%
D23*
%TO.C,C33*%
X24025600Y31112400D03*
X22300600Y31112400D03*
%TD*%
D28*
%TO.C,C35*%
X82873900Y85051000D03*
X82873900Y88176000D03*
%TD*%
D29*
%TO.C,CON1*%
X81125600Y7012400D03*
X81125600Y3202400D03*
X79855600Y5107400D03*
X79855600Y3202400D03*
X78585600Y7012400D03*
X78585600Y3202400D03*
X77315600Y5107400D03*
X77315600Y3202400D03*
X76045600Y7012400D03*
X76045600Y3202400D03*
X74775600Y5107400D03*
X74775600Y3202400D03*
X73505600Y7012400D03*
X73505600Y3202400D03*
X72235600Y5107400D03*
X72235600Y3202400D03*
X70965600Y7012400D03*
X70965600Y3202400D03*
X69695600Y5107400D03*
X69695600Y3202400D03*
X68425600Y7012400D03*
X68425600Y3202400D03*
X67155600Y5107400D03*
X67155600Y3202400D03*
X65885600Y7012400D03*
X65885600Y3202400D03*
X64615600Y5107400D03*
X64615600Y3202400D03*
X63345600Y7012400D03*
X63345600Y3202400D03*
X62075600Y5107400D03*
X62075600Y3202400D03*
X60805600Y7012400D03*
X60805600Y3202400D03*
X59535600Y5107400D03*
X59535600Y3202400D03*
X58265600Y7012400D03*
X58265600Y3202400D03*
X56995600Y5107400D03*
X56995600Y3202400D03*
X55725600Y7012400D03*
X55725600Y3202400D03*
X54455600Y5107400D03*
X54455600Y3202400D03*
X53185600Y7012400D03*
X53185600Y3202400D03*
X51915600Y5107400D03*
X51915600Y3202400D03*
X50645600Y7012400D03*
X50645600Y3202400D03*
X49375600Y5107400D03*
X49375600Y3202400D03*
X48105600Y7012400D03*
X48105600Y3202400D03*
X46835600Y5107400D03*
X46835600Y3202400D03*
X45565600Y7012400D03*
X45565600Y3202400D03*
X44295600Y5107400D03*
X44295600Y3202400D03*
X43025600Y7012400D03*
X43025600Y3202400D03*
X41755600Y5107400D03*
X41755600Y3202400D03*
X40485600Y7012400D03*
X40485600Y3202400D03*
X39215600Y5107400D03*
X39215600Y3202400D03*
X37945600Y7012400D03*
X37945600Y3202400D03*
X36675600Y5107400D03*
X36675600Y3202400D03*
X35405600Y7012400D03*
X35405600Y3202400D03*
X34135600Y5107400D03*
X34135600Y3202400D03*
X32865600Y7012400D03*
X32865600Y3202400D03*
X31595600Y5107400D03*
X31595600Y3202400D03*
X30325600Y7012400D03*
X30325600Y3202400D03*
X29055600Y5107400D03*
X29055600Y3202400D03*
X27785600Y7012400D03*
X27785600Y3202400D03*
X26515600Y5107400D03*
X26515600Y3202400D03*
X25245600Y7012400D03*
X25245600Y3202400D03*
X23975600Y5107400D03*
X23975600Y3202400D03*
X22705600Y7012400D03*
X22705600Y3202400D03*
X21435600Y5107400D03*
X21435600Y3202400D03*
X20165600Y7012400D03*
X20165600Y3202400D03*
X18895600Y5107400D03*
X18895600Y3202400D03*
D30*
X85570600Y5107400D03*
X14450600Y5107400D03*
%TD*%
D31*
%TO.C,IC1*%
X85128700Y35991600D03*
X85128700Y36941600D03*
X85128700Y37891600D03*
X82428700Y37891600D03*
X82428700Y35991600D03*
%TD*%
D32*
%TO.C,J1*%
X95055600Y35352400D03*
X92515600Y32812400D03*
X92515600Y37892400D03*
X97595600Y32812400D03*
X97595600Y37892400D03*
%TD*%
%TO.C,J2*%
X95039900Y44399200D03*
X92499900Y46939200D03*
X97579900Y46939200D03*
X92499900Y41859200D03*
X97579900Y41859200D03*
%TD*%
%TO.C,J4*%
X94337100Y85312400D03*
X91797100Y82772400D03*
X96877100Y82772400D03*
X91797100Y87852400D03*
X96877100Y87852400D03*
%TD*%
D19*
%TO.C,JP18*%
X34925600Y23412400D03*
D20*
X34925600Y25952400D03*
X34925600Y28492400D03*
%TD*%
D33*
%TO.C,NTC1*%
X40595600Y45782400D03*
X40595600Y47607400D03*
%TD*%
D34*
%TO.C,R2*%
X30225600Y10012400D03*
X28400600Y10012400D03*
%TD*%
D35*
%TO.C,R5*%
X82463100Y20872400D03*
X84288100Y20872400D03*
%TD*%
D34*
%TO.C,R6*%
X87663100Y28279900D03*
X85838100Y28279900D03*
%TD*%
D36*
%TO.C,R13*%
X35725600Y32937400D03*
X35725600Y31112400D03*
%TD*%
%TO.C,R14*%
X34125600Y32937400D03*
X34125600Y31112400D03*
%TD*%
D33*
%TO.C,R17*%
X89265600Y33129900D03*
X89265600Y34954900D03*
%TD*%
D34*
%TO.C,R18*%
X84590600Y33472400D03*
X82765600Y33472400D03*
%TD*%
D33*
%TO.C,R20*%
X7125600Y50324900D03*
X7125600Y52149900D03*
%TD*%
%TO.C,R22*%
X7425600Y45249900D03*
X7425600Y47074900D03*
%TD*%
D37*
%TO.C,RV2*%
X87285600Y20792400D03*
X89785600Y23292400D03*
X87285600Y25792400D03*
%TD*%
%TO.C,RV3*%
X93147300Y54712400D03*
X95647300Y57212400D03*
X93147300Y59712400D03*
%TD*%
%TO.C,RV5*%
X15345600Y17012400D03*
X12845600Y14512400D03*
X15345600Y12012400D03*
%TD*%
D19*
%TO.C,TP30*%
X4500600Y49987400D03*
D20*
X4500600Y52527400D03*
%TD*%
D19*
%TO.C,TP31*%
X4525600Y43712400D03*
D20*
X4525600Y46252400D03*
%TD*%
D23*
%TO.C,C39*%
X80168100Y36042400D03*
X78443100Y36042400D03*
%TD*%
D38*
%TO.C,C2*%
X82163100Y74212400D03*
X85288100Y74212400D03*
%TD*%
D32*
%TO.C,J3*%
X94225600Y74512400D03*
X91685600Y71972400D03*
X96765600Y71972400D03*
X91685600Y77052400D03*
X96765600Y77052400D03*
%TD*%
D22*
%TO.C,JP3*%
X88137100Y78712400D03*
D20*
X88137100Y76172400D03*
%TD*%
D34*
%TO.C,R15*%
X83838100Y76212400D03*
X82013100Y76212400D03*
%TD*%
D37*
%TO.C,RV7*%
X31725600Y12012400D03*
X34225600Y14512400D03*
X31725600Y17012400D03*
%TD*%
D21*
%TO.C,JP14*%
X96040600Y25492400D03*
D20*
X93500600Y25492400D03*
%TD*%
D22*
%TO.C,J_HB_Out1*%
X29025600Y44712400D03*
D20*
X29025600Y42172400D03*
%TD*%
D39*
%TO.C,H3*%
X95025600Y95012400D03*
%TD*%
D22*
%TO.C,J5*%
X4475600Y86787400D03*
D20*
X7015600Y86787400D03*
X4475600Y84247400D03*
X7015600Y84247400D03*
X4475600Y81707400D03*
X7015600Y81707400D03*
X4475600Y79167400D03*
X7015600Y79167400D03*
X4475600Y76627400D03*
X7015600Y76627400D03*
X4475600Y74087400D03*
X7015600Y74087400D03*
X4475600Y71547400D03*
X7015600Y71547400D03*
%TD*%
D19*
%TO.C,JP21*%
X27125600Y23412400D03*
D20*
X27125600Y25952400D03*
X27125600Y28492400D03*
%TD*%
D22*
%TO.C,J7*%
X5675600Y17752400D03*
D20*
X5675600Y15212400D03*
%TD*%
D33*
%TO.C,R9*%
X66625600Y79312400D03*
X66625600Y81137400D03*
%TD*%
D34*
%TO.C,R28*%
X63138100Y22312400D03*
X61313100Y22312400D03*
%TD*%
%TO.C,R35*%
X65148100Y19472400D03*
X63323100Y19472400D03*
%TD*%
D39*
%TO.C,H1*%
X5025600Y5012400D03*
%TD*%
D35*
%TO.C,R33*%
X30000600Y20512400D03*
X31825600Y20512400D03*
%TD*%
D36*
%TO.C,R31*%
X28725600Y13937400D03*
X28725600Y12112400D03*
%TD*%
D39*
%TO.C,H2*%
X95025600Y5012400D03*
%TD*%
%TO.C,H4*%
X5025600Y95012400D03*
%TD*%
D37*
%TO.C,RV6*%
X23625600Y12012400D03*
X26125600Y14512400D03*
X23625600Y17012400D03*
%TD*%
D40*
%TO.C,TP1*%
X75395600Y47832400D03*
%TD*%
D21*
%TO.C,JP2*%
X85485600Y41152400D03*
D20*
X82945600Y41152400D03*
%TD*%
D34*
%TO.C,R27*%
X60838100Y19512400D03*
X59013100Y19512400D03*
%TD*%
%TO.C,R30*%
X28125600Y20524900D03*
X26300600Y20524900D03*
%TD*%
D26*
%TO.C,C37*%
X30200600Y31112400D03*
X31925600Y31112400D03*
%TD*%
D33*
%TO.C,R1*%
X25855600Y42817400D03*
X25855600Y44642400D03*
%TD*%
D19*
%TO.C,JP22*%
X31025600Y23412400D03*
D20*
X31025600Y25952400D03*
X31025600Y28492400D03*
%TD*%
D19*
%TO.C,J6*%
X79300600Y61562400D03*
D20*
X76760600Y61562400D03*
X79300600Y64102400D03*
X76760600Y64102400D03*
X79300600Y66642400D03*
X76760600Y66642400D03*
X79300600Y69182400D03*
X76760600Y69182400D03*
X79300600Y71722400D03*
X76760600Y71722400D03*
X79300600Y74262400D03*
X76760600Y74262400D03*
X79300600Y76802400D03*
X76760600Y76802400D03*
X79300600Y79342400D03*
X76760600Y79342400D03*
X79300600Y81882400D03*
X76760600Y81882400D03*
%TD*%
D36*
%TO.C,R32*%
X28725600Y17424900D03*
X28725600Y15599900D03*
%TD*%
D34*
%TO.C,R34*%
X68598100Y19472400D03*
X66773100Y19472400D03*
%TD*%
D35*
%TO.C,R4*%
X20900600Y77012400D03*
X22725600Y77012400D03*
%TD*%
G36*
X28544902Y3397305D02*
G01*
X28545132Y3395915D01*
X28506640Y3202400D01*
X28545132Y3008885D01*
X28544489Y3006991D01*
X28542527Y3006601D01*
X28541438Y3007495D01*
X28527320Y3031948D01*
X28452391Y3089444D01*
X28359035Y3077153D01*
X28313949Y3032067D01*
X28299762Y3007495D01*
X28298030Y3006495D01*
X28296298Y3007495D01*
X28296068Y3008885D01*
X28334560Y3202400D01*
X28296068Y3395915D01*
X28296711Y3397809D01*
X28298673Y3398199D01*
X28299762Y3397305D01*
X28313880Y3372852D01*
X28388809Y3315356D01*
X28482165Y3327647D01*
X28527251Y3372733D01*
X28541438Y3397305D01*
X28543170Y3398305D01*
X28544902Y3397305D01*
G37*
G36*
X27274902Y3397305D02*
G01*
X27275132Y3395915D01*
X27236640Y3202400D01*
X27275132Y3008885D01*
X27274489Y3006991D01*
X27272527Y3006601D01*
X27271438Y3007495D01*
X27257320Y3031948D01*
X27182391Y3089444D01*
X27089035Y3077153D01*
X27043949Y3032067D01*
X27029762Y3007495D01*
X27028030Y3006495D01*
X27026298Y3007495D01*
X27026068Y3008885D01*
X27064560Y3202400D01*
X27026068Y3395915D01*
X27026711Y3397809D01*
X27028673Y3398199D01*
X27029762Y3397305D01*
X27043880Y3372852D01*
X27118809Y3315356D01*
X27212165Y3327647D01*
X27257251Y3372733D01*
X27271438Y3397305D01*
X27273170Y3398305D01*
X27274902Y3397305D01*
G37*
G36*
X60294902Y3397305D02*
G01*
X60295132Y3395915D01*
X60256640Y3202400D01*
X60295132Y3008885D01*
X60294489Y3006991D01*
X60292527Y3006601D01*
X60291438Y3007495D01*
X60277320Y3031948D01*
X60202391Y3089444D01*
X60109035Y3077153D01*
X60063949Y3032067D01*
X60049762Y3007495D01*
X60048030Y3006495D01*
X60046298Y3007495D01*
X60046068Y3008885D01*
X60084560Y3202400D01*
X60046068Y3395915D01*
X60046711Y3397809D01*
X60048673Y3398199D01*
X60049762Y3397305D01*
X60063880Y3372852D01*
X60138809Y3315356D01*
X60232165Y3327647D01*
X60277251Y3372733D01*
X60291438Y3397305D01*
X60293170Y3398305D01*
X60294902Y3397305D01*
G37*
G36*
X51404902Y3397305D02*
G01*
X51405132Y3395915D01*
X51366640Y3202400D01*
X51405132Y3008885D01*
X51404489Y3006991D01*
X51402527Y3006601D01*
X51401438Y3007495D01*
X51387320Y3031948D01*
X51312391Y3089444D01*
X51219035Y3077153D01*
X51173949Y3032067D01*
X51159762Y3007495D01*
X51158030Y3006495D01*
X51156298Y3007495D01*
X51156068Y3008885D01*
X51194560Y3202400D01*
X51156068Y3395915D01*
X51156711Y3397809D01*
X51158673Y3398199D01*
X51159762Y3397305D01*
X51173880Y3372852D01*
X51248809Y3315356D01*
X51342165Y3327647D01*
X51387251Y3372733D01*
X51401438Y3397305D01*
X51403170Y3398305D01*
X51404902Y3397305D01*
G37*
G36*
X32354902Y3397305D02*
G01*
X32355132Y3395915D01*
X32316640Y3202400D01*
X32355132Y3008885D01*
X32354489Y3006991D01*
X32352527Y3006601D01*
X32351438Y3007495D01*
X32337320Y3031948D01*
X32262391Y3089444D01*
X32169035Y3077153D01*
X32123949Y3032067D01*
X32109762Y3007495D01*
X32108030Y3006495D01*
X32106298Y3007495D01*
X32106068Y3008885D01*
X32144560Y3202400D01*
X32106068Y3395915D01*
X32106711Y3397809D01*
X32108673Y3398199D01*
X32109762Y3397305D01*
X32123880Y3372852D01*
X32198809Y3315356D01*
X32292165Y3327647D01*
X32337251Y3372733D01*
X32351438Y3397305D01*
X32353170Y3398305D01*
X32354902Y3397305D01*
G37*
G36*
X66644902Y3397305D02*
G01*
X66645132Y3395915D01*
X66606640Y3202400D01*
X66645132Y3008885D01*
X66644489Y3006991D01*
X66642527Y3006601D01*
X66641438Y3007495D01*
X66627320Y3031948D01*
X66552391Y3089444D01*
X66459035Y3077153D01*
X66413949Y3032067D01*
X66399762Y3007495D01*
X66398030Y3006495D01*
X66396298Y3007495D01*
X66396068Y3008885D01*
X66434560Y3202400D01*
X66396068Y3395915D01*
X66396711Y3397809D01*
X66398673Y3398199D01*
X66399762Y3397305D01*
X66413880Y3372852D01*
X66488809Y3315356D01*
X66582165Y3327647D01*
X66627251Y3372733D01*
X66641438Y3397305D01*
X66643170Y3398305D01*
X66644902Y3397305D01*
G37*
G36*
X34894902Y3397305D02*
G01*
X34895132Y3395915D01*
X34856640Y3202400D01*
X34895132Y3008885D01*
X34894489Y3006991D01*
X34892527Y3006601D01*
X34891438Y3007495D01*
X34877320Y3031948D01*
X34802391Y3089444D01*
X34709035Y3077153D01*
X34663949Y3032067D01*
X34649762Y3007495D01*
X34648030Y3006495D01*
X34646298Y3007495D01*
X34646068Y3008885D01*
X34684560Y3202400D01*
X34646068Y3395915D01*
X34646711Y3397809D01*
X34648673Y3398199D01*
X34649762Y3397305D01*
X34663880Y3372852D01*
X34738809Y3315356D01*
X34832165Y3327647D01*
X34877251Y3372733D01*
X34891438Y3397305D01*
X34893170Y3398305D01*
X34894902Y3397305D01*
G37*
G36*
X45054902Y3397305D02*
G01*
X45055132Y3395915D01*
X45016640Y3202400D01*
X45055132Y3008885D01*
X45054489Y3006991D01*
X45052527Y3006601D01*
X45051438Y3007495D01*
X45037320Y3031948D01*
X44962391Y3089444D01*
X44869035Y3077153D01*
X44823949Y3032067D01*
X44809762Y3007495D01*
X44808030Y3006495D01*
X44806298Y3007495D01*
X44806068Y3008885D01*
X44844560Y3202400D01*
X44806068Y3395915D01*
X44806711Y3397809D01*
X44808673Y3398199D01*
X44809762Y3397305D01*
X44823880Y3372852D01*
X44898809Y3315356D01*
X44992165Y3327647D01*
X45037251Y3372733D01*
X45051438Y3397305D01*
X45053170Y3398305D01*
X45054902Y3397305D01*
G37*
G36*
X33624902Y3397305D02*
G01*
X33625132Y3395915D01*
X33586640Y3202400D01*
X33625132Y3008885D01*
X33624489Y3006991D01*
X33622527Y3006601D01*
X33621438Y3007495D01*
X33607320Y3031948D01*
X33532391Y3089444D01*
X33439035Y3077153D01*
X33393949Y3032067D01*
X33379762Y3007495D01*
X33378030Y3006495D01*
X33376298Y3007495D01*
X33376068Y3008885D01*
X33414560Y3202400D01*
X33376068Y3395915D01*
X33376711Y3397809D01*
X33378673Y3398199D01*
X33379762Y3397305D01*
X33393880Y3372852D01*
X33468809Y3315356D01*
X33562165Y3327647D01*
X33607251Y3372733D01*
X33621438Y3397305D01*
X33623170Y3398305D01*
X33624902Y3397305D01*
G37*
G36*
X64104902Y3397305D02*
G01*
X64105132Y3395915D01*
X64066640Y3202400D01*
X64105132Y3008885D01*
X64104489Y3006991D01*
X64102527Y3006601D01*
X64101438Y3007495D01*
X64087320Y3031948D01*
X64012391Y3089444D01*
X63919035Y3077153D01*
X63873949Y3032067D01*
X63859762Y3007495D01*
X63858030Y3006495D01*
X63856298Y3007495D01*
X63856068Y3008885D01*
X63894560Y3202400D01*
X63856068Y3395915D01*
X63856711Y3397809D01*
X63858673Y3398199D01*
X63859762Y3397305D01*
X63873880Y3372852D01*
X63948809Y3315356D01*
X64042165Y3327647D01*
X64087251Y3372733D01*
X64101438Y3397305D01*
X64103170Y3398305D01*
X64104902Y3397305D01*
G37*
G36*
X24734902Y3397305D02*
G01*
X24735132Y3395915D01*
X24696640Y3202400D01*
X24735132Y3008885D01*
X24734489Y3006991D01*
X24732527Y3006601D01*
X24731438Y3007495D01*
X24717320Y3031948D01*
X24642391Y3089444D01*
X24549035Y3077153D01*
X24503949Y3032067D01*
X24489762Y3007495D01*
X24488030Y3006495D01*
X24486298Y3007495D01*
X24486068Y3008885D01*
X24524560Y3202400D01*
X24486068Y3395915D01*
X24486711Y3397809D01*
X24488673Y3398199D01*
X24489762Y3397305D01*
X24503880Y3372852D01*
X24578809Y3315356D01*
X24672165Y3327647D01*
X24717251Y3372733D01*
X24731438Y3397305D01*
X24733170Y3398305D01*
X24734902Y3397305D01*
G37*
G36*
X26004902Y3397305D02*
G01*
X26005132Y3395915D01*
X25966640Y3202400D01*
X26005132Y3008885D01*
X26004489Y3006991D01*
X26002527Y3006601D01*
X26001438Y3007495D01*
X25987320Y3031948D01*
X25912391Y3089444D01*
X25819035Y3077153D01*
X25773949Y3032067D01*
X25759762Y3007495D01*
X25758030Y3006495D01*
X25756298Y3007495D01*
X25756068Y3008885D01*
X25794560Y3202400D01*
X25756068Y3395915D01*
X25756711Y3397809D01*
X25758673Y3398199D01*
X25759762Y3397305D01*
X25773880Y3372852D01*
X25848809Y3315356D01*
X25942165Y3327647D01*
X25987251Y3372733D01*
X26001438Y3397305D01*
X26003170Y3398305D01*
X26004902Y3397305D01*
G37*
G36*
X23464902Y3397305D02*
G01*
X23465132Y3395915D01*
X23426640Y3202400D01*
X23465132Y3008885D01*
X23464489Y3006991D01*
X23462527Y3006601D01*
X23461438Y3007495D01*
X23447320Y3031948D01*
X23372391Y3089444D01*
X23279035Y3077153D01*
X23233949Y3032067D01*
X23219762Y3007495D01*
X23218030Y3006495D01*
X23216298Y3007495D01*
X23216068Y3008885D01*
X23254560Y3202400D01*
X23216068Y3395915D01*
X23216711Y3397809D01*
X23218673Y3398199D01*
X23219762Y3397305D01*
X23233880Y3372852D01*
X23308809Y3315356D01*
X23402165Y3327647D01*
X23447251Y3372733D01*
X23461438Y3397305D01*
X23463170Y3398305D01*
X23464902Y3397305D01*
G37*
G36*
X36164902Y3397305D02*
G01*
X36165132Y3395915D01*
X36126640Y3202400D01*
X36165132Y3008885D01*
X36164489Y3006991D01*
X36162527Y3006601D01*
X36161438Y3007495D01*
X36147320Y3031948D01*
X36072391Y3089444D01*
X35979035Y3077153D01*
X35933949Y3032067D01*
X35919762Y3007495D01*
X35918030Y3006495D01*
X35916298Y3007495D01*
X35916068Y3008885D01*
X35954560Y3202400D01*
X35916068Y3395915D01*
X35916711Y3397809D01*
X35918673Y3398199D01*
X35919762Y3397305D01*
X35933880Y3372852D01*
X36008809Y3315356D01*
X36102165Y3327647D01*
X36147251Y3372733D01*
X36161438Y3397305D01*
X36163170Y3398305D01*
X36164902Y3397305D01*
G37*
G36*
X61564902Y3397305D02*
G01*
X61565132Y3395915D01*
X61526640Y3202400D01*
X61565132Y3008885D01*
X61564489Y3006991D01*
X61562527Y3006601D01*
X61561438Y3007495D01*
X61547320Y3031948D01*
X61472391Y3089444D01*
X61379035Y3077153D01*
X61333949Y3032067D01*
X61319762Y3007495D01*
X61318030Y3006495D01*
X61316298Y3007495D01*
X61316068Y3008885D01*
X61354560Y3202400D01*
X61316068Y3395915D01*
X61316711Y3397809D01*
X61318673Y3398199D01*
X61319762Y3397305D01*
X61333880Y3372852D01*
X61408809Y3315356D01*
X61502165Y3327647D01*
X61547251Y3372733D01*
X61561438Y3397305D01*
X61563170Y3398305D01*
X61564902Y3397305D01*
G37*
G36*
X67914902Y3397305D02*
G01*
X67915132Y3395915D01*
X67876640Y3202400D01*
X67915132Y3008885D01*
X67914489Y3006991D01*
X67912527Y3006601D01*
X67911438Y3007495D01*
X67897320Y3031948D01*
X67822391Y3089444D01*
X67729035Y3077153D01*
X67683949Y3032067D01*
X67669762Y3007495D01*
X67668030Y3006495D01*
X67666298Y3007495D01*
X67666068Y3008885D01*
X67704560Y3202400D01*
X67666068Y3395915D01*
X67666711Y3397809D01*
X67668673Y3398199D01*
X67669762Y3397305D01*
X67683880Y3372852D01*
X67758809Y3315356D01*
X67852165Y3327647D01*
X67897251Y3372733D01*
X67911438Y3397305D01*
X67913170Y3398305D01*
X67914902Y3397305D01*
G37*
G36*
X55214902Y3397305D02*
G01*
X55215132Y3395915D01*
X55176640Y3202400D01*
X55215132Y3008885D01*
X55214489Y3006991D01*
X55212527Y3006601D01*
X55211438Y3007495D01*
X55197320Y3031948D01*
X55122391Y3089444D01*
X55029035Y3077153D01*
X54983949Y3032067D01*
X54969762Y3007495D01*
X54968030Y3006495D01*
X54966298Y3007495D01*
X54966068Y3008885D01*
X55004560Y3202400D01*
X54966068Y3395915D01*
X54966711Y3397809D01*
X54968673Y3398199D01*
X54969762Y3397305D01*
X54983880Y3372852D01*
X55058809Y3315356D01*
X55152165Y3327647D01*
X55197251Y3372733D01*
X55211438Y3397305D01*
X55213170Y3398305D01*
X55214902Y3397305D01*
G37*
G36*
X76804902Y3397305D02*
G01*
X76805132Y3395915D01*
X76766640Y3202400D01*
X76805132Y3008885D01*
X76804489Y3006991D01*
X76802527Y3006601D01*
X76801438Y3007495D01*
X76787320Y3031948D01*
X76712391Y3089444D01*
X76619035Y3077153D01*
X76573949Y3032067D01*
X76559762Y3007495D01*
X76558030Y3006495D01*
X76556298Y3007495D01*
X76556068Y3008885D01*
X76594560Y3202400D01*
X76556068Y3395915D01*
X76556711Y3397809D01*
X76558673Y3398199D01*
X76559762Y3397305D01*
X76573880Y3372852D01*
X76648809Y3315356D01*
X76742165Y3327647D01*
X76787251Y3372733D01*
X76801438Y3397305D01*
X76803170Y3398305D01*
X76804902Y3397305D01*
G37*
G36*
X80614902Y3397305D02*
G01*
X80615132Y3395915D01*
X80576640Y3202400D01*
X80615132Y3008885D01*
X80614489Y3006991D01*
X80612527Y3006601D01*
X80611438Y3007495D01*
X80597320Y3031948D01*
X80522391Y3089444D01*
X80429035Y3077153D01*
X80383949Y3032067D01*
X80369762Y3007495D01*
X80368030Y3006495D01*
X80366298Y3007495D01*
X80366068Y3008885D01*
X80404560Y3202400D01*
X80366068Y3395915D01*
X80366711Y3397809D01*
X80368673Y3398199D01*
X80369762Y3397305D01*
X80383880Y3372852D01*
X80458809Y3315356D01*
X80552165Y3327647D01*
X80597251Y3372733D01*
X80611438Y3397305D01*
X80613170Y3398305D01*
X80614902Y3397305D01*
G37*
G36*
X71724902Y3397305D02*
G01*
X71725132Y3395915D01*
X71686640Y3202400D01*
X71725132Y3008885D01*
X71724489Y3006991D01*
X71722527Y3006601D01*
X71721438Y3007495D01*
X71707320Y3031948D01*
X71632391Y3089444D01*
X71539035Y3077153D01*
X71493949Y3032067D01*
X71479762Y3007495D01*
X71478030Y3006495D01*
X71476298Y3007495D01*
X71476068Y3008885D01*
X71514560Y3202400D01*
X71476068Y3395915D01*
X71476711Y3397809D01*
X71478673Y3398199D01*
X71479762Y3397305D01*
X71493880Y3372852D01*
X71568809Y3315356D01*
X71662165Y3327647D01*
X71707251Y3372733D01*
X71721438Y3397305D01*
X71723170Y3398305D01*
X71724902Y3397305D01*
G37*
G36*
X37434902Y3397305D02*
G01*
X37435132Y3395915D01*
X37396640Y3202400D01*
X37435132Y3008885D01*
X37434489Y3006991D01*
X37432527Y3006601D01*
X37431438Y3007495D01*
X37417320Y3031948D01*
X37342391Y3089444D01*
X37249035Y3077153D01*
X37203949Y3032067D01*
X37189762Y3007495D01*
X37188030Y3006495D01*
X37186298Y3007495D01*
X37186068Y3008885D01*
X37224560Y3202400D01*
X37186068Y3395915D01*
X37186711Y3397809D01*
X37188673Y3398199D01*
X37189762Y3397305D01*
X37203880Y3372852D01*
X37278809Y3315356D01*
X37372165Y3327647D01*
X37417251Y3372733D01*
X37431438Y3397305D01*
X37433170Y3398305D01*
X37434902Y3397305D01*
G37*
G36*
X74264902Y3397305D02*
G01*
X74265132Y3395915D01*
X74226640Y3202400D01*
X74265132Y3008885D01*
X74264489Y3006991D01*
X74262527Y3006601D01*
X74261438Y3007495D01*
X74247320Y3031948D01*
X74172391Y3089444D01*
X74079035Y3077153D01*
X74033949Y3032067D01*
X74019762Y3007495D01*
X74018030Y3006495D01*
X74016298Y3007495D01*
X74016068Y3008885D01*
X74054560Y3202400D01*
X74016068Y3395915D01*
X74016711Y3397809D01*
X74018673Y3398199D01*
X74019762Y3397305D01*
X74033880Y3372852D01*
X74108809Y3315356D01*
X74202165Y3327647D01*
X74247251Y3372733D01*
X74261438Y3397305D01*
X74263170Y3398305D01*
X74264902Y3397305D01*
G37*
G36*
X79344902Y3397305D02*
G01*
X79345132Y3395915D01*
X79306640Y3202400D01*
X79345132Y3008885D01*
X79344489Y3006991D01*
X79342527Y3006601D01*
X79341438Y3007495D01*
X79327320Y3031948D01*
X79252391Y3089444D01*
X79159035Y3077153D01*
X79113949Y3032067D01*
X79099762Y3007495D01*
X79098030Y3006495D01*
X79096298Y3007495D01*
X79096068Y3008885D01*
X79134560Y3202400D01*
X79096068Y3395915D01*
X79096711Y3397809D01*
X79098673Y3398199D01*
X79099762Y3397305D01*
X79113880Y3372852D01*
X79188809Y3315356D01*
X79282165Y3327647D01*
X79327251Y3372733D01*
X79341438Y3397305D01*
X79343170Y3398305D01*
X79344902Y3397305D01*
G37*
G36*
X52674902Y3397305D02*
G01*
X52675132Y3395915D01*
X52636640Y3202400D01*
X52675132Y3008885D01*
X52674489Y3006991D01*
X52672527Y3006601D01*
X52671438Y3007495D01*
X52657320Y3031948D01*
X52582391Y3089444D01*
X52489035Y3077153D01*
X52443949Y3032067D01*
X52429762Y3007495D01*
X52428030Y3006495D01*
X52426298Y3007495D01*
X52426068Y3008885D01*
X52464560Y3202400D01*
X52426068Y3395915D01*
X52426711Y3397809D01*
X52428673Y3398199D01*
X52429762Y3397305D01*
X52443880Y3372852D01*
X52518809Y3315356D01*
X52612165Y3327647D01*
X52657251Y3372733D01*
X52671438Y3397305D01*
X52673170Y3398305D01*
X52674902Y3397305D01*
G37*
G36*
X53944902Y3397305D02*
G01*
X53945132Y3395915D01*
X53906640Y3202400D01*
X53945132Y3008885D01*
X53944489Y3006991D01*
X53942527Y3006601D01*
X53941438Y3007495D01*
X53927320Y3031948D01*
X53852391Y3089444D01*
X53759035Y3077153D01*
X53713949Y3032067D01*
X53699762Y3007495D01*
X53698030Y3006495D01*
X53696298Y3007495D01*
X53696068Y3008885D01*
X53734560Y3202400D01*
X53696068Y3395915D01*
X53696711Y3397809D01*
X53698673Y3398199D01*
X53699762Y3397305D01*
X53713880Y3372852D01*
X53788809Y3315356D01*
X53882165Y3327647D01*
X53927251Y3372733D01*
X53941438Y3397305D01*
X53943170Y3398305D01*
X53944902Y3397305D01*
G37*
G36*
X41244902Y3397305D02*
G01*
X41245132Y3395915D01*
X41206640Y3202400D01*
X41245132Y3008885D01*
X41244489Y3006991D01*
X41242527Y3006601D01*
X41241438Y3007495D01*
X41227320Y3031948D01*
X41152391Y3089444D01*
X41059035Y3077153D01*
X41013949Y3032067D01*
X40999762Y3007495D01*
X40998030Y3006495D01*
X40996298Y3007495D01*
X40996068Y3008885D01*
X41034560Y3202400D01*
X40996068Y3395915D01*
X40996711Y3397809D01*
X40998673Y3398199D01*
X40999762Y3397305D01*
X41013880Y3372852D01*
X41088809Y3315356D01*
X41182165Y3327647D01*
X41227251Y3372733D01*
X41241438Y3397305D01*
X41243170Y3398305D01*
X41244902Y3397305D01*
G37*
G36*
X38704902Y3397305D02*
G01*
X38705132Y3395915D01*
X38666640Y3202400D01*
X38705132Y3008885D01*
X38704489Y3006991D01*
X38702527Y3006601D01*
X38701438Y3007495D01*
X38687320Y3031948D01*
X38612391Y3089444D01*
X38519035Y3077153D01*
X38473949Y3032067D01*
X38459762Y3007495D01*
X38458030Y3006495D01*
X38456298Y3007495D01*
X38456068Y3008885D01*
X38494560Y3202400D01*
X38456068Y3395915D01*
X38456711Y3397809D01*
X38458673Y3398199D01*
X38459762Y3397305D01*
X38473880Y3372852D01*
X38548809Y3315356D01*
X38642165Y3327647D01*
X38687251Y3372733D01*
X38701438Y3397305D01*
X38703170Y3398305D01*
X38704902Y3397305D01*
G37*
G36*
X43784902Y3397305D02*
G01*
X43785132Y3395915D01*
X43746640Y3202400D01*
X43785132Y3008885D01*
X43784489Y3006991D01*
X43782527Y3006601D01*
X43781438Y3007495D01*
X43767320Y3031948D01*
X43692391Y3089444D01*
X43599035Y3077153D01*
X43553949Y3032067D01*
X43539762Y3007495D01*
X43538030Y3006495D01*
X43536298Y3007495D01*
X43536068Y3008885D01*
X43574560Y3202400D01*
X43536068Y3395915D01*
X43536711Y3397809D01*
X43538673Y3398199D01*
X43539762Y3397305D01*
X43553880Y3372852D01*
X43628809Y3315356D01*
X43722165Y3327647D01*
X43767251Y3372733D01*
X43781438Y3397305D01*
X43783170Y3398305D01*
X43784902Y3397305D01*
G37*
G36*
X78074902Y3397305D02*
G01*
X78075132Y3395915D01*
X78036640Y3202400D01*
X78075132Y3008885D01*
X78074489Y3006991D01*
X78072527Y3006601D01*
X78071438Y3007495D01*
X78057320Y3031948D01*
X77982391Y3089444D01*
X77889035Y3077153D01*
X77843949Y3032067D01*
X77829762Y3007495D01*
X77828030Y3006495D01*
X77826298Y3007495D01*
X77826068Y3008885D01*
X77864560Y3202400D01*
X77826068Y3395915D01*
X77826711Y3397809D01*
X77828673Y3398199D01*
X77829762Y3397305D01*
X77843880Y3372852D01*
X77918809Y3315356D01*
X78012165Y3327647D01*
X78057251Y3372733D01*
X78071438Y3397305D01*
X78073170Y3398305D01*
X78074902Y3397305D01*
G37*
G36*
X39974902Y3397305D02*
G01*
X39975132Y3395915D01*
X39936640Y3202400D01*
X39975132Y3008885D01*
X39974489Y3006991D01*
X39972527Y3006601D01*
X39971438Y3007495D01*
X39957320Y3031948D01*
X39882391Y3089444D01*
X39789035Y3077153D01*
X39743949Y3032067D01*
X39729762Y3007495D01*
X39728030Y3006495D01*
X39726298Y3007495D01*
X39726068Y3008885D01*
X39764560Y3202400D01*
X39726068Y3395915D01*
X39726711Y3397809D01*
X39728673Y3398199D01*
X39729762Y3397305D01*
X39743880Y3372852D01*
X39818809Y3315356D01*
X39912165Y3327647D01*
X39957251Y3372733D01*
X39971438Y3397305D01*
X39973170Y3398305D01*
X39974902Y3397305D01*
G37*
G36*
X57754902Y3397305D02*
G01*
X57755132Y3395915D01*
X57716640Y3202400D01*
X57755132Y3008885D01*
X57754489Y3006991D01*
X57752527Y3006601D01*
X57751438Y3007495D01*
X57737320Y3031948D01*
X57662391Y3089444D01*
X57569035Y3077153D01*
X57523949Y3032067D01*
X57509762Y3007495D01*
X57508030Y3006495D01*
X57506298Y3007495D01*
X57506068Y3008885D01*
X57544560Y3202400D01*
X57506068Y3395915D01*
X57506711Y3397809D01*
X57508673Y3398199D01*
X57509762Y3397305D01*
X57523880Y3372852D01*
X57598809Y3315356D01*
X57692165Y3327647D01*
X57737251Y3372733D01*
X57751438Y3397305D01*
X57753170Y3398305D01*
X57754902Y3397305D01*
G37*
G36*
X46324902Y3397305D02*
G01*
X46325132Y3395915D01*
X46286640Y3202400D01*
X46325132Y3008885D01*
X46324489Y3006991D01*
X46322527Y3006601D01*
X46321438Y3007495D01*
X46307320Y3031948D01*
X46232391Y3089444D01*
X46139035Y3077153D01*
X46093949Y3032067D01*
X46079762Y3007495D01*
X46078030Y3006495D01*
X46076298Y3007495D01*
X46076068Y3008885D01*
X46114560Y3202400D01*
X46076068Y3395915D01*
X46076711Y3397809D01*
X46078673Y3398199D01*
X46079762Y3397305D01*
X46093880Y3372852D01*
X46168809Y3315356D01*
X46262165Y3327647D01*
X46307251Y3372733D01*
X46321438Y3397305D01*
X46323170Y3398305D01*
X46324902Y3397305D01*
G37*
G36*
X65374902Y3397305D02*
G01*
X65375132Y3395915D01*
X65336640Y3202400D01*
X65375132Y3008885D01*
X65374489Y3006991D01*
X65372527Y3006601D01*
X65371438Y3007495D01*
X65357320Y3031948D01*
X65282391Y3089444D01*
X65189035Y3077153D01*
X65143949Y3032067D01*
X65129762Y3007495D01*
X65128030Y3006495D01*
X65126298Y3007495D01*
X65126068Y3008885D01*
X65164560Y3202400D01*
X65126068Y3395915D01*
X65126711Y3397809D01*
X65128673Y3398199D01*
X65129762Y3397305D01*
X65143880Y3372852D01*
X65218809Y3315356D01*
X65312165Y3327647D01*
X65357251Y3372733D01*
X65371438Y3397305D01*
X65373170Y3398305D01*
X65374902Y3397305D01*
G37*
G36*
X29814902Y3397305D02*
G01*
X29815132Y3395915D01*
X29776640Y3202400D01*
X29815132Y3008885D01*
X29814489Y3006991D01*
X29812527Y3006601D01*
X29811438Y3007495D01*
X29797320Y3031948D01*
X29722391Y3089444D01*
X29629035Y3077153D01*
X29583949Y3032067D01*
X29569762Y3007495D01*
X29568030Y3006495D01*
X29566298Y3007495D01*
X29566068Y3008885D01*
X29604560Y3202400D01*
X29566068Y3395915D01*
X29566711Y3397809D01*
X29568673Y3398199D01*
X29569762Y3397305D01*
X29583880Y3372852D01*
X29658809Y3315356D01*
X29752165Y3327647D01*
X29797251Y3372733D01*
X29811438Y3397305D01*
X29813170Y3398305D01*
X29814902Y3397305D01*
G37*
G36*
X59024902Y3397305D02*
G01*
X59025132Y3395915D01*
X58986640Y3202400D01*
X59025132Y3008885D01*
X59024489Y3006991D01*
X59022527Y3006601D01*
X59021438Y3007495D01*
X59007320Y3031948D01*
X58932391Y3089444D01*
X58839035Y3077153D01*
X58793949Y3032067D01*
X58779762Y3007495D01*
X58778030Y3006495D01*
X58776298Y3007495D01*
X58776068Y3008885D01*
X58814560Y3202400D01*
X58776068Y3395915D01*
X58776711Y3397809D01*
X58778673Y3398199D01*
X58779762Y3397305D01*
X58793880Y3372852D01*
X58868809Y3315356D01*
X58962165Y3327647D01*
X59007251Y3372733D01*
X59021438Y3397305D01*
X59023170Y3398305D01*
X59024902Y3397305D01*
G37*
G36*
X31084902Y3397305D02*
G01*
X31085132Y3395915D01*
X31046640Y3202400D01*
X31085132Y3008885D01*
X31084489Y3006991D01*
X31082527Y3006601D01*
X31081438Y3007495D01*
X31067320Y3031948D01*
X30992391Y3089444D01*
X30899035Y3077153D01*
X30853949Y3032067D01*
X30839762Y3007495D01*
X30838030Y3006495D01*
X30836298Y3007495D01*
X30836068Y3008885D01*
X30874560Y3202400D01*
X30836068Y3395915D01*
X30836711Y3397809D01*
X30838673Y3398199D01*
X30839762Y3397305D01*
X30853880Y3372852D01*
X30928809Y3315356D01*
X31022165Y3327647D01*
X31067251Y3372733D01*
X31081438Y3397305D01*
X31083170Y3398305D01*
X31084902Y3397305D01*
G37*
G36*
X70454902Y3397305D02*
G01*
X70455132Y3395915D01*
X70416640Y3202400D01*
X70455132Y3008885D01*
X70454489Y3006991D01*
X70452527Y3006601D01*
X70451438Y3007495D01*
X70437320Y3031948D01*
X70362391Y3089444D01*
X70269035Y3077153D01*
X70223949Y3032067D01*
X70209762Y3007495D01*
X70208030Y3006495D01*
X70206298Y3007495D01*
X70206068Y3008885D01*
X70244560Y3202400D01*
X70206068Y3395915D01*
X70206711Y3397809D01*
X70208673Y3398199D01*
X70209762Y3397305D01*
X70223880Y3372852D01*
X70298809Y3315356D01*
X70392165Y3327647D01*
X70437251Y3372733D01*
X70451438Y3397305D01*
X70453170Y3398305D01*
X70454902Y3397305D01*
G37*
G36*
X56484902Y3397305D02*
G01*
X56485132Y3395915D01*
X56446640Y3202400D01*
X56485132Y3008885D01*
X56484489Y3006991D01*
X56482527Y3006601D01*
X56481438Y3007495D01*
X56467320Y3031948D01*
X56392391Y3089444D01*
X56299035Y3077153D01*
X56253949Y3032067D01*
X56239762Y3007495D01*
X56238030Y3006495D01*
X56236298Y3007495D01*
X56236068Y3008885D01*
X56274560Y3202400D01*
X56236068Y3395915D01*
X56236711Y3397809D01*
X56238673Y3398199D01*
X56239762Y3397305D01*
X56253880Y3372852D01*
X56328809Y3315356D01*
X56422165Y3327647D01*
X56467251Y3372733D01*
X56481438Y3397305D01*
X56483170Y3398305D01*
X56484902Y3397305D01*
G37*
G36*
X20924902Y3397305D02*
G01*
X20925132Y3395915D01*
X20886640Y3202400D01*
X20925132Y3008885D01*
X20924489Y3006991D01*
X20922527Y3006601D01*
X20921438Y3007495D01*
X20907320Y3031948D01*
X20832391Y3089444D01*
X20739035Y3077153D01*
X20693949Y3032067D01*
X20679762Y3007495D01*
X20678030Y3006495D01*
X20676298Y3007495D01*
X20676068Y3008885D01*
X20714560Y3202400D01*
X20676068Y3395915D01*
X20676711Y3397809D01*
X20678673Y3398199D01*
X20679762Y3397305D01*
X20693880Y3372852D01*
X20768809Y3315356D01*
X20862165Y3327647D01*
X20907251Y3372733D01*
X20921438Y3397305D01*
X20923170Y3398305D01*
X20924902Y3397305D01*
G37*
G36*
X48864902Y3397305D02*
G01*
X48865132Y3395915D01*
X48826640Y3202400D01*
X48865132Y3008885D01*
X48864489Y3006991D01*
X48862527Y3006601D01*
X48861438Y3007495D01*
X48847320Y3031948D01*
X48772391Y3089444D01*
X48679035Y3077153D01*
X48633949Y3032067D01*
X48619762Y3007495D01*
X48618030Y3006495D01*
X48616298Y3007495D01*
X48616068Y3008885D01*
X48654560Y3202400D01*
X48616068Y3395915D01*
X48616711Y3397809D01*
X48618673Y3398199D01*
X48619762Y3397305D01*
X48633880Y3372852D01*
X48708809Y3315356D01*
X48802165Y3327647D01*
X48847251Y3372733D01*
X48861438Y3397305D01*
X48863170Y3398305D01*
X48864902Y3397305D01*
G37*
G36*
X75534902Y3397305D02*
G01*
X75535132Y3395915D01*
X75496640Y3202400D01*
X75535132Y3008885D01*
X75534489Y3006991D01*
X75532527Y3006601D01*
X75531438Y3007495D01*
X75517320Y3031948D01*
X75442391Y3089444D01*
X75349035Y3077153D01*
X75303949Y3032067D01*
X75289762Y3007495D01*
X75288030Y3006495D01*
X75286298Y3007495D01*
X75286068Y3008885D01*
X75324560Y3202400D01*
X75286068Y3395915D01*
X75286711Y3397809D01*
X75288673Y3398199D01*
X75289762Y3397305D01*
X75303880Y3372852D01*
X75378809Y3315356D01*
X75472165Y3327647D01*
X75517251Y3372733D01*
X75531438Y3397305D01*
X75533170Y3398305D01*
X75534902Y3397305D01*
G37*
G36*
X69184902Y3397305D02*
G01*
X69185132Y3395915D01*
X69146640Y3202400D01*
X69185132Y3008885D01*
X69184489Y3006991D01*
X69182527Y3006601D01*
X69181438Y3007495D01*
X69167320Y3031948D01*
X69092391Y3089444D01*
X68999035Y3077153D01*
X68953949Y3032067D01*
X68939762Y3007495D01*
X68938030Y3006495D01*
X68936298Y3007495D01*
X68936068Y3008885D01*
X68974560Y3202400D01*
X68936068Y3395915D01*
X68936711Y3397809D01*
X68938673Y3398199D01*
X68939762Y3397305D01*
X68953880Y3372852D01*
X69028809Y3315356D01*
X69122165Y3327647D01*
X69167251Y3372733D01*
X69181438Y3397305D01*
X69183170Y3398305D01*
X69184902Y3397305D01*
G37*
G36*
X42514902Y3397305D02*
G01*
X42515132Y3395915D01*
X42476640Y3202400D01*
X42515132Y3008885D01*
X42514489Y3006991D01*
X42512527Y3006601D01*
X42511438Y3007495D01*
X42497320Y3031948D01*
X42422391Y3089444D01*
X42329035Y3077153D01*
X42283949Y3032067D01*
X42269762Y3007495D01*
X42268030Y3006495D01*
X42266298Y3007495D01*
X42266068Y3008885D01*
X42304560Y3202400D01*
X42266068Y3395915D01*
X42266711Y3397809D01*
X42268673Y3398199D01*
X42269762Y3397305D01*
X42283880Y3372852D01*
X42358809Y3315356D01*
X42452165Y3327647D01*
X42497251Y3372733D01*
X42511438Y3397305D01*
X42513170Y3398305D01*
X42514902Y3397305D01*
G37*
G36*
X19654902Y3397305D02*
G01*
X19655132Y3395915D01*
X19616640Y3202400D01*
X19655132Y3008885D01*
X19654489Y3006991D01*
X19652527Y3006601D01*
X19651438Y3007495D01*
X19637320Y3031948D01*
X19562391Y3089444D01*
X19469035Y3077153D01*
X19423949Y3032067D01*
X19409762Y3007495D01*
X19408030Y3006495D01*
X19406298Y3007495D01*
X19406068Y3008885D01*
X19444560Y3202400D01*
X19406068Y3395915D01*
X19406711Y3397809D01*
X19408673Y3398199D01*
X19409762Y3397305D01*
X19423880Y3372852D01*
X19498809Y3315356D01*
X19592165Y3327647D01*
X19637251Y3372733D01*
X19651438Y3397305D01*
X19653170Y3398305D01*
X19654902Y3397305D01*
G37*
G36*
X50134902Y3397305D02*
G01*
X50135132Y3395915D01*
X50096640Y3202400D01*
X50135132Y3008885D01*
X50134489Y3006991D01*
X50132527Y3006601D01*
X50131438Y3007495D01*
X50117320Y3031948D01*
X50042391Y3089444D01*
X49949035Y3077153D01*
X49903949Y3032067D01*
X49889762Y3007495D01*
X49888030Y3006495D01*
X49886298Y3007495D01*
X49886068Y3008885D01*
X49924560Y3202400D01*
X49886068Y3395915D01*
X49886711Y3397809D01*
X49888673Y3398199D01*
X49889762Y3397305D01*
X49903880Y3372852D01*
X49978809Y3315356D01*
X50072165Y3327647D01*
X50117251Y3372733D01*
X50131438Y3397305D01*
X50133170Y3398305D01*
X50134902Y3397305D01*
G37*
G36*
X72994902Y3397305D02*
G01*
X72995132Y3395915D01*
X72956640Y3202400D01*
X72995132Y3008885D01*
X72994489Y3006991D01*
X72992527Y3006601D01*
X72991438Y3007495D01*
X72977320Y3031948D01*
X72902391Y3089444D01*
X72809035Y3077153D01*
X72763949Y3032067D01*
X72749762Y3007495D01*
X72748030Y3006495D01*
X72746298Y3007495D01*
X72746068Y3008885D01*
X72784560Y3202400D01*
X72746068Y3395915D01*
X72746711Y3397809D01*
X72748673Y3398199D01*
X72749762Y3397305D01*
X72763880Y3372852D01*
X72838809Y3315356D01*
X72932165Y3327647D01*
X72977251Y3372733D01*
X72991438Y3397305D01*
X72993170Y3398305D01*
X72994902Y3397305D01*
G37*
G36*
X22194902Y3397305D02*
G01*
X22195132Y3395915D01*
X22156640Y3202400D01*
X22195132Y3008885D01*
X22194489Y3006991D01*
X22192527Y3006601D01*
X22191438Y3007495D01*
X22177320Y3031948D01*
X22102391Y3089444D01*
X22009035Y3077153D01*
X21963949Y3032067D01*
X21949762Y3007495D01*
X21948030Y3006495D01*
X21946298Y3007495D01*
X21946068Y3008885D01*
X21984560Y3202400D01*
X21946068Y3395915D01*
X21946711Y3397809D01*
X21948673Y3398199D01*
X21949762Y3397305D01*
X21963880Y3372852D01*
X22038809Y3315356D01*
X22132165Y3327647D01*
X22177251Y3372733D01*
X22191438Y3397305D01*
X22193170Y3398305D01*
X22194902Y3397305D01*
G37*
G36*
X47594902Y3397305D02*
G01*
X47595132Y3395915D01*
X47556640Y3202400D01*
X47595132Y3008885D01*
X47594489Y3006991D01*
X47592527Y3006601D01*
X47591438Y3007495D01*
X47577320Y3031948D01*
X47502391Y3089444D01*
X47409035Y3077153D01*
X47363949Y3032067D01*
X47349762Y3007495D01*
X47348030Y3006495D01*
X47346298Y3007495D01*
X47346068Y3008885D01*
X47384560Y3202400D01*
X47346068Y3395915D01*
X47346711Y3397809D01*
X47348673Y3398199D01*
X47349762Y3397305D01*
X47363880Y3372852D01*
X47438809Y3315356D01*
X47532165Y3327647D01*
X47577251Y3372733D01*
X47591438Y3397305D01*
X47593170Y3398305D01*
X47594902Y3397305D01*
G37*
G36*
X62834902Y3397305D02*
G01*
X62835132Y3395915D01*
X62796640Y3202400D01*
X62835132Y3008885D01*
X62834489Y3006991D01*
X62832527Y3006601D01*
X62831438Y3007495D01*
X62817320Y3031948D01*
X62742391Y3089444D01*
X62649035Y3077153D01*
X62603949Y3032067D01*
X62589762Y3007495D01*
X62588030Y3006495D01*
X62586298Y3007495D01*
X62586068Y3008885D01*
X62624560Y3202400D01*
X62586068Y3395915D01*
X62586711Y3397809D01*
X62588673Y3398199D01*
X62589762Y3397305D01*
X62603880Y3372852D01*
X62678809Y3315356D01*
X62772165Y3327647D01*
X62817251Y3372733D01*
X62831438Y3397305D01*
X62833170Y3398305D01*
X62834902Y3397305D01*
G37*
G36*
X85925738Y36570009D02*
G01*
X85926128Y36568047D01*
X85925897Y36567579D01*
X85874438Y36490564D01*
X85892823Y36398138D01*
X85924885Y36366076D01*
X85925403Y36364144D01*
X85923989Y36362730D01*
X85923081Y36362700D01*
X85908501Y36365600D01*
X84348899Y36365600D01*
X84333556Y36362548D01*
X84331662Y36363191D01*
X84331272Y36365153D01*
X84331503Y36365621D01*
X84382962Y36442636D01*
X84364577Y36535062D01*
X84332515Y36567124D01*
X84331997Y36569056D01*
X84333411Y36570470D01*
X84334319Y36570500D01*
X84348899Y36567600D01*
X85908501Y36567600D01*
X85923844Y36570652D01*
X85925738Y36570009D01*
G37*
G36*
X85925738Y37520009D02*
G01*
X85926128Y37518047D01*
X85925897Y37517579D01*
X85874438Y37440564D01*
X85892823Y37348138D01*
X85924885Y37316076D01*
X85925403Y37314144D01*
X85923989Y37312730D01*
X85923081Y37312700D01*
X85908501Y37315600D01*
X84348899Y37315600D01*
X84333556Y37312548D01*
X84331662Y37313191D01*
X84331272Y37315153D01*
X84331503Y37315621D01*
X84382962Y37392636D01*
X84364577Y37485062D01*
X84332515Y37517124D01*
X84331997Y37519056D01*
X84333411Y37520470D01*
X84334319Y37520500D01*
X84348899Y37517600D01*
X85908501Y37517600D01*
X85923844Y37520652D01*
X85925738Y37520009D01*
G37*
G36*
X50827428Y45443595D02*
G01*
X50901067Y45394392D01*
X50993493Y45412778D01*
X51018840Y45438126D01*
X51020772Y45438644D01*
X51022186Y45437230D01*
X51021917Y45435601D01*
X51011152Y45419489D01*
X51003655Y45381801D01*
X51003655Y44982199D01*
X51011152Y44944511D01*
X51025406Y44923178D01*
X51025537Y44921182D01*
X51023874Y44920071D01*
X51022632Y44920404D01*
X50948996Y44969608D01*
X50856570Y44951224D01*
X50831218Y44925873D01*
X50829286Y44925355D01*
X50827872Y44926769D01*
X50828141Y44928398D01*
X50838907Y44944511D01*
X50846404Y44982199D01*
X50846404Y45381801D01*
X50838907Y45419489D01*
X50824654Y45440821D01*
X50824523Y45442817D01*
X50826186Y45443928D01*
X50827428Y45443595D01*
G37*
G36*
X50318593Y45435240D02*
G01*
X50392234Y45386036D01*
X50484659Y45404423D01*
X50510008Y45429772D01*
X50511940Y45430290D01*
X50513354Y45428876D01*
X50513085Y45427247D01*
X50507901Y45419489D01*
X50500404Y45381801D01*
X50500404Y44982199D01*
X50507901Y44944511D01*
X50516572Y44931533D01*
X50516703Y44929537D01*
X50515040Y44928426D01*
X50513798Y44928759D01*
X50440161Y44977963D01*
X50347735Y44959578D01*
X50322382Y44934226D01*
X50320450Y44933708D01*
X50319036Y44935122D01*
X50319305Y44936751D01*
X50324490Y44944511D01*
X50331987Y44982199D01*
X50331987Y45381801D01*
X50324490Y45419489D01*
X50315819Y45432466D01*
X50315688Y45434462D01*
X50317351Y45435573D01*
X50318593Y45435240D01*
G37*
G36*
X51155710Y46340109D02*
G01*
X51189668Y46354175D01*
X51191651Y46353914D01*
X51192416Y46352066D01*
X51192096Y46351216D01*
X51170897Y46319489D01*
X51163400Y46281801D01*
X51163400Y45882199D01*
X51170897Y45844511D01*
X51192131Y45812731D01*
X51195928Y45810194D01*
X51196813Y45808400D01*
X51195702Y45806737D01*
X51194427Y45806569D01*
X51107347Y45823891D01*
X51073387Y45809824D01*
X51071404Y45810085D01*
X51070639Y45811933D01*
X51070959Y45812783D01*
X51092158Y45844511D01*
X51099655Y45882199D01*
X51099655Y46281801D01*
X51092158Y46319489D01*
X51070924Y46351269D01*
X51067128Y46353806D01*
X51066243Y46355600D01*
X51067355Y46357263D01*
X51068629Y46357431D01*
X51155710Y46340109D01*
G37*
G36*
X50577428Y46343595D02*
G01*
X50651067Y46294392D01*
X50743493Y46312778D01*
X50768840Y46338126D01*
X50770772Y46338644D01*
X50772186Y46337230D01*
X50771917Y46335601D01*
X50761152Y46319489D01*
X50753655Y46281801D01*
X50753655Y45882199D01*
X50761152Y45844511D01*
X50775406Y45823178D01*
X50775537Y45821182D01*
X50773874Y45820071D01*
X50772632Y45820404D01*
X50698996Y45869608D01*
X50606570Y45851224D01*
X50581218Y45825873D01*
X50579286Y45825355D01*
X50577872Y45826769D01*
X50578141Y45828398D01*
X50588907Y45844511D01*
X50596404Y45882199D01*
X50596404Y46281801D01*
X50588907Y46319489D01*
X50574654Y46340821D01*
X50574523Y46342817D01*
X50576186Y46343928D01*
X50577428Y46343595D01*
G37*
G36*
X50068593Y46335240D02*
G01*
X50142234Y46286036D01*
X50234659Y46304423D01*
X50260008Y46329772D01*
X50261940Y46330290D01*
X50263354Y46328876D01*
X50263085Y46327247D01*
X50257901Y46319489D01*
X50250404Y46281801D01*
X50250404Y45882199D01*
X50257901Y45844511D01*
X50266572Y45831533D01*
X50266703Y45829537D01*
X50265040Y45828426D01*
X50263798Y45828759D01*
X50190161Y45877963D01*
X50097735Y45859578D01*
X50072382Y45834226D01*
X50070450Y45833708D01*
X50069036Y45835122D01*
X50069305Y45836751D01*
X50074490Y45844511D01*
X50081987Y45882199D01*
X50081987Y46281801D01*
X50074490Y46319489D01*
X50065819Y46332466D01*
X50065688Y46334462D01*
X50067351Y46335573D01*
X50068593Y46335240D01*
G37*
G36*
X54693620Y49697955D02*
G01*
X54720511Y49679987D01*
X54758199Y49672490D01*
X55757801Y49672490D01*
X55795489Y49679987D01*
X55822380Y49697955D01*
X55824376Y49698086D01*
X55825487Y49696423D01*
X55825154Y49695181D01*
X55823572Y49692812D01*
X55805102Y49599964D01*
X55823460Y49555646D01*
X55825154Y49553109D01*
X55825285Y49551113D01*
X55823621Y49550002D01*
X55822380Y49550335D01*
X55795489Y49568303D01*
X55757801Y49575800D01*
X54758199Y49575800D01*
X54720511Y49568303D01*
X54693620Y49550335D01*
X54691624Y49550204D01*
X54690513Y49551867D01*
X54690846Y49553109D01*
X54692428Y49555478D01*
X54710898Y49648326D01*
X54692540Y49692644D01*
X54690846Y49695181D01*
X54690715Y49697177D01*
X54692379Y49698288D01*
X54693620Y49697955D01*
G37*
G36*
X54693620Y50140639D02*
G01*
X54720511Y50122672D01*
X54758199Y50115175D01*
X55757801Y50115175D01*
X55795489Y50122672D01*
X55822380Y50140639D01*
X55824376Y50140770D01*
X55825487Y50139107D01*
X55825154Y50137865D01*
X55823573Y50135498D01*
X55805104Y50042650D01*
X55823462Y49998333D01*
X55825154Y49995799D01*
X55825285Y49993803D01*
X55823621Y49992692D01*
X55822380Y49993025D01*
X55795489Y50010993D01*
X55757801Y50018490D01*
X54758199Y50018490D01*
X54720511Y50010993D01*
X54693620Y49993025D01*
X54691624Y49992894D01*
X54690513Y49994557D01*
X54690846Y49995799D01*
X54692426Y49998165D01*
X54710896Y50091013D01*
X54692539Y50135331D01*
X54690846Y50137865D01*
X54690715Y50139860D01*
X54692378Y50140972D01*
X54693620Y50140639D01*
G37*
G36*
X45657981Y50476202D02*
G01*
X45657947Y50475681D01*
X45640550Y50388219D01*
X45656115Y50350642D01*
X45655854Y50348659D01*
X45654006Y50347894D01*
X45653156Y50348214D01*
X45623089Y50368303D01*
X45585401Y50375800D01*
X44585799Y50375800D01*
X44548111Y50368303D01*
X44516326Y50347066D01*
X44514330Y50346935D01*
X44513219Y50348598D01*
X44513253Y50349119D01*
X44530650Y50436581D01*
X44515085Y50474158D01*
X44515346Y50476141D01*
X44517194Y50476906D01*
X44518044Y50476586D01*
X44548111Y50456497D01*
X44585799Y50449000D01*
X45585401Y50449000D01*
X45623089Y50456497D01*
X45654874Y50477734D01*
X45656870Y50477865D01*
X45657981Y50476202D01*
G37*
G36*
X54693620Y50583324D02*
G01*
X54720511Y50565357D01*
X54758199Y50557860D01*
X55757801Y50557860D01*
X55795489Y50565357D01*
X55822380Y50583324D01*
X55824376Y50583455D01*
X55825487Y50581792D01*
X55825154Y50580550D01*
X55823573Y50578183D01*
X55805104Y50485335D01*
X55823462Y50441018D01*
X55825154Y50438484D01*
X55825285Y50436488D01*
X55823621Y50435377D01*
X55822380Y50435710D01*
X55795489Y50453678D01*
X55757801Y50461175D01*
X54758199Y50461175D01*
X54720511Y50453678D01*
X54693620Y50435710D01*
X54691624Y50435579D01*
X54690513Y50437242D01*
X54690846Y50438484D01*
X54692426Y50440850D01*
X54710896Y50533698D01*
X54692539Y50578016D01*
X54690846Y50580550D01*
X54690715Y50582545D01*
X54692378Y50583657D01*
X54693620Y50583324D01*
G37*
G36*
X45666256Y50882974D02*
G01*
X45666424Y50881699D01*
X45649103Y50794618D01*
X45662822Y50761496D01*
X45662561Y50759513D01*
X45660713Y50758748D01*
X45659311Y50759620D01*
X45654869Y50766269D01*
X45623089Y50787503D01*
X45585401Y50795000D01*
X44585799Y50795000D01*
X44548111Y50787503D01*
X44516331Y50766269D01*
X44508401Y50754400D01*
X44506607Y50753515D01*
X44504944Y50754626D01*
X44504776Y50755901D01*
X44522097Y50842982D01*
X44508378Y50876104D01*
X44508639Y50878087D01*
X44510487Y50878852D01*
X44511889Y50877980D01*
X44516331Y50871331D01*
X44548111Y50850097D01*
X44585799Y50842600D01*
X45585401Y50842600D01*
X45623089Y50850097D01*
X45654869Y50871331D01*
X45662799Y50883200D01*
X45664593Y50884085D01*
X45666256Y50882974D01*
G37*
G36*
X54693620Y51026010D02*
G01*
X54720511Y51008042D01*
X54758199Y51000545D01*
X55757801Y51000545D01*
X55795489Y51008042D01*
X55822380Y51026010D01*
X55824376Y51026141D01*
X55825487Y51024478D01*
X55825154Y51023236D01*
X55823574Y51020870D01*
X55805104Y50928022D01*
X55823461Y50883704D01*
X55825154Y50881170D01*
X55825285Y50879175D01*
X55823622Y50878063D01*
X55822380Y50878396D01*
X55795489Y50896363D01*
X55757801Y50903860D01*
X54758199Y50903860D01*
X54720511Y50896363D01*
X54693620Y50878396D01*
X54691624Y50878265D01*
X54690513Y50879928D01*
X54690846Y50881170D01*
X54692427Y50883537D01*
X54710896Y50976385D01*
X54692538Y51020702D01*
X54690846Y51023236D01*
X54690715Y51025232D01*
X54692379Y51026343D01*
X54693620Y51026010D01*
G37*
G36*
X45661981Y51282973D02*
G01*
X45662149Y51281699D01*
X45644827Y51194617D01*
X45658547Y51161495D01*
X45658286Y51159512D01*
X45656438Y51158747D01*
X45655036Y51159619D01*
X45654869Y51159869D01*
X45623089Y51181103D01*
X45585401Y51188600D01*
X44585799Y51188600D01*
X44548111Y51181103D01*
X44516331Y51159869D01*
X44512676Y51154400D01*
X44510882Y51153515D01*
X44509219Y51154627D01*
X44509051Y51155901D01*
X44526373Y51242983D01*
X44512653Y51276105D01*
X44512914Y51278088D01*
X44514762Y51278853D01*
X44516164Y51277981D01*
X44516331Y51277731D01*
X44548111Y51256497D01*
X44585799Y51249000D01*
X45585401Y51249000D01*
X45623089Y51256497D01*
X45654869Y51277731D01*
X45658524Y51283200D01*
X45660318Y51284085D01*
X45661981Y51282973D01*
G37*
G36*
X54693620Y51468694D02*
G01*
X54720511Y51450727D01*
X54758199Y51443230D01*
X55757801Y51443230D01*
X55795489Y51450727D01*
X55822380Y51468694D01*
X55824376Y51468825D01*
X55825487Y51467162D01*
X55825154Y51465920D01*
X55823573Y51463553D01*
X55805104Y51370705D01*
X55823462Y51326388D01*
X55825154Y51323854D01*
X55825285Y51321858D01*
X55823621Y51320747D01*
X55822380Y51321080D01*
X55795489Y51339048D01*
X55757801Y51346545D01*
X54758199Y51346545D01*
X54720511Y51339048D01*
X54693620Y51321080D01*
X54691624Y51320949D01*
X54690513Y51322612D01*
X54690846Y51323854D01*
X54692426Y51326220D01*
X54710896Y51419068D01*
X54692539Y51463386D01*
X54690846Y51465920D01*
X54690715Y51467915D01*
X54692378Y51469027D01*
X54693620Y51468694D01*
G37*
G36*
X45661981Y51689373D02*
G01*
X45662149Y51688099D01*
X45644827Y51601017D01*
X45658547Y51567895D01*
X45658286Y51565912D01*
X45656438Y51565147D01*
X45655036Y51566019D01*
X45654869Y51566269D01*
X45623089Y51587503D01*
X45585401Y51595000D01*
X44585799Y51595000D01*
X44548111Y51587503D01*
X44516331Y51566269D01*
X44512676Y51560800D01*
X44510882Y51559915D01*
X44509219Y51561027D01*
X44509051Y51562301D01*
X44526373Y51649383D01*
X44512653Y51682505D01*
X44512914Y51684488D01*
X44514762Y51685253D01*
X44516164Y51684381D01*
X44516331Y51684131D01*
X44548111Y51662897D01*
X44585799Y51655400D01*
X45585401Y51655400D01*
X45623089Y51662897D01*
X45654869Y51684131D01*
X45658524Y51689600D01*
X45660318Y51690485D01*
X45661981Y51689373D01*
G37*
G36*
X54693620Y51911379D02*
G01*
X54720511Y51893412D01*
X54758199Y51885915D01*
X55757801Y51885915D01*
X55795489Y51893412D01*
X55822380Y51911379D01*
X55824376Y51911510D01*
X55825487Y51909847D01*
X55825154Y51908605D01*
X55823573Y51906238D01*
X55805104Y51813390D01*
X55823462Y51769073D01*
X55825154Y51766539D01*
X55825285Y51764543D01*
X55823621Y51763432D01*
X55822380Y51763765D01*
X55795489Y51781733D01*
X55757801Y51789230D01*
X54758199Y51789230D01*
X54720511Y51781733D01*
X54693620Y51763765D01*
X54691624Y51763634D01*
X54690513Y51765297D01*
X54690846Y51766539D01*
X54692426Y51768905D01*
X54710896Y51861753D01*
X54692539Y51906071D01*
X54690846Y51908605D01*
X54690715Y51910600D01*
X54692378Y51911712D01*
X54693620Y51911379D01*
G37*
G36*
X45661981Y52095773D02*
G01*
X45662149Y52094499D01*
X45644827Y52007417D01*
X45658547Y51974295D01*
X45658286Y51972312D01*
X45656438Y51971547D01*
X45655036Y51972419D01*
X45654869Y51972669D01*
X45623089Y51993903D01*
X45585401Y52001400D01*
X44585799Y52001400D01*
X44548111Y51993903D01*
X44516331Y51972669D01*
X44512676Y51967200D01*
X44510882Y51966315D01*
X44509219Y51967427D01*
X44509051Y51968701D01*
X44526373Y52055783D01*
X44512653Y52088905D01*
X44512914Y52090888D01*
X44514762Y52091653D01*
X44516164Y52090781D01*
X44516331Y52090531D01*
X44548111Y52069297D01*
X44585799Y52061800D01*
X45585401Y52061800D01*
X45623089Y52069297D01*
X45654869Y52090531D01*
X45658524Y52096000D01*
X45660318Y52096885D01*
X45661981Y52095773D01*
G37*
G36*
X54693620Y52354065D02*
G01*
X54720511Y52336097D01*
X54758199Y52328600D01*
X55757801Y52328600D01*
X55795489Y52336097D01*
X55822380Y52354065D01*
X55824376Y52354196D01*
X55825487Y52352533D01*
X55825154Y52351291D01*
X55823574Y52348925D01*
X55805104Y52256077D01*
X55823461Y52211759D01*
X55825154Y52209225D01*
X55825285Y52207230D01*
X55823622Y52206118D01*
X55822380Y52206451D01*
X55795489Y52224418D01*
X55757801Y52231915D01*
X54758199Y52231915D01*
X54720511Y52224418D01*
X54693620Y52206451D01*
X54691624Y52206320D01*
X54690513Y52207983D01*
X54690846Y52209225D01*
X54692427Y52211592D01*
X54710896Y52304440D01*
X54692538Y52348757D01*
X54690846Y52351291D01*
X54690715Y52353287D01*
X54692379Y52354398D01*
X54693620Y52354065D01*
G37*
M02*
