%FSLAX45Y45*%
G04 Gerber Fmt 4.5, Leading zero omitted, Abs format (unit mm)*
G04 Created by KiCad (PCBNEW (5.99.0-10436-ga433451bd8)) date 2021-04-29 10:19:27*
%MOMM*%
%LPD*%
G01*
G04 APERTURE LIST*
%TA.AperFunction,Profile*%
%ADD10C,0.050000*%
%TD*%
%ADD11C,0.200000*%
%ADD12C,0.320000*%
G04 APERTURE END LIST*
D10*
X2560Y1240D02*
X10002560Y1240D01*
X10002560Y1240D02*
X10002560Y10001240D01*
X10002560Y10001240D02*
X2560Y10001240D01*
X2560Y10001240D02*
X2560Y1240D01*
D11*
D12*
X342560Y9661240D02*
X662560Y9341240D01*
X662560Y9661240D02*
X342560Y9341240D01*
X342560Y661240D02*
X662560Y341240D01*
X662560Y661240D02*
X342560Y341240D01*
X9342560Y9661240D02*
X9662560Y9341240D01*
X9662560Y9661240D02*
X9342560Y9341240D01*
X9342560Y661240D02*
X9662560Y341240D01*
X9662560Y661240D02*
X9342560Y341240D01*
D11*
X257679Y-311736D02*
X257679Y-111736D01*
X305298Y-111736D01*
X333870Y-121260D01*
X352917Y-140308D01*
X362441Y-159355D01*
X371965Y-197450D01*
X371965Y-226022D01*
X362441Y-264117D01*
X352917Y-283165D01*
X333870Y-302212D01*
X305298Y-311736D01*
X257679Y-311736D01*
X457679Y-311736D02*
X457679Y-178403D01*
X457679Y-216498D02*
X467203Y-197450D01*
X476727Y-187927D01*
X495774Y-178403D01*
X514822Y-178403D01*
X581489Y-311736D02*
X581489Y-178403D01*
X581489Y-111736D02*
X571965Y-121260D01*
X581489Y-130784D01*
X591012Y-121260D01*
X581489Y-111736D01*
X581489Y-130784D01*
X705298Y-311736D02*
X686250Y-302212D01*
X676727Y-283165D01*
X676727Y-111736D01*
X810060Y-311736D02*
X791012Y-302212D01*
X781488Y-283165D01*
X781488Y-111736D01*
X1038631Y-311736D02*
X1038631Y-111736D01*
X1105298Y-254593D01*
X1171965Y-111736D01*
X1171965Y-311736D01*
X1352917Y-311736D02*
X1352917Y-206974D01*
X1343393Y-187927D01*
X1324346Y-178403D01*
X1286250Y-178403D01*
X1267203Y-187927D01*
X1352917Y-302212D02*
X1333870Y-311736D01*
X1286250Y-311736D01*
X1267203Y-302212D01*
X1257679Y-283165D01*
X1257679Y-264117D01*
X1267203Y-245069D01*
X1286250Y-235546D01*
X1333870Y-235546D01*
X1352917Y-226022D01*
X1448155Y-178403D02*
X1448155Y-378403D01*
X1448155Y-187927D02*
X1467203Y-178403D01*
X1505298Y-178403D01*
X1524346Y-187927D01*
X1533869Y-197450D01*
X1543393Y-216498D01*
X1543393Y-273641D01*
X1533869Y-292689D01*
X1524346Y-302212D01*
X1505298Y-311736D01*
X1467203Y-311736D01*
X1448155Y-302212D01*
X1629108Y-292689D02*
X1638631Y-302212D01*
X1629108Y-311736D01*
X1619584Y-302212D01*
X1629108Y-292689D01*
X1629108Y-311736D01*
X1629108Y-187927D02*
X1638631Y-197450D01*
X1629108Y-206974D01*
X1619584Y-197450D01*
X1629108Y-187927D01*
X1629108Y-206974D01*
X-199940Y-541260D02*
X60Y-741260D01*
X60Y-541260D02*
X-199940Y-741260D01*
X238631Y-531736D02*
X362441Y-531736D01*
X295774Y-607927D01*
X324346Y-607927D01*
X343393Y-617450D01*
X352917Y-626974D01*
X362441Y-646022D01*
X362441Y-693641D01*
X352917Y-712688D01*
X343393Y-722212D01*
X324346Y-731736D01*
X267203Y-731736D01*
X248155Y-722212D01*
X238631Y-712688D01*
X448155Y-712688D02*
X457679Y-722212D01*
X448155Y-731736D01*
X438631Y-722212D01*
X448155Y-712688D01*
X448155Y-731736D01*
X533870Y-550784D02*
X543393Y-541260D01*
X562441Y-531736D01*
X610060Y-531736D01*
X629108Y-541260D01*
X638631Y-550784D01*
X648155Y-569831D01*
X648155Y-588879D01*
X638631Y-617450D01*
X524346Y-731736D01*
X648155Y-731736D01*
X771965Y-531736D02*
X791012Y-531736D01*
X810060Y-541260D01*
X819584Y-550784D01*
X829108Y-569831D01*
X838631Y-607927D01*
X838631Y-655546D01*
X829108Y-693641D01*
X819584Y-712688D01*
X810060Y-722212D01*
X791012Y-731736D01*
X771965Y-731736D01*
X752917Y-722212D01*
X743393Y-712688D01*
X733869Y-693641D01*
X724346Y-655546D01*
X724346Y-607927D01*
X733869Y-569831D01*
X743393Y-550784D01*
X752917Y-541260D01*
X771965Y-531736D01*
X962441Y-531736D02*
X981488Y-531736D01*
X1000536Y-541260D01*
X1010060Y-550784D01*
X1019584Y-569831D01*
X1029108Y-607927D01*
X1029108Y-655546D01*
X1019584Y-693641D01*
X1010060Y-712688D01*
X1000536Y-722212D01*
X981488Y-731736D01*
X962441Y-731736D01*
X943393Y-722212D01*
X933869Y-712688D01*
X924346Y-693641D01*
X914822Y-655546D01*
X914822Y-607927D01*
X924346Y-569831D01*
X933869Y-550784D01*
X943393Y-541260D01*
X962441Y-531736D01*
X1114822Y-731736D02*
X1114822Y-598403D01*
X1114822Y-617450D02*
X1124346Y-607927D01*
X1143393Y-598403D01*
X1171965Y-598403D01*
X1191012Y-607927D01*
X1200536Y-626974D01*
X1200536Y-731736D01*
X1200536Y-626974D02*
X1210060Y-607927D01*
X1229108Y-598403D01*
X1257679Y-598403D01*
X1276727Y-607927D01*
X1286250Y-626974D01*
X1286250Y-731736D01*
X1381489Y-731736D02*
X1381489Y-598403D01*
X1381489Y-617450D02*
X1391012Y-607927D01*
X1410060Y-598403D01*
X1438631Y-598403D01*
X1457679Y-607927D01*
X1467203Y-626974D01*
X1467203Y-731736D01*
X1467203Y-626974D02*
X1476727Y-607927D01*
X1495774Y-598403D01*
X1524346Y-598403D01*
X1543393Y-607927D01*
X1552917Y-626974D01*
X1552917Y-731736D01*
X1943393Y-522212D02*
X1771965Y-779355D01*
X2200536Y-531736D02*
X2219584Y-531736D01*
X2238631Y-541260D01*
X2248155Y-550784D01*
X2257679Y-569831D01*
X2267203Y-607927D01*
X2267203Y-655546D01*
X2257679Y-693641D01*
X2248155Y-712688D01*
X2238631Y-722212D01*
X2219584Y-731736D01*
X2200536Y-731736D01*
X2181489Y-722212D01*
X2171965Y-712688D01*
X2162441Y-693641D01*
X2152917Y-655546D01*
X2152917Y-607927D01*
X2162441Y-569831D01*
X2171965Y-550784D01*
X2181489Y-541260D01*
X2200536Y-531736D01*
X2352917Y-712688D02*
X2362441Y-722212D01*
X2352917Y-731736D01*
X2343393Y-722212D01*
X2352917Y-712688D01*
X2352917Y-731736D01*
X2552917Y-731736D02*
X2438631Y-731736D01*
X2495774Y-731736D02*
X2495774Y-531736D01*
X2476727Y-560308D01*
X2457679Y-579355D01*
X2438631Y-588879D01*
X2629108Y-550784D02*
X2638631Y-541260D01*
X2657679Y-531736D01*
X2705298Y-531736D01*
X2724346Y-541260D01*
X2733870Y-550784D01*
X2743393Y-569831D01*
X2743393Y-588879D01*
X2733870Y-617450D01*
X2619584Y-731736D01*
X2743393Y-731736D01*
X2914822Y-531736D02*
X2876727Y-531736D01*
X2857679Y-541260D01*
X2848155Y-550784D01*
X2829108Y-579355D01*
X2819584Y-617450D01*
X2819584Y-693641D01*
X2829108Y-712688D01*
X2838631Y-722212D01*
X2857679Y-731736D01*
X2895774Y-731736D01*
X2914822Y-722212D01*
X2924346Y-712688D01*
X2933869Y-693641D01*
X2933869Y-646022D01*
X2924346Y-626974D01*
X2914822Y-617450D01*
X2895774Y-607927D01*
X2857679Y-607927D01*
X2838631Y-617450D01*
X2829108Y-626974D01*
X2819584Y-646022D01*
X3057679Y-531736D02*
X3076727Y-531736D01*
X3095774Y-541260D01*
X3105298Y-550784D01*
X3114822Y-569831D01*
X3124346Y-607927D01*
X3124346Y-655546D01*
X3114822Y-693641D01*
X3105298Y-712688D01*
X3095774Y-722212D01*
X3076727Y-731736D01*
X3057679Y-731736D01*
X3038631Y-722212D01*
X3029108Y-712688D01*
X3019584Y-693641D01*
X3010060Y-655546D01*
X3010060Y-607927D01*
X3019584Y-569831D01*
X3029108Y-550784D01*
X3038631Y-541260D01*
X3057679Y-531736D01*
X3200536Y-531736D02*
X3200536Y-569831D01*
X3276727Y-531736D02*
X3276727Y-569831D01*
X3571965Y-807927D02*
X3562441Y-798403D01*
X3543393Y-769831D01*
X3533869Y-750784D01*
X3524346Y-722212D01*
X3514822Y-674593D01*
X3514822Y-636498D01*
X3524346Y-588879D01*
X3533869Y-560308D01*
X3543393Y-541260D01*
X3562441Y-512688D01*
X3571965Y-503165D01*
X3733869Y-598403D02*
X3733869Y-731736D01*
X3686250Y-522212D02*
X3638631Y-665070D01*
X3762441Y-665070D01*
X3991012Y-731736D02*
X3991012Y-531736D01*
X4076727Y-731736D02*
X4076727Y-626974D01*
X4067203Y-607927D01*
X4048155Y-598403D01*
X4019584Y-598403D01*
X4000536Y-607927D01*
X3991012Y-617450D01*
X4200536Y-731736D02*
X4181488Y-722212D01*
X4171965Y-712688D01*
X4162441Y-693641D01*
X4162441Y-636498D01*
X4171965Y-617450D01*
X4181488Y-607927D01*
X4200536Y-598403D01*
X4229108Y-598403D01*
X4248155Y-607927D01*
X4257679Y-617450D01*
X4267203Y-636498D01*
X4267203Y-693641D01*
X4257679Y-712688D01*
X4248155Y-722212D01*
X4229108Y-731736D01*
X4200536Y-731736D01*
X4381489Y-731736D02*
X4362441Y-722212D01*
X4352917Y-703165D01*
X4352917Y-531736D01*
X4533870Y-722212D02*
X4514822Y-731736D01*
X4476727Y-731736D01*
X4457679Y-722212D01*
X4448155Y-703165D01*
X4448155Y-626974D01*
X4457679Y-607927D01*
X4476727Y-598403D01*
X4514822Y-598403D01*
X4533870Y-607927D01*
X4543393Y-626974D01*
X4543393Y-646022D01*
X4448155Y-665070D01*
X4619584Y-722212D02*
X4638631Y-731736D01*
X4676727Y-731736D01*
X4695774Y-722212D01*
X4705298Y-703165D01*
X4705298Y-693641D01*
X4695774Y-674593D01*
X4676727Y-665070D01*
X4648155Y-665070D01*
X4629108Y-655546D01*
X4619584Y-636498D01*
X4619584Y-626974D01*
X4629108Y-607927D01*
X4648155Y-598403D01*
X4676727Y-598403D01*
X4695774Y-607927D01*
X4771965Y-807927D02*
X4781489Y-798403D01*
X4800536Y-769831D01*
X4810060Y-750784D01*
X4819584Y-722212D01*
X4829108Y-674593D01*
X4829108Y-636498D01*
X4819584Y-588879D01*
X4810060Y-560308D01*
X4800536Y-541260D01*
X4781489Y-512688D01*
X4771965Y-503165D01*
X5133870Y-807927D02*
X5124346Y-798403D01*
X5105298Y-769831D01*
X5095774Y-750784D01*
X5086250Y-722212D01*
X5076727Y-674593D01*
X5076727Y-636498D01*
X5086250Y-588879D01*
X5095774Y-560308D01*
X5105298Y-541260D01*
X5124346Y-512688D01*
X5133870Y-503165D01*
X5210060Y-598403D02*
X5210060Y-731736D01*
X5210060Y-617450D02*
X5219584Y-607927D01*
X5238631Y-598403D01*
X5267203Y-598403D01*
X5286250Y-607927D01*
X5295774Y-626974D01*
X5295774Y-731736D01*
X5419584Y-731736D02*
X5400536Y-722212D01*
X5391012Y-712688D01*
X5381489Y-693641D01*
X5381489Y-636498D01*
X5391012Y-617450D01*
X5400536Y-607927D01*
X5419584Y-598403D01*
X5448155Y-598403D01*
X5467203Y-607927D01*
X5476727Y-617450D01*
X5486250Y-636498D01*
X5486250Y-693641D01*
X5476727Y-712688D01*
X5467203Y-722212D01*
X5448155Y-731736D01*
X5419584Y-731736D01*
X5543393Y-598403D02*
X5619584Y-598403D01*
X5571965Y-531736D02*
X5571965Y-703165D01*
X5581489Y-722212D01*
X5600536Y-731736D01*
X5619584Y-731736D01*
X5838631Y-598403D02*
X5838631Y-798403D01*
X5838631Y-607927D02*
X5857679Y-598403D01*
X5895774Y-598403D01*
X5914822Y-607927D01*
X5924346Y-617450D01*
X5933869Y-636498D01*
X5933869Y-693641D01*
X5924346Y-712688D01*
X5914822Y-722212D01*
X5895774Y-731736D01*
X5857679Y-731736D01*
X5838631Y-722212D01*
X6048155Y-731736D02*
X6029108Y-722212D01*
X6019584Y-703165D01*
X6019584Y-531736D01*
X6210060Y-731736D02*
X6210060Y-626974D01*
X6200536Y-607927D01*
X6181488Y-598403D01*
X6143393Y-598403D01*
X6124346Y-607927D01*
X6210060Y-722212D02*
X6191012Y-731736D01*
X6143393Y-731736D01*
X6124346Y-722212D01*
X6114822Y-703165D01*
X6114822Y-684117D01*
X6124346Y-665070D01*
X6143393Y-655546D01*
X6191012Y-655546D01*
X6210060Y-646022D01*
X6276727Y-598403D02*
X6352917Y-598403D01*
X6305298Y-531736D02*
X6305298Y-703165D01*
X6314822Y-722212D01*
X6333869Y-731736D01*
X6352917Y-731736D01*
X6495774Y-722212D02*
X6476727Y-731736D01*
X6438631Y-731736D01*
X6419584Y-722212D01*
X6410060Y-703165D01*
X6410060Y-626974D01*
X6419584Y-607927D01*
X6438631Y-598403D01*
X6476727Y-598403D01*
X6495774Y-607927D01*
X6505298Y-626974D01*
X6505298Y-646022D01*
X6410060Y-665070D01*
X6676727Y-731736D02*
X6676727Y-531736D01*
X6676727Y-722212D02*
X6657679Y-731736D01*
X6619584Y-731736D01*
X6600536Y-722212D01*
X6591012Y-712688D01*
X6581488Y-693641D01*
X6581488Y-636498D01*
X6591012Y-617450D01*
X6600536Y-607927D01*
X6619584Y-598403D01*
X6657679Y-598403D01*
X6676727Y-607927D01*
X6752917Y-807927D02*
X6762441Y-798403D01*
X6781488Y-769831D01*
X6791012Y-750784D01*
X6800536Y-722212D01*
X6810060Y-674593D01*
X6810060Y-636498D01*
X6800536Y-588879D01*
X6791012Y-560308D01*
X6781488Y-541260D01*
X6762441Y-512688D01*
X6752917Y-503165D01*
M02*
