%TF.GenerationSoftware,KiCad,Pcbnew,(5.99.0-10436-ga433451bd8)*%
%TF.CreationDate,2021-04-29T10:19:22+02:00*%
%TF.ProjectId,MightyPixRun2020_PCB,4d696768-7479-4506-9978-52756e323032,rev?*%
%TF.SameCoordinates,PX5f57d00PY8f101f0*%
%TF.FileFunction,Profile,NP*%
%FSLAX46Y46*%
G04 Gerber Fmt 4.6, Leading zero omitted, Abs format (unit mm)*
G04 Created by KiCad (PCBNEW (5.99.0-10436-ga433451bd8)) date 2021-04-29 10:19:22*
%MOMM*%
%LPD*%
G01*
G04 APERTURE LIST*
%ADD10C,0.100000*%
%ADD11C,0.150000*%
%ADD12C,0.300000*%
%ADD13C,0.400000*%
%TA.AperFunction,Profile*%
%ADD14C,0.050000*%
%TD*%
G04 APERTURE END LIST*
D10*
D11*
X77027800Y-15994800D02*
X77027800Y-47994800D01*
X185027800Y-47994800D01*
X185027800Y-15994800D01*
X77027800Y-15994800D01*
D10*
D11*
X-89974400Y140012400D02*
X-89974400Y-49994800D01*
X187027800Y-49994800D01*
X187027800Y140012400D01*
X-89974400Y140012400D01*
D10*
D11*
X-87974400Y138012400D02*
X-87974400Y-47994800D01*
X185027800Y-47994800D01*
X185027800Y138012400D01*
X-87974400Y138012400D01*
D10*
D11*
X-39974400Y138012400D02*
X-39974400Y140012400D01*
D10*
D11*
X10025600Y138012400D02*
X10025600Y140012400D01*
D10*
D11*
X60025600Y138012400D02*
X60025600Y140012400D01*
D10*
D11*
X110025600Y138012400D02*
X110025600Y140012400D01*
D10*
D11*
X160025600Y138012400D02*
X160025600Y140012400D01*
D10*
D11*
X-63908924Y138424305D02*
X-64651781Y138424305D01*
X-64280353Y138424305D02*
X-64280353Y139724305D01*
X-64404162Y139538591D01*
X-64527972Y139414781D01*
X-64651781Y139352877D01*
D10*
D11*
X-14651781Y139600496D02*
X-14589877Y139662400D01*
X-14466067Y139724305D01*
X-14156543Y139724305D01*
X-14032734Y139662400D01*
X-13970829Y139600496D01*
X-13908924Y139476686D01*
X-13908924Y139352877D01*
X-13970829Y139167162D01*
X-14713686Y138424305D01*
X-13908924Y138424305D01*
D10*
D11*
X35286314Y139724305D02*
X36091076Y139724305D01*
X35657742Y139229067D01*
X35843457Y139229067D01*
X35967266Y139167162D01*
X36029171Y139105258D01*
X36091076Y138981448D01*
X36091076Y138671924D01*
X36029171Y138548115D01*
X35967266Y138486210D01*
X35843457Y138424305D01*
X35472028Y138424305D01*
X35348219Y138486210D01*
X35286314Y138548115D01*
D10*
D11*
X85967266Y139290972D02*
X85967266Y138424305D01*
X85657742Y139786210D02*
X85348219Y138857639D01*
X86152980Y138857639D01*
D10*
D11*
X136029171Y139724305D02*
X135410123Y139724305D01*
X135348219Y139105258D01*
X135410123Y139167162D01*
X135533933Y139229067D01*
X135843457Y139229067D01*
X135967266Y139167162D01*
X136029171Y139105258D01*
X136091076Y138981448D01*
X136091076Y138671924D01*
X136029171Y138548115D01*
X135967266Y138486210D01*
X135843457Y138424305D01*
X135533933Y138424305D01*
X135410123Y138486210D01*
X135348219Y138548115D01*
D10*
D11*
X185967266Y139724305D02*
X185719647Y139724305D01*
X185595838Y139662400D01*
X185533933Y139600496D01*
X185410123Y139414781D01*
X185348219Y139167162D01*
X185348219Y138671924D01*
X185410123Y138548115D01*
X185472028Y138486210D01*
X185595838Y138424305D01*
X185843457Y138424305D01*
X185967266Y138486210D01*
X186029171Y138548115D01*
X186091076Y138671924D01*
X186091076Y138981448D01*
X186029171Y139105258D01*
X185967266Y139167162D01*
X185843457Y139229067D01*
X185595838Y139229067D01*
X185472028Y139167162D01*
X185410123Y139105258D01*
X185348219Y138981448D01*
D10*
D11*
X-39974400Y-47994800D02*
X-39974400Y-49994800D01*
D10*
D11*
X10025600Y-47994800D02*
X10025600Y-49994800D01*
D10*
D11*
X60025600Y-47994800D02*
X60025600Y-49994800D01*
D10*
D11*
X110025600Y-47994800D02*
X110025600Y-49994800D01*
D10*
D11*
X160025600Y-47994800D02*
X160025600Y-49994800D01*
D10*
D11*
X-63908924Y-49582895D02*
X-64651781Y-49582895D01*
X-64280353Y-49582895D02*
X-64280353Y-48282895D01*
X-64404162Y-48468609D01*
X-64527972Y-48592419D01*
X-64651781Y-48654323D01*
D10*
D11*
X-14651781Y-48406704D02*
X-14589877Y-48344800D01*
X-14466067Y-48282895D01*
X-14156543Y-48282895D01*
X-14032734Y-48344800D01*
X-13970829Y-48406704D01*
X-13908924Y-48530514D01*
X-13908924Y-48654323D01*
X-13970829Y-48840038D01*
X-14713686Y-49582895D01*
X-13908924Y-49582895D01*
D10*
D11*
X35286314Y-48282895D02*
X36091076Y-48282895D01*
X35657742Y-48778133D01*
X35843457Y-48778133D01*
X35967266Y-48840038D01*
X36029171Y-48901942D01*
X36091076Y-49025752D01*
X36091076Y-49335276D01*
X36029171Y-49459085D01*
X35967266Y-49520990D01*
X35843457Y-49582895D01*
X35472028Y-49582895D01*
X35348219Y-49520990D01*
X35286314Y-49459085D01*
D10*
D11*
X85967266Y-48716228D02*
X85967266Y-49582895D01*
X85657742Y-48220990D02*
X85348219Y-49149561D01*
X86152980Y-49149561D01*
D10*
D11*
X136029171Y-48282895D02*
X135410123Y-48282895D01*
X135348219Y-48901942D01*
X135410123Y-48840038D01*
X135533933Y-48778133D01*
X135843457Y-48778133D01*
X135967266Y-48840038D01*
X136029171Y-48901942D01*
X136091076Y-49025752D01*
X136091076Y-49335276D01*
X136029171Y-49459085D01*
X135967266Y-49520990D01*
X135843457Y-49582895D01*
X135533933Y-49582895D01*
X135410123Y-49520990D01*
X135348219Y-49459085D01*
D10*
D11*
X185967266Y-48282895D02*
X185719647Y-48282895D01*
X185595838Y-48344800D01*
X185533933Y-48406704D01*
X185410123Y-48592419D01*
X185348219Y-48840038D01*
X185348219Y-49335276D01*
X185410123Y-49459085D01*
X185472028Y-49520990D01*
X185595838Y-49582895D01*
X185843457Y-49582895D01*
X185967266Y-49520990D01*
X186029171Y-49459085D01*
X186091076Y-49335276D01*
X186091076Y-49025752D01*
X186029171Y-48901942D01*
X185967266Y-48840038D01*
X185843457Y-48778133D01*
X185595838Y-48778133D01*
X185472028Y-48840038D01*
X185410123Y-48901942D01*
X185348219Y-49025752D01*
D10*
D11*
X-89974400Y90012400D02*
X-87974400Y90012400D01*
D10*
D11*
X-89974400Y40012400D02*
X-87974400Y40012400D01*
D10*
D11*
X-89974400Y-9987600D02*
X-87974400Y-9987600D01*
D10*
D11*
X-89283924Y114795734D02*
X-88664877Y114795734D01*
X-89407734Y114424305D02*
X-88974400Y115724305D01*
X-88541067Y114424305D01*
D10*
D11*
X-88881543Y65105258D02*
X-88695829Y65043353D01*
X-88633924Y64981448D01*
X-88572020Y64857639D01*
X-88572020Y64671924D01*
X-88633924Y64548115D01*
X-88695829Y64486210D01*
X-88819639Y64424305D01*
X-89314877Y64424305D01*
X-89314877Y65724305D01*
X-88881543Y65724305D01*
X-88757734Y65662400D01*
X-88695829Y65600496D01*
X-88633924Y65476686D01*
X-88633924Y65352877D01*
X-88695829Y65229067D01*
X-88757734Y65167162D01*
X-88881543Y65105258D01*
X-89314877Y65105258D01*
D10*
D11*
X-88572020Y14548115D02*
X-88633924Y14486210D01*
X-88819639Y14424305D01*
X-88943448Y14424305D01*
X-89129162Y14486210D01*
X-89252972Y14610020D01*
X-89314877Y14733829D01*
X-89376781Y14981448D01*
X-89376781Y15167162D01*
X-89314877Y15414781D01*
X-89252972Y15538591D01*
X-89129162Y15662400D01*
X-88943448Y15724305D01*
X-88819639Y15724305D01*
X-88633924Y15662400D01*
X-88572020Y15600496D01*
D10*
D11*
X-89314877Y-35575695D02*
X-89314877Y-34275695D01*
X-89005353Y-34275695D01*
X-88819639Y-34337600D01*
X-88695829Y-34461409D01*
X-88633924Y-34585219D01*
X-88572020Y-34832838D01*
X-88572020Y-35018552D01*
X-88633924Y-35266171D01*
X-88695829Y-35389980D01*
X-88819639Y-35513790D01*
X-89005353Y-35575695D01*
X-89314877Y-35575695D01*
D10*
D11*
X187027800Y90012400D02*
X185027800Y90012400D01*
D10*
D11*
X187027800Y40012400D02*
X185027800Y40012400D01*
D10*
D11*
X187027800Y-9987600D02*
X185027800Y-9987600D01*
D10*
D11*
X185718276Y114795734D02*
X186337323Y114795734D01*
X185594466Y114424305D02*
X186027800Y115724305D01*
X186461133Y114424305D01*
D10*
D11*
X186120657Y65105258D02*
X186306371Y65043353D01*
X186368276Y64981448D01*
X186430180Y64857639D01*
X186430180Y64671924D01*
X186368276Y64548115D01*
X186306371Y64486210D01*
X186182561Y64424305D01*
X185687323Y64424305D01*
X185687323Y65724305D01*
X186120657Y65724305D01*
X186244466Y65662400D01*
X186306371Y65600496D01*
X186368276Y65476686D01*
X186368276Y65352877D01*
X186306371Y65229067D01*
X186244466Y65167162D01*
X186120657Y65105258D01*
X185687323Y65105258D01*
D10*
D11*
X186430180Y14548115D02*
X186368276Y14486210D01*
X186182561Y14424305D01*
X186058752Y14424305D01*
X185873038Y14486210D01*
X185749228Y14610020D01*
X185687323Y14733829D01*
X185625419Y14981448D01*
X185625419Y15167162D01*
X185687323Y15414781D01*
X185749228Y15538591D01*
X185873038Y15662400D01*
X186058752Y15724305D01*
X186182561Y15724305D01*
X186368276Y15662400D01*
X186430180Y15600496D01*
D10*
D11*
X185687323Y-35575695D02*
X185687323Y-34275695D01*
X185996847Y-34275695D01*
X186182561Y-34337600D01*
X186306371Y-34461409D01*
X186368276Y-34585219D01*
X186430180Y-34832838D01*
X186430180Y-35018552D01*
X186368276Y-35266171D01*
X186306371Y-35389980D01*
X186182561Y-35513790D01*
X185996847Y-35575695D01*
X185687323Y-35575695D01*
D10*
D11*
X100459942Y-43773371D02*
X100459942Y-42273371D01*
X100817085Y-42273371D01*
X101031371Y-42344800D01*
X101174228Y-42487657D01*
X101245657Y-42630514D01*
X101317085Y-42916228D01*
X101317085Y-43130514D01*
X101245657Y-43416228D01*
X101174228Y-43559085D01*
X101031371Y-43701942D01*
X100817085Y-43773371D01*
X100459942Y-43773371D01*
X102602800Y-43773371D02*
X102602800Y-42987657D01*
X102531371Y-42844800D01*
X102388514Y-42773371D01*
X102102800Y-42773371D01*
X101959942Y-42844800D01*
X102602800Y-43701942D02*
X102459942Y-43773371D01*
X102102800Y-43773371D01*
X101959942Y-43701942D01*
X101888514Y-43559085D01*
X101888514Y-43416228D01*
X101959942Y-43273371D01*
X102102800Y-43201942D01*
X102459942Y-43201942D01*
X102602800Y-43130514D01*
X103102800Y-42773371D02*
X103674228Y-42773371D01*
X103317085Y-42273371D02*
X103317085Y-43559085D01*
X103388514Y-43701942D01*
X103531371Y-43773371D01*
X103674228Y-43773371D01*
X104745657Y-43701942D02*
X104602800Y-43773371D01*
X104317085Y-43773371D01*
X104174228Y-43701942D01*
X104102800Y-43559085D01*
X104102800Y-42987657D01*
X104174228Y-42844800D01*
X104317085Y-42773371D01*
X104602800Y-42773371D01*
X104745657Y-42844800D01*
X104817085Y-42987657D01*
X104817085Y-43130514D01*
X104102800Y-43273371D01*
X105459942Y-43630514D02*
X105531371Y-43701942D01*
X105459942Y-43773371D01*
X105388514Y-43701942D01*
X105459942Y-43630514D01*
X105459942Y-43773371D01*
X105459942Y-42844800D02*
X105531371Y-42916228D01*
X105459942Y-42987657D01*
X105388514Y-42916228D01*
X105459942Y-42844800D01*
X105459942Y-42987657D01*
D10*
D11*
X77027800Y-44494800D02*
X185027800Y-44494800D01*
D10*
D11*
X78459942Y-46573371D02*
X78459942Y-45073371D01*
X79317085Y-46573371D02*
X78674228Y-45716228D01*
X79317085Y-45073371D02*
X78459942Y-45930514D01*
X79959942Y-46573371D02*
X79959942Y-45573371D01*
X79959942Y-45073371D02*
X79888514Y-45144800D01*
X79959942Y-45216228D01*
X80031371Y-45144800D01*
X79959942Y-45073371D01*
X79959942Y-45216228D01*
X81531371Y-46430514D02*
X81459942Y-46501942D01*
X81245657Y-46573371D01*
X81102800Y-46573371D01*
X80888514Y-46501942D01*
X80745657Y-46359085D01*
X80674228Y-46216228D01*
X80602800Y-45930514D01*
X80602800Y-45716228D01*
X80674228Y-45430514D01*
X80745657Y-45287657D01*
X80888514Y-45144800D01*
X81102800Y-45073371D01*
X81245657Y-45073371D01*
X81459942Y-45144800D01*
X81531371Y-45216228D01*
X82817085Y-46573371D02*
X82817085Y-45787657D01*
X82745657Y-45644800D01*
X82602800Y-45573371D01*
X82317085Y-45573371D01*
X82174228Y-45644800D01*
X82817085Y-46501942D02*
X82674228Y-46573371D01*
X82317085Y-46573371D01*
X82174228Y-46501942D01*
X82102800Y-46359085D01*
X82102800Y-46216228D01*
X82174228Y-46073371D01*
X82317085Y-46001942D01*
X82674228Y-46001942D01*
X82817085Y-45930514D01*
X84174228Y-46573371D02*
X84174228Y-45073371D01*
X84174228Y-46501942D02*
X84031371Y-46573371D01*
X83745657Y-46573371D01*
X83602800Y-46501942D01*
X83531371Y-46430514D01*
X83459942Y-46287657D01*
X83459942Y-45859085D01*
X83531371Y-45716228D01*
X83602800Y-45644800D01*
X83745657Y-45573371D01*
X84031371Y-45573371D01*
X84174228Y-45644800D01*
X86031371Y-45787657D02*
X86531371Y-45787657D01*
X86745657Y-46573371D02*
X86031371Y-46573371D01*
X86031371Y-45073371D01*
X86745657Y-45073371D01*
X87388514Y-46430514D02*
X87459942Y-46501942D01*
X87388514Y-46573371D01*
X87317085Y-46501942D01*
X87388514Y-46430514D01*
X87388514Y-46573371D01*
X88102800Y-46573371D02*
X88102800Y-45073371D01*
X88459942Y-45073371D01*
X88674228Y-45144800D01*
X88817085Y-45287657D01*
X88888514Y-45430514D01*
X88959942Y-45716228D01*
X88959942Y-45930514D01*
X88888514Y-46216228D01*
X88817085Y-46359085D01*
X88674228Y-46501942D01*
X88459942Y-46573371D01*
X88102800Y-46573371D01*
X89602800Y-46430514D02*
X89674228Y-46501942D01*
X89602800Y-46573371D01*
X89531371Y-46501942D01*
X89602800Y-46430514D01*
X89602800Y-46573371D01*
X90245657Y-46144800D02*
X90959942Y-46144800D01*
X90102800Y-46573371D02*
X90602800Y-45073371D01*
X91102800Y-46573371D01*
X91602800Y-46430514D02*
X91674228Y-46501942D01*
X91602800Y-46573371D01*
X91531371Y-46501942D01*
X91602800Y-46430514D01*
X91602800Y-46573371D01*
X94602800Y-46573371D02*
X94602800Y-45073371D01*
X94745657Y-46001942D02*
X95174228Y-46573371D01*
X95174228Y-45573371D02*
X94602800Y-46144800D01*
X95817085Y-46573371D02*
X95817085Y-45573371D01*
X95817085Y-45073371D02*
X95745657Y-45144800D01*
X95817085Y-45216228D01*
X95888514Y-45144800D01*
X95817085Y-45073371D01*
X95817085Y-45216228D01*
X97174228Y-46501942D02*
X97031371Y-46573371D01*
X96745657Y-46573371D01*
X96602800Y-46501942D01*
X96531371Y-46430514D01*
X96459942Y-46287657D01*
X96459942Y-45859085D01*
X96531371Y-45716228D01*
X96602800Y-45644800D01*
X96745657Y-45573371D01*
X97031371Y-45573371D01*
X97174228Y-45644800D01*
X98459942Y-46573371D02*
X98459942Y-45787657D01*
X98388514Y-45644800D01*
X98245657Y-45573371D01*
X97959942Y-45573371D01*
X97817085Y-45644800D01*
X98459942Y-46501942D02*
X98317085Y-46573371D01*
X97959942Y-46573371D01*
X97817085Y-46501942D01*
X97745657Y-46359085D01*
X97745657Y-46216228D01*
X97817085Y-46073371D01*
X97959942Y-46001942D01*
X98317085Y-46001942D01*
X98459942Y-45930514D01*
X99817085Y-46573371D02*
X99817085Y-45073371D01*
X99817085Y-46501942D02*
X99674228Y-46573371D01*
X99388514Y-46573371D01*
X99245657Y-46501942D01*
X99174228Y-46430514D01*
X99102800Y-46287657D01*
X99102800Y-45859085D01*
X99174228Y-45716228D01*
X99245657Y-45644800D01*
X99388514Y-45573371D01*
X99674228Y-45573371D01*
X99817085Y-45644800D01*
X102102800Y-47144800D02*
X102031371Y-47073371D01*
X101888514Y-46859085D01*
X101817085Y-46716228D01*
X101745657Y-46501942D01*
X101674228Y-46144800D01*
X101674228Y-45859085D01*
X101745657Y-45501942D01*
X101817085Y-45287657D01*
X101888514Y-45144800D01*
X102031371Y-44930514D01*
X102102800Y-44859085D01*
X103388514Y-45073371D02*
X102674228Y-45073371D01*
X102602800Y-45787657D01*
X102674228Y-45716228D01*
X102817085Y-45644800D01*
X103174228Y-45644800D01*
X103317085Y-45716228D01*
X103388514Y-45787657D01*
X103459942Y-45930514D01*
X103459942Y-46287657D01*
X103388514Y-46430514D01*
X103317085Y-46501942D01*
X103174228Y-46573371D01*
X102817085Y-46573371D01*
X102674228Y-46501942D01*
X102602800Y-46430514D01*
X104102800Y-46430514D02*
X104174228Y-46501942D01*
X104102800Y-46573371D01*
X104031371Y-46501942D01*
X104102800Y-46430514D01*
X104102800Y-46573371D01*
X104888514Y-46573371D02*
X105174228Y-46573371D01*
X105317085Y-46501942D01*
X105388514Y-46430514D01*
X105531371Y-46216228D01*
X105602800Y-45930514D01*
X105602800Y-45359085D01*
X105531371Y-45216228D01*
X105459942Y-45144800D01*
X105317085Y-45073371D01*
X105031371Y-45073371D01*
X104888514Y-45144800D01*
X104817085Y-45216228D01*
X104745657Y-45359085D01*
X104745657Y-45716228D01*
X104817085Y-45859085D01*
X104888514Y-45930514D01*
X105031371Y-46001942D01*
X105317085Y-46001942D01*
X105459942Y-45930514D01*
X105531371Y-45859085D01*
X105602800Y-45716228D01*
X106317085Y-46573371D02*
X106602800Y-46573371D01*
X106745657Y-46501942D01*
X106817085Y-46430514D01*
X106959942Y-46216228D01*
X107031371Y-45930514D01*
X107031371Y-45359085D01*
X106959942Y-45216228D01*
X106888514Y-45144800D01*
X106745657Y-45073371D01*
X106459942Y-45073371D01*
X106317085Y-45144800D01*
X106245657Y-45216228D01*
X106174228Y-45359085D01*
X106174228Y-45716228D01*
X106245657Y-45859085D01*
X106317085Y-45930514D01*
X106459942Y-46001942D01*
X106745657Y-46001942D01*
X106888514Y-45930514D01*
X106959942Y-45859085D01*
X107031371Y-45716228D01*
X107674228Y-46430514D02*
X107745657Y-46501942D01*
X107674228Y-46573371D01*
X107602800Y-46501942D01*
X107674228Y-46430514D01*
X107674228Y-46573371D01*
X108674228Y-45073371D02*
X108817085Y-45073371D01*
X108959942Y-45144800D01*
X109031371Y-45216228D01*
X109102800Y-45359085D01*
X109174228Y-45644800D01*
X109174228Y-46001942D01*
X109102800Y-46287657D01*
X109031371Y-46430514D01*
X108959942Y-46501942D01*
X108817085Y-46573371D01*
X108674228Y-46573371D01*
X108531371Y-46501942D01*
X108459942Y-46430514D01*
X108388514Y-46287657D01*
X108317085Y-46001942D01*
X108317085Y-45644800D01*
X108388514Y-45359085D01*
X108459942Y-45216228D01*
X108531371Y-45144800D01*
X108674228Y-45073371D01*
X109817085Y-46001942D02*
X110959942Y-46001942D01*
X112459942Y-46573371D02*
X111602800Y-46573371D01*
X112031371Y-46573371D02*
X112031371Y-45073371D01*
X111888514Y-45287657D01*
X111745657Y-45430514D01*
X111602800Y-45501942D01*
X113388514Y-45073371D02*
X113531371Y-45073371D01*
X113674228Y-45144800D01*
X113745657Y-45216228D01*
X113817085Y-45359085D01*
X113888514Y-45644800D01*
X113888514Y-46001942D01*
X113817085Y-46287657D01*
X113745657Y-46430514D01*
X113674228Y-46501942D01*
X113531371Y-46573371D01*
X113388514Y-46573371D01*
X113245657Y-46501942D01*
X113174228Y-46430514D01*
X113102800Y-46287657D01*
X113031371Y-46001942D01*
X113031371Y-45644800D01*
X113102800Y-45359085D01*
X113174228Y-45216228D01*
X113245657Y-45144800D01*
X113388514Y-45073371D01*
X115174228Y-45573371D02*
X115174228Y-46573371D01*
X114817085Y-45001942D02*
X114459942Y-46073371D01*
X115388514Y-46073371D01*
X115817085Y-45073371D02*
X116745657Y-45073371D01*
X116245657Y-45644800D01*
X116459942Y-45644800D01*
X116602800Y-45716228D01*
X116674228Y-45787657D01*
X116745657Y-45930514D01*
X116745657Y-46287657D01*
X116674228Y-46430514D01*
X116602800Y-46501942D01*
X116459942Y-46573371D01*
X116031371Y-46573371D01*
X115888514Y-46501942D01*
X115817085Y-46430514D01*
X118031371Y-45073371D02*
X117745657Y-45073371D01*
X117602800Y-45144800D01*
X117531371Y-45216228D01*
X117388514Y-45430514D01*
X117317085Y-45716228D01*
X117317085Y-46287657D01*
X117388514Y-46430514D01*
X117459942Y-46501942D01*
X117602800Y-46573371D01*
X117888514Y-46573371D01*
X118031371Y-46501942D01*
X118102800Y-46430514D01*
X118174228Y-46287657D01*
X118174228Y-45930514D01*
X118102800Y-45787657D01*
X118031371Y-45716228D01*
X117888514Y-45644800D01*
X117602800Y-45644800D01*
X117459942Y-45716228D01*
X117388514Y-45787657D01*
X117317085Y-45930514D01*
X118817085Y-46001942D02*
X119959942Y-46001942D01*
X121317085Y-45573371D02*
X121317085Y-46787657D01*
X121245657Y-46930514D01*
X121174228Y-47001942D01*
X121031371Y-47073371D01*
X120817085Y-47073371D01*
X120674228Y-47001942D01*
X121317085Y-46501942D02*
X121174228Y-46573371D01*
X120888514Y-46573371D01*
X120745657Y-46501942D01*
X120674228Y-46430514D01*
X120602800Y-46287657D01*
X120602800Y-45859085D01*
X120674228Y-45716228D01*
X120745657Y-45644800D01*
X120888514Y-45573371D01*
X121174228Y-45573371D01*
X121317085Y-45644800D01*
X122674228Y-46573371D02*
X122674228Y-45787657D01*
X122602800Y-45644800D01*
X122459942Y-45573371D01*
X122174228Y-45573371D01*
X122031371Y-45644800D01*
X122674228Y-46501942D02*
X122531371Y-46573371D01*
X122174228Y-46573371D01*
X122031371Y-46501942D01*
X121959942Y-46359085D01*
X121959942Y-46216228D01*
X122031371Y-46073371D01*
X122174228Y-46001942D01*
X122531371Y-46001942D01*
X122674228Y-45930514D01*
X124031371Y-45573371D02*
X124031371Y-46573371D01*
X123674228Y-45001942D02*
X123317085Y-46073371D01*
X124245657Y-46073371D01*
X124674228Y-45073371D02*
X125602800Y-45073371D01*
X125102800Y-45644800D01*
X125317085Y-45644800D01*
X125459942Y-45716228D01*
X125531371Y-45787657D01*
X125602800Y-45930514D01*
X125602800Y-46287657D01*
X125531371Y-46430514D01*
X125459942Y-46501942D01*
X125317085Y-46573371D01*
X124888514Y-46573371D01*
X124745657Y-46501942D01*
X124674228Y-46430514D01*
X126102800Y-45073371D02*
X127031371Y-45073371D01*
X126531371Y-45644800D01*
X126745657Y-45644800D01*
X126888514Y-45716228D01*
X126959942Y-45787657D01*
X127031371Y-45930514D01*
X127031371Y-46287657D01*
X126959942Y-46430514D01*
X126888514Y-46501942D01*
X126745657Y-46573371D01*
X126317085Y-46573371D01*
X126174228Y-46501942D01*
X126102800Y-46430514D01*
X128317085Y-45573371D02*
X128317085Y-46573371D01*
X127959942Y-45001942D02*
X127602799Y-46073371D01*
X128531371Y-46073371D01*
X129817085Y-45073371D02*
X129102799Y-45073371D01*
X129031371Y-45787657D01*
X129102799Y-45716228D01*
X129245657Y-45644800D01*
X129602799Y-45644800D01*
X129745657Y-45716228D01*
X129817085Y-45787657D01*
X129888514Y-45930514D01*
X129888514Y-46287657D01*
X129817085Y-46430514D01*
X129745657Y-46501942D01*
X129602799Y-46573371D01*
X129245657Y-46573371D01*
X129102799Y-46501942D01*
X129031371Y-46430514D01*
X131317085Y-46573371D02*
X130459942Y-46573371D01*
X130888514Y-46573371D02*
X130888514Y-45073371D01*
X130745657Y-45287657D01*
X130602799Y-45430514D01*
X130459942Y-45501942D01*
X131959942Y-46573371D02*
X131959942Y-45073371D01*
X131959942Y-45644800D02*
X132102799Y-45573371D01*
X132388514Y-45573371D01*
X132531371Y-45644800D01*
X132602799Y-45716228D01*
X132674228Y-45859085D01*
X132674228Y-46287657D01*
X132602799Y-46430514D01*
X132531371Y-46501942D01*
X132388514Y-46573371D01*
X132102799Y-46573371D01*
X131959942Y-46501942D01*
X133959942Y-46573371D02*
X133959942Y-45073371D01*
X133959942Y-46501942D02*
X133817085Y-46573371D01*
X133531371Y-46573371D01*
X133388514Y-46501942D01*
X133317085Y-46430514D01*
X133245657Y-46287657D01*
X133245657Y-45859085D01*
X133317085Y-45716228D01*
X133388514Y-45644800D01*
X133531371Y-45573371D01*
X133817085Y-45573371D01*
X133959942Y-45644800D01*
X134888514Y-45716228D02*
X134745657Y-45644800D01*
X134674228Y-45573371D01*
X134602799Y-45430514D01*
X134602799Y-45359085D01*
X134674228Y-45216228D01*
X134745657Y-45144800D01*
X134888514Y-45073371D01*
X135174228Y-45073371D01*
X135317085Y-45144800D01*
X135388514Y-45216228D01*
X135459942Y-45359085D01*
X135459942Y-45430514D01*
X135388514Y-45573371D01*
X135317085Y-45644800D01*
X135174228Y-45716228D01*
X134888514Y-45716228D01*
X134745657Y-45787657D01*
X134674228Y-45859085D01*
X134602799Y-46001942D01*
X134602799Y-46287657D01*
X134674228Y-46430514D01*
X134745657Y-46501942D01*
X134888514Y-46573371D01*
X135174228Y-46573371D01*
X135317085Y-46501942D01*
X135388514Y-46430514D01*
X135459942Y-46287657D01*
X135459942Y-46001942D01*
X135388514Y-45859085D01*
X135317085Y-45787657D01*
X135174228Y-45716228D01*
X135959942Y-47144800D02*
X136031371Y-47073371D01*
X136174228Y-46859085D01*
X136245657Y-46716228D01*
X136317085Y-46501942D01*
X136388514Y-46144800D01*
X136388514Y-45859085D01*
X136317085Y-45501942D01*
X136245657Y-45287657D01*
X136174228Y-45144800D01*
X136031371Y-44930514D01*
X135959942Y-44859085D01*
D10*
D11*
X77027800Y-41494800D02*
X185027800Y-41494800D01*
D10*
D12*
X164437085Y-43773371D02*
X163937085Y-43059085D01*
X163579942Y-43773371D02*
X163579942Y-42273371D01*
X164151371Y-42273371D01*
X164294228Y-42344800D01*
X164365657Y-42416228D01*
X164437085Y-42559085D01*
X164437085Y-42773371D01*
X164365657Y-42916228D01*
X164294228Y-42987657D01*
X164151371Y-43059085D01*
X163579942Y-43059085D01*
X165651371Y-43701942D02*
X165508514Y-43773371D01*
X165222800Y-43773371D01*
X165079942Y-43701942D01*
X165008514Y-43559085D01*
X165008514Y-42987657D01*
X165079942Y-42844800D01*
X165222800Y-42773371D01*
X165508514Y-42773371D01*
X165651371Y-42844800D01*
X165722800Y-42987657D01*
X165722800Y-43130514D01*
X165008514Y-43273371D01*
X166222800Y-42773371D02*
X166579942Y-43773371D01*
X166937085Y-42773371D01*
X167508514Y-43630514D02*
X167579942Y-43701942D01*
X167508514Y-43773371D01*
X167437085Y-43701942D01*
X167508514Y-43630514D01*
X167508514Y-43773371D01*
X167508514Y-42844800D02*
X167579942Y-42916228D01*
X167508514Y-42987657D01*
X167437085Y-42916228D01*
X167508514Y-42844800D01*
X167508514Y-42987657D01*
D10*
D11*
X78388514Y-43701942D02*
X78602800Y-43773371D01*
X78959942Y-43773371D01*
X79102800Y-43701942D01*
X79174228Y-43630514D01*
X79245657Y-43487657D01*
X79245657Y-43344800D01*
X79174228Y-43201942D01*
X79102800Y-43130514D01*
X78959942Y-43059085D01*
X78674228Y-42987657D01*
X78531371Y-42916228D01*
X78459942Y-42844800D01*
X78388514Y-42701942D01*
X78388514Y-42559085D01*
X78459942Y-42416228D01*
X78531371Y-42344800D01*
X78674228Y-42273371D01*
X79031371Y-42273371D01*
X79245657Y-42344800D01*
X79888514Y-43773371D02*
X79888514Y-42773371D01*
X79888514Y-42273371D02*
X79817085Y-42344800D01*
X79888514Y-42416228D01*
X79959942Y-42344800D01*
X79888514Y-42273371D01*
X79888514Y-42416228D01*
X80459942Y-42773371D02*
X81245657Y-42773371D01*
X80459942Y-43773371D01*
X81245657Y-43773371D01*
X82388514Y-43701942D02*
X82245657Y-43773371D01*
X81959942Y-43773371D01*
X81817085Y-43701942D01*
X81745657Y-43559085D01*
X81745657Y-42987657D01*
X81817085Y-42844800D01*
X81959942Y-42773371D01*
X82245657Y-42773371D01*
X82388514Y-42844800D01*
X82459942Y-42987657D01*
X82459942Y-43130514D01*
X81745657Y-43273371D01*
X83102800Y-43630514D02*
X83174228Y-43701942D01*
X83102800Y-43773371D01*
X83031371Y-43701942D01*
X83102800Y-43630514D01*
X83102800Y-43773371D01*
X83102800Y-42844800D02*
X83174228Y-42916228D01*
X83102800Y-42987657D01*
X83031371Y-42916228D01*
X83102800Y-42844800D01*
X83102800Y-42987657D01*
X84888514Y-43344800D02*
X85602800Y-43344800D01*
X84745657Y-43773371D02*
X85245657Y-42273371D01*
X85745657Y-43773371D01*
X86888514Y-42773371D02*
X86888514Y-43773371D01*
X86531371Y-42201942D02*
X86174228Y-43273371D01*
X87102800Y-43273371D01*
D10*
D11*
X163459942Y-46573371D02*
X163459942Y-45073371D01*
X164817085Y-46573371D02*
X164817085Y-45073371D01*
X164817085Y-46501942D02*
X164674228Y-46573371D01*
X164388514Y-46573371D01*
X164245657Y-46501942D01*
X164174228Y-46430514D01*
X164102800Y-46287657D01*
X164102800Y-45859085D01*
X164174228Y-45716228D01*
X164245657Y-45644800D01*
X164388514Y-45573371D01*
X164674228Y-45573371D01*
X164817085Y-45644800D01*
X165531371Y-46430514D02*
X165602800Y-46501942D01*
X165531371Y-46573371D01*
X165459942Y-46501942D01*
X165531371Y-46430514D01*
X165531371Y-46573371D01*
X165531371Y-45644800D02*
X165602800Y-45716228D01*
X165531371Y-45787657D01*
X165459942Y-45716228D01*
X165531371Y-45644800D01*
X165531371Y-45787657D01*
X168174228Y-46573371D02*
X167317085Y-46573371D01*
X167745657Y-46573371D02*
X167745657Y-45073371D01*
X167602800Y-45287657D01*
X167459942Y-45430514D01*
X167317085Y-45501942D01*
X169888514Y-45001942D02*
X168602800Y-46930514D01*
X171174228Y-46573371D02*
X170317085Y-46573371D01*
X170745657Y-46573371D02*
X170745657Y-45073371D01*
X170602800Y-45287657D01*
X170459942Y-45430514D01*
X170317085Y-45501942D01*
D10*
D11*
X77027800Y-37494800D02*
X185027800Y-37494800D01*
D10*
D13*
X78740180Y-38199561D02*
X79883038Y-38199561D01*
X79061609Y-40199561D02*
X79311609Y-38199561D01*
X80299704Y-40199561D02*
X80466371Y-38866228D01*
X80549704Y-38199561D02*
X80442561Y-38294800D01*
X80525895Y-38390038D01*
X80633038Y-38294800D01*
X80549704Y-38199561D01*
X80525895Y-38390038D01*
X81133038Y-38866228D02*
X81894942Y-38866228D01*
X81502085Y-38199561D02*
X81287800Y-39913847D01*
X81359228Y-40104323D01*
X81537800Y-40199561D01*
X81728276Y-40199561D01*
X82680657Y-40199561D02*
X82502085Y-40104323D01*
X82430657Y-39913847D01*
X82644942Y-38199561D01*
X84216371Y-40104323D02*
X84013990Y-40199561D01*
X83633038Y-40199561D01*
X83454466Y-40104323D01*
X83383038Y-39913847D01*
X83478276Y-39151942D01*
X83597323Y-38961466D01*
X83799704Y-38866228D01*
X84180657Y-38866228D01*
X84359228Y-38961466D01*
X84430657Y-39151942D01*
X84406847Y-39342419D01*
X83430657Y-39532895D01*
X85180657Y-40009085D02*
X85263990Y-40104323D01*
X85156847Y-40199561D01*
X85073514Y-40104323D01*
X85180657Y-40009085D01*
X85156847Y-40199561D01*
X85311609Y-38961466D02*
X85394942Y-39056704D01*
X85287800Y-39151942D01*
X85204466Y-39056704D01*
X85311609Y-38961466D01*
X85287800Y-39151942D01*
D10*
D11*
X78959942Y-35587657D02*
X78459942Y-35587657D01*
X78459942Y-36373371D02*
X78459942Y-34873371D01*
X79174228Y-34873371D01*
X79745657Y-36373371D02*
X79745657Y-35373371D01*
X79745657Y-34873371D02*
X79674228Y-34944800D01*
X79745657Y-35016228D01*
X79817085Y-34944800D01*
X79745657Y-34873371D01*
X79745657Y-35016228D01*
X80674228Y-36373371D02*
X80531371Y-36301942D01*
X80459942Y-36159085D01*
X80459942Y-34873371D01*
X81817085Y-36301942D02*
X81674228Y-36373371D01*
X81388514Y-36373371D01*
X81245657Y-36301942D01*
X81174228Y-36159085D01*
X81174228Y-35587657D01*
X81245657Y-35444800D01*
X81388514Y-35373371D01*
X81674228Y-35373371D01*
X81817085Y-35444800D01*
X81888514Y-35587657D01*
X81888514Y-35730514D01*
X81174228Y-35873371D01*
X82531371Y-36230514D02*
X82602800Y-36301942D01*
X82531371Y-36373371D01*
X82459942Y-36301942D01*
X82531371Y-36230514D01*
X82531371Y-36373371D01*
X82531371Y-35444800D02*
X82602800Y-35516228D01*
X82531371Y-35587657D01*
X82459942Y-35516228D01*
X82531371Y-35444800D01*
X82531371Y-35587657D01*
X84388514Y-36373371D02*
X84388514Y-34873371D01*
X84888514Y-35944800D01*
X85388514Y-34873371D01*
X85388514Y-36373371D01*
X86102800Y-36373371D02*
X86102800Y-35373371D01*
X86102800Y-34873371D02*
X86031371Y-34944800D01*
X86102800Y-35016228D01*
X86174228Y-34944800D01*
X86102800Y-34873371D01*
X86102800Y-35016228D01*
X87459942Y-35373371D02*
X87459942Y-36587657D01*
X87388514Y-36730514D01*
X87317085Y-36801942D01*
X87174228Y-36873371D01*
X86959942Y-36873371D01*
X86817085Y-36801942D01*
X87459942Y-36301942D02*
X87317085Y-36373371D01*
X87031371Y-36373371D01*
X86888514Y-36301942D01*
X86817085Y-36230514D01*
X86745657Y-36087657D01*
X86745657Y-35659085D01*
X86817085Y-35516228D01*
X86888514Y-35444800D01*
X87031371Y-35373371D01*
X87317085Y-35373371D01*
X87459942Y-35444800D01*
X88174228Y-36373371D02*
X88174228Y-34873371D01*
X88817085Y-36373371D02*
X88817085Y-35587657D01*
X88745657Y-35444800D01*
X88602800Y-35373371D01*
X88388514Y-35373371D01*
X88245657Y-35444800D01*
X88174228Y-35516228D01*
X89317085Y-35373371D02*
X89888514Y-35373371D01*
X89531371Y-34873371D02*
X89531371Y-36159085D01*
X89602800Y-36301942D01*
X89745657Y-36373371D01*
X89888514Y-36373371D01*
X90245657Y-35373371D02*
X90602800Y-36373371D01*
X90959942Y-35373371D02*
X90602800Y-36373371D01*
X90459942Y-36730514D01*
X90388514Y-36801942D01*
X90245657Y-36873371D01*
X91531371Y-36373371D02*
X91531371Y-34873371D01*
X92102800Y-34873371D01*
X92245657Y-34944800D01*
X92317085Y-35016228D01*
X92388514Y-35159085D01*
X92388514Y-35373371D01*
X92317085Y-35516228D01*
X92245657Y-35587657D01*
X92102800Y-35659085D01*
X91531371Y-35659085D01*
X93031371Y-36373371D02*
X93031371Y-35373371D01*
X93031371Y-34873371D02*
X92959942Y-34944800D01*
X93031371Y-35016228D01*
X93102800Y-34944800D01*
X93031371Y-34873371D01*
X93031371Y-35016228D01*
X93602800Y-36373371D02*
X94388514Y-35373371D01*
X93602800Y-35373371D02*
X94388514Y-36373371D01*
X95817085Y-36373371D02*
X95317085Y-35659085D01*
X94959942Y-36373371D02*
X94959942Y-34873371D01*
X95531371Y-34873371D01*
X95674228Y-34944800D01*
X95745657Y-35016228D01*
X95817085Y-35159085D01*
X95817085Y-35373371D01*
X95745657Y-35516228D01*
X95674228Y-35587657D01*
X95531371Y-35659085D01*
X94959942Y-35659085D01*
X97102800Y-35373371D02*
X97102800Y-36373371D01*
X96459942Y-35373371D02*
X96459942Y-36159085D01*
X96531371Y-36301942D01*
X96674228Y-36373371D01*
X96888514Y-36373371D01*
X97031371Y-36301942D01*
X97102800Y-36230514D01*
X97817085Y-35373371D02*
X97817085Y-36373371D01*
X97817085Y-35516228D02*
X97888514Y-35444800D01*
X98031371Y-35373371D01*
X98245657Y-35373371D01*
X98388514Y-35444800D01*
X98459942Y-35587657D01*
X98459942Y-36373371D01*
X99102800Y-35016228D02*
X99174228Y-34944800D01*
X99317085Y-34873371D01*
X99674228Y-34873371D01*
X99817085Y-34944800D01*
X99888514Y-35016228D01*
X99959942Y-35159085D01*
X99959942Y-35301942D01*
X99888514Y-35516228D01*
X99031371Y-36373371D01*
X99959942Y-36373371D01*
X100888514Y-34873371D02*
X101031371Y-34873371D01*
X101174228Y-34944800D01*
X101245657Y-35016228D01*
X101317085Y-35159085D01*
X101388514Y-35444800D01*
X101388514Y-35801942D01*
X101317085Y-36087657D01*
X101245657Y-36230514D01*
X101174228Y-36301942D01*
X101031371Y-36373371D01*
X100888514Y-36373371D01*
X100745657Y-36301942D01*
X100674228Y-36230514D01*
X100602800Y-36087657D01*
X100531371Y-35801942D01*
X100531371Y-35444800D01*
X100602800Y-35159085D01*
X100674228Y-35016228D01*
X100745657Y-34944800D01*
X100888514Y-34873371D01*
X101959942Y-35016228D02*
X102031371Y-34944800D01*
X102174228Y-34873371D01*
X102531371Y-34873371D01*
X102674228Y-34944800D01*
X102745657Y-35016228D01*
X102817085Y-35159085D01*
X102817085Y-35301942D01*
X102745657Y-35516228D01*
X101888514Y-36373371D01*
X102817085Y-36373371D01*
X103745657Y-34873371D02*
X103888514Y-34873371D01*
X104031371Y-34944800D01*
X104102800Y-35016228D01*
X104174228Y-35159085D01*
X104245657Y-35444800D01*
X104245657Y-35801942D01*
X104174228Y-36087657D01*
X104102800Y-36230514D01*
X104031371Y-36301942D01*
X103888514Y-36373371D01*
X103745657Y-36373371D01*
X103602800Y-36301942D01*
X103531371Y-36230514D01*
X103459942Y-36087657D01*
X103388514Y-35801942D01*
X103388514Y-35444800D01*
X103459942Y-35159085D01*
X103531371Y-35016228D01*
X103602800Y-34944800D01*
X103745657Y-34873371D01*
X104531371Y-36516228D02*
X105674228Y-36516228D01*
X106031371Y-36373371D02*
X106031371Y-34873371D01*
X106602800Y-34873371D01*
X106745657Y-34944800D01*
X106817085Y-35016228D01*
X106888514Y-35159085D01*
X106888514Y-35373371D01*
X106817085Y-35516228D01*
X106745657Y-35587657D01*
X106602800Y-35659085D01*
X106031371Y-35659085D01*
X108388514Y-36230514D02*
X108317085Y-36301942D01*
X108102800Y-36373371D01*
X107959942Y-36373371D01*
X107745657Y-36301942D01*
X107602800Y-36159085D01*
X107531371Y-36016228D01*
X107459942Y-35730514D01*
X107459942Y-35516228D01*
X107531371Y-35230514D01*
X107602800Y-35087657D01*
X107745657Y-34944800D01*
X107959942Y-34873371D01*
X108102800Y-34873371D01*
X108317085Y-34944800D01*
X108388514Y-35016228D01*
X109531371Y-35587657D02*
X109745657Y-35659085D01*
X109817085Y-35730514D01*
X109888514Y-35873371D01*
X109888514Y-36087657D01*
X109817085Y-36230514D01*
X109745657Y-36301942D01*
X109602800Y-36373371D01*
X109031371Y-36373371D01*
X109031371Y-34873371D01*
X109531371Y-34873371D01*
X109674228Y-34944800D01*
X109745657Y-35016228D01*
X109817085Y-35159085D01*
X109817085Y-35301942D01*
X109745657Y-35444800D01*
X109674228Y-35516228D01*
X109531371Y-35587657D01*
X109031371Y-35587657D01*
X110531371Y-36230514D02*
X110602800Y-36301942D01*
X110531371Y-36373371D01*
X110459942Y-36301942D01*
X110531371Y-36230514D01*
X110531371Y-36373371D01*
X111245657Y-36373371D02*
X111245657Y-34873371D01*
X111388514Y-35801942D02*
X111817085Y-36373371D01*
X111817085Y-35373371D02*
X111245657Y-35944800D01*
X112459942Y-36373371D02*
X112459942Y-35373371D01*
X112459942Y-34873371D02*
X112388514Y-34944800D01*
X112459942Y-35016228D01*
X112531371Y-34944800D01*
X112459942Y-34873371D01*
X112459942Y-35016228D01*
X113817085Y-36301942D02*
X113674228Y-36373371D01*
X113388514Y-36373371D01*
X113245657Y-36301942D01*
X113174228Y-36230514D01*
X113102800Y-36087657D01*
X113102800Y-35659085D01*
X113174228Y-35516228D01*
X113245657Y-35444800D01*
X113388514Y-35373371D01*
X113674228Y-35373371D01*
X113817085Y-35444800D01*
X115102800Y-36373371D02*
X115102800Y-35587657D01*
X115031371Y-35444800D01*
X114888514Y-35373371D01*
X114602800Y-35373371D01*
X114459942Y-35444800D01*
X115102800Y-36301942D02*
X114959942Y-36373371D01*
X114602800Y-36373371D01*
X114459942Y-36301942D01*
X114388514Y-36159085D01*
X114388514Y-36016228D01*
X114459942Y-35873371D01*
X114602800Y-35801942D01*
X114959942Y-35801942D01*
X115102800Y-35730514D01*
X116459942Y-36373371D02*
X116459942Y-34873371D01*
X116459942Y-36301942D02*
X116317085Y-36373371D01*
X116031371Y-36373371D01*
X115888514Y-36301942D01*
X115817085Y-36230514D01*
X115745657Y-36087657D01*
X115745657Y-35659085D01*
X115817085Y-35516228D01*
X115888514Y-35444800D01*
X116031371Y-35373371D01*
X116317085Y-35373371D01*
X116459942Y-35444800D01*
X116817085Y-36516228D02*
X117959942Y-36516228D01*
X118317085Y-35373371D02*
X118317085Y-36873371D01*
X118317085Y-35444800D02*
X118459942Y-35373371D01*
X118745657Y-35373371D01*
X118888514Y-35444800D01*
X118959942Y-35516228D01*
X119031371Y-35659085D01*
X119031371Y-36087657D01*
X118959942Y-36230514D01*
X118888514Y-36301942D01*
X118745657Y-36373371D01*
X118459942Y-36373371D01*
X118317085Y-36301942D01*
X120317085Y-36301942D02*
X120174228Y-36373371D01*
X119888514Y-36373371D01*
X119745657Y-36301942D01*
X119674228Y-36230514D01*
X119602800Y-36087657D01*
X119602800Y-35659085D01*
X119674228Y-35516228D01*
X119745657Y-35444800D01*
X119888514Y-35373371D01*
X120174228Y-35373371D01*
X120317085Y-35444800D01*
X120959942Y-36373371D02*
X120959942Y-34873371D01*
X120959942Y-35444800D02*
X121102800Y-35373371D01*
X121388514Y-35373371D01*
X121531371Y-35444800D01*
X121602800Y-35516228D01*
X121674228Y-35659085D01*
X121674228Y-36087657D01*
X121602800Y-36230514D01*
X121531371Y-36301942D01*
X121388514Y-36373371D01*
X121102800Y-36373371D01*
X120959942Y-36301942D01*
D10*
D11*
X77027800Y-31494800D02*
X185027800Y-31494800D01*
D10*
D11*
X78388514Y-33601942D02*
X78602800Y-33673371D01*
X78959942Y-33673371D01*
X79102800Y-33601942D01*
X79174228Y-33530514D01*
X79245657Y-33387657D01*
X79245657Y-33244800D01*
X79174228Y-33101942D01*
X79102800Y-33030514D01*
X78959942Y-32959085D01*
X78674228Y-32887657D01*
X78531371Y-32816228D01*
X78459942Y-32744800D01*
X78388514Y-32601942D01*
X78388514Y-32459085D01*
X78459942Y-32316228D01*
X78531371Y-32244800D01*
X78674228Y-32173371D01*
X79031371Y-32173371D01*
X79245657Y-32244800D01*
X79888514Y-33673371D02*
X79888514Y-32173371D01*
X80531371Y-33673371D02*
X80531371Y-32887657D01*
X80459942Y-32744800D01*
X80317085Y-32673371D01*
X80102800Y-32673371D01*
X79959942Y-32744800D01*
X79888514Y-32816228D01*
X81817085Y-33601942D02*
X81674228Y-33673371D01*
X81388514Y-33673371D01*
X81245657Y-33601942D01*
X81174228Y-33459085D01*
X81174228Y-32887657D01*
X81245657Y-32744800D01*
X81388514Y-32673371D01*
X81674228Y-32673371D01*
X81817085Y-32744800D01*
X81888514Y-32887657D01*
X81888514Y-33030514D01*
X81174228Y-33173371D01*
X83102800Y-33601942D02*
X82959942Y-33673371D01*
X82674228Y-33673371D01*
X82531371Y-33601942D01*
X82459942Y-33459085D01*
X82459942Y-32887657D01*
X82531371Y-32744800D01*
X82674228Y-32673371D01*
X82959942Y-32673371D01*
X83102800Y-32744800D01*
X83174228Y-32887657D01*
X83174228Y-33030514D01*
X82459942Y-33173371D01*
X83602800Y-32673371D02*
X84174228Y-32673371D01*
X83817085Y-32173371D02*
X83817085Y-33459085D01*
X83888514Y-33601942D01*
X84031371Y-33673371D01*
X84174228Y-33673371D01*
X84674228Y-33530514D02*
X84745657Y-33601942D01*
X84674228Y-33673371D01*
X84602800Y-33601942D01*
X84674228Y-33530514D01*
X84674228Y-33673371D01*
X84674228Y-32744800D02*
X84745657Y-32816228D01*
X84674228Y-32887657D01*
X84602800Y-32816228D01*
X84674228Y-32744800D01*
X84674228Y-32887657D01*
D10*
D12*
D10*
D11*
D10*
D11*
D10*
D11*
D10*
D11*
D10*
D11*
X97027800Y-41494800D02*
X97027800Y-44494800D01*
D10*
D11*
X161027800Y-41494800D02*
X161027800Y-47994800D01*
D14*
X25600Y12400D02*
X100025600Y12400D01*
X100025600Y12400D02*
X100025600Y100012400D01*
X100025600Y100012400D02*
X25600Y100012400D01*
X25600Y100012400D02*
X25600Y12400D01*
X16692266Y95012400D02*
G75*
G03*
X16692266Y95012400I-1666666J0D01*
G01*
X12525600Y95012400D02*
X17525600Y95012400D01*
X15025600Y97512400D02*
X15025600Y92512400D01*
X58692266Y57002400D02*
G75*
G03*
X58692266Y57002400I-1666666J0D01*
G01*
X54525600Y57002400D02*
X59525600Y57002400D01*
X57025600Y59502400D02*
X57025600Y54502400D01*
X44692266Y57012400D02*
G75*
G03*
X44692266Y57012400I-1666666J0D01*
G01*
X40525600Y57012400D02*
X45525600Y57012400D01*
X43025600Y59512400D02*
X43025600Y54512400D01*
X57692266Y44022400D02*
G75*
G03*
X57692266Y44022400I-666666J0D01*
G01*
X56025600Y44022400D02*
X58025600Y44022400D01*
X57025600Y45022400D02*
X57025600Y43022400D01*
X44025600Y44002400D02*
G75*
G03*
X44025600Y44002400I-1000000J0D01*
G01*
X41525600Y44002400D02*
X44525600Y44002400D01*
X43025600Y45502400D02*
X43025600Y42502400D01*
X1692266Y12400D02*
G75*
G03*
X1692266Y12400I-1666666J0D01*
G01*
X-2474400Y12400D02*
X2525600Y12400D01*
X25600Y2512400D02*
X25600Y-2487600D01*
X6692266Y25012400D02*
G75*
G03*
X6692266Y25012400I-1666666J0D01*
G01*
X2525600Y25012400D02*
X7525600Y25012400D01*
X5025600Y27512400D02*
X5025600Y22512400D01*
X88692266Y95012400D02*
G75*
G03*
X88692266Y95012400I-1666666J0D01*
G01*
X84525600Y95012400D02*
X89525600Y95012400D01*
X87025600Y97512400D02*
X87025600Y92512400D01*
M02*
