(footprint "C_1206_3216Metric_Pad1.33x1.80mm_HandSolder" (version 20210126) (generator pcbnew) (layer "F.Cu")
  (tedit 5F68FEEF)
  (descr "Capacitor SMD 1206 (3216 Metric), square (rectangular) end terminal, IPC_7351 nominal with elongated pad for handsoldering. (Body size source: IPC-SM-782 page 76, https://www.pcb-3d.com/wordpress/wp-content/uploads/ipc-sm-782a_amendment_1_and_2.pdf), generated with kicad-footprint-generator")
  (tags "capacitor handsolder")
  (property "Sheetfile" "Analog_connections.kicad_sch")
  (property "Sheetname" "Analog_connections")
  (attr smd)
  (fp_text reference "REF**" (at 0 -1.85) (layer "F.SilkS")
    (effects (font (size 1 1) (thickness 0.15)))
    (tstamp b6b4da15-bbbc-4ae8-bba8-e633e879117d)
  )
  (fp_text value "10nF(HV)" (at 0 1.85) (layer "F.Fab")
    (effects (font (size 1 1) (thickness 0.15)))
    (tstamp c2710bc6-295e-4c90-9663-086f7c817de0)
  )
  (fp_text user "${REFERENCE}" (at 0 0) (layer "F.Fab")
    (effects (font (size 0.8 0.8) (thickness 0.12)))
    (tstamp fba7a7d7-df63-4fd9-b129-2477291fc810)
  )
  (fp_line (start -0.711252 0.91) (end 0.711252 0.91) (layer "F.SilkS") (width 0.12) (tstamp 2c4fa6cf-e09b-4ebd-8024-4944fec0f1e1))
  (fp_line (start -0.711252 -0.91) (end 0.711252 -0.91) (layer "F.SilkS") (width 0.12) (tstamp b550da53-ebc4-464f-8f15-e75a3fe334bf))
  (fp_line (start -2.48 -1.15) (end 2.48 -1.15) (layer "F.CrtYd") (width 0.05) (tstamp 2a85fa76-cc36-4486-a4e5-455cb1f64508))
  (fp_line (start 2.48 -1.15) (end 2.48 1.15) (layer "F.CrtYd") (width 0.05) (tstamp 3c4b7abe-6119-4d9b-ab34-a9035d9618be))
  (fp_line (start -2.48 1.15) (end -2.48 -1.15) (layer "F.CrtYd") (width 0.05) (tstamp 84ff723c-f743-4f98-8b97-f0e6b97a7d98))
  (fp_line (start 2.48 1.15) (end -2.48 1.15) (layer "F.CrtYd") (width 0.05) (tstamp a6fe492f-273f-441a-8c82-598a79975553))
  (fp_line (start 1.6 -0.8) (end 1.6 0.8) (layer "F.Fab") (width 0.1) (tstamp 4b00f790-b8f2-4204-936c-f0e2c8abc348))
  (fp_line (start -1.6 -0.8) (end 1.6 -0.8) (layer "F.Fab") (width 0.1) (tstamp 887a02d8-a472-4610-9fd4-41da7a22a587))
  (fp_line (start 1.6 0.8) (end -1.6 0.8) (layer "F.Fab") (width 0.1) (tstamp b3ff51df-a055-4d27-ad93-b9603341cab1))
  (fp_line (start -1.6 0.8) (end -1.6 -0.8) (layer "F.Fab") (width 0.1) (tstamp bb9fca8d-0682-4b54-99c3-dfc27ac33610))
  (pad "1" smd roundrect (at -1.5625 0 180) (locked) (size 1.325 1.8) (layers "F.Cu" "F.Paste" "F.Mask") (roundrect_rratio 0.188679) (tstamp 235f083d-93e7-4893-a9f8-a90ca404d2d7))
  (pad "2" smd roundrect (at 1.5625 0 180) (locked) (size 1.325 1.8) (layers "F.Cu" "F.Paste" "F.Mask") (roundrect_rratio 0.188679) (tstamp b61ebb21-b7f0-434a-a633-f6b6691e9489))
  (model "${KISYS3DMOD}/Capacitor_SMD.3dshapes/C_1206_3216Metric.wrl"
    (offset (xyz 0 0 0))
    (scale (xyz 1 1 1))
    (rotate (xyz 0 0 0))
  )
)
