(footprint "GPAC_connector" (version 20210126) (generator pcbnew) (layer "F.Cu")
  (tedit 5FFC4F87)
  (descr "8911-100-178L-F-2")
  (tags "Connector")
  (property "Description" "KEL Corporation 8800 Series, 2.54mm Pitch 100 Way 2 Row Right Angle PCB Header, Through Hole, Solder Termination")
  (property "Height" "7")
  (property "Manufacturer_Name" "KEL CORPORATION")
  (property "Manufacturer_Part_Number" "8911-100-178L-F")
  (property "Mouser Part Number" "")
  (property "Mouser Price/Stock" "")
  (property "RS Part Number" "6377968")
  (property "RS Price/Stock" "http://uk.rs-online.com/web/p/products/6377968")
  (property "Sheetfile" "LF2_PCBcomponents.kicad_sch")
  (property "Sheetname" "LF2_PCBcomponents_sheet")
  (attr through_hole)
  (fp_text reference "REF**" (at -32.0528 -1.9538) (layer "F.SilkS")
    (effects (font (size 1.27 1.27) (thickness 0.254)))
    (tstamp 71d24b59-3e97-4987-8328-ee6243e9f828)
  )
  (fp_text value "8911-100-178L-F" (at -31.115 4.51) (layer "F.SilkS") hide
    (effects (font (size 1.27 1.27) (thickness 0.254)))
    (tstamp 24162b14-fb8f-49a1-989a-da26d7807c53)
  )
  (fp_text user "${REFERENCE}" (at -31.115 4.51) (layer "F.Fab")
    (effects (font (size 1.27 1.27) (thickness 0.254)))
    (tstamp c32cf2a0-cf4e-430b-aa84-15cdc9b6a081)
  )
  (fp_line (start -69.215 -0.99) (end 7 -0.99) (layer "F.SilkS") (width 0.1) (tstamp 10c4ee98-27bf-4496-afd6-0049c019693e))
  (fp_line (start -69.215 4.81) (end -69.215 -0.99) (layer "F.SilkS") (width 0.1) (tstamp 2d16e2f9-9b34-49c6-a7b8-3a2df988d4ab))
  (fp_line (start 0 -1.7) (end 0 -1.7) (layer "F.SilkS") (width 0.2) (tstamp 3669b071-ab04-4255-93cb-74cc81effb8b))
  (fp_line (start 7 -0.99) (end 7 4.81) (layer "F.SilkS") (width 0.1) (tstamp 62f8a594-8c68-4184-ab0a-5bc525ca4b44))
  (fp_line (start 7 4.81) (end -69.215 4.81) (layer "F.SilkS") (width 0.1) (tstamp 94f32f5c-e36d-4be3-a847-df7a4ee171f1))
  (fp_line (start 0 -1.5) (end 0 -1.5) (layer "F.SilkS") (width 0.2) (tstamp 95191738-1566-4d17-b819-c6c5181450c1))
  (fp_arc (start 0 -1.6) (end 0 -1.5) (angle -180) (layer "F.SilkS") (width 0.2) (tstamp 6e3035eb-d63d-4d05-a769-7cc691476f3b))
  (fp_arc (start 0 -1.6) (end 0 -1.7) (angle -180) (layer "F.SilkS") (width 0.2) (tstamp 83ff070b-32ff-4468-8408-30b0ff869866))
  (fp_line (start -70.23 -1.99) (end 8 -1.99) (layer "F.CrtYd") (width 0.1) (tstamp 9bdee9d7-75b0-4e98-b895-6c6430021036))
  (fp_line (start -70.23 11.01) (end -70.23 -1.99) (layer "F.CrtYd") (width 0.1) (tstamp a5d6f5ca-0e2f-4f57-8951-d5e237a62a55))
  (fp_line (start 8 11.01) (end -70.23 11.01) (layer "F.CrtYd") (width 0.1) (tstamp cf53dd93-c7d8-4cb8-afda-37658d4c696f))
  (fp_line (start 8 -1.99) (end 8 11.01) (layer "F.CrtYd") (width 0.1) (tstamp d88ebafd-f64e-43fd-8681-48ee2164018c))
  (fp_line (start -69.23 -0.99) (end 7 -0.99) (layer "F.Fab") (width 0.2) (tstamp 2b615a44-4f1d-4c97-9c85-f9cd0548cd94))
  (fp_line (start -65.23 10.01) (end -65.23 4.81) (layer "F.Fab") (width 0.2) (tstamp 2c28c659-49b7-451d-9a49-98757d3da46e))
  (fp_line (start -69.23 4.81) (end -69.23 -0.99) (layer "F.Fab") (width 0.2) (tstamp 2d095d4a-1974-4988-bdd0-851d173684ff))
  (fp_line (start 7 -0.99) (end 7 4.81) (layer "F.Fab") (width 0.2) (tstamp 62ec14ca-8ad7-4996-978b-58d2b0d2f9c0))
  (fp_line (start -65.23 4.81) (end 3 4.81) (layer "F.Fab") (width 0.2) (tstamp a051007a-bef4-40d4-8dc8-4bfb05057319))
  (fp_line (start 7 4.81) (end -69.23 4.81) (layer "F.Fab") (width 0.2) (tstamp bb45f667-4dff-405b-b3c9-1919a7abad3c))
  (fp_line (start 3 10.01) (end -65.23 10.01) (layer "F.Fab") (width 0.2) (tstamp d79abc62-0545-4d4f-be6d-32eaf13ebc8b))
  (fp_line (start 3 4.81) (end 3 10.01) (layer "F.Fab") (width 0.2) (tstamp fc1f7417-65a4-4a71-8754-18049ee56f85))
  (pad "1" thru_hole circle (at 0 0) (locked) (size 1 1) (drill 0.65) (layers *.Cu *.Mask) (tstamp c48089a8-8f61-4347-ad97-f1fb0cf9c4ba))
  (pad "2" thru_hole circle (at 0 3.81) (locked) (size 1 1) (drill 0.65) (layers *.Cu *.Mask) (tstamp 15163e5f-0f33-4e20-b5c6-9840f7237ce4))
  (pad "3" thru_hole circle (at -1.27 1.905) (locked) (size 1 1) (drill 0.65) (layers *.Cu *.Mask) (tstamp 7d0f0db0-78ef-4b74-a627-f4d423c6979b))
  (pad "4" thru_hole circle (at -1.27 3.81) (locked) (size 1 1) (drill 0.65) (layers *.Cu *.Mask) (tstamp fe810bd7-6faf-44f5-bbc8-b89a120e30d8))
  (pad "5" thru_hole circle (at -2.54 0) (locked) (size 1 1) (drill 0.65) (layers *.Cu *.Mask) (tstamp 5167cf26-bdb7-4a8c-bc65-455028eaecd4))
  (pad "6" thru_hole circle (at -2.54 3.81) (locked) (size 1 1) (drill 0.65) (layers *.Cu *.Mask) (tstamp 21b8e2dc-fe38-4d01-aa37-903b844b1720))
  (pad "7" thru_hole circle (at -3.81 1.905) (locked) (size 1 1) (drill 0.65) (layers *.Cu *.Mask) (tstamp 0c7a020e-de5e-4fc6-a3f6-feab58d1313d))
  (pad "8" thru_hole circle (at -3.81 3.81) (locked) (size 1 1) (drill 0.65) (layers *.Cu *.Mask) (tstamp eaa46b3d-5d02-42d8-ac7b-ca1f329f537a))
  (pad "9" thru_hole circle (at -5.08 0) (locked) (size 1 1) (drill 0.65) (layers *.Cu *.Mask) (tstamp 7010ba16-e36f-47a1-83d5-ac1dc2b57340))
  (pad "10" thru_hole circle (at -5.08 3.81) (locked) (size 1 1) (drill 0.65) (layers *.Cu *.Mask) (tstamp dd125cc4-3902-4ca8-897e-6fc1c3fd2bca))
  (pad "11" thru_hole circle (at -6.35 1.905) (locked) (size 1 1) (drill 0.65) (layers *.Cu *.Mask) (tstamp 960ccdab-902d-47c7-bce7-97634ab9f453))
  (pad "12" thru_hole circle (at -6.35 3.81) (locked) (size 1 1) (drill 0.65) (layers *.Cu *.Mask) (tstamp 466e2b1e-473a-48f6-abd8-6e7b4043e216))
  (pad "13" thru_hole circle (at -7.62 0) (locked) (size 1 1) (drill 0.65) (layers *.Cu *.Mask) (tstamp a7dfc7ca-1349-4da0-b60d-df104be3f8d8))
  (pad "14" thru_hole circle (at -7.62 3.81) (locked) (size 1 1) (drill 0.65) (layers *.Cu *.Mask) (tstamp ded9bd1d-2ed1-4eac-a107-a2bceb2aec83))
  (pad "15" thru_hole circle (at -8.89 1.905) (locked) (size 1 1) (drill 0.65) (layers *.Cu *.Mask) (tstamp a45ad60f-9432-4992-80c0-d766553f2095))
  (pad "16" thru_hole circle (at -8.89 3.81) (locked) (size 1 1) (drill 0.65) (layers *.Cu *.Mask) (tstamp 2f573293-b3a2-4602-99cc-1cf0a58bb786))
  (pad "17" thru_hole circle (at -10.16 0) (locked) (size 1 1) (drill 0.65) (layers *.Cu *.Mask) (tstamp 31cd41ec-aeeb-4ad6-a1e1-8d3b992f31cb))
  (pad "18" thru_hole circle (at -10.16 3.81) (locked) (size 1 1) (drill 0.65) (layers *.Cu *.Mask) (tstamp 2dbaf82a-a02a-4d5a-9aa6-93c08efa114b))
  (pad "19" thru_hole circle (at -11.43 1.905) (locked) (size 1 1) (drill 0.65) (layers *.Cu *.Mask) (tstamp 25a0a847-de97-46ef-9ad1-e0fb675de81b))
  (pad "20" thru_hole circle (at -11.43 3.81) (locked) (size 1 1) (drill 0.65) (layers *.Cu *.Mask) (tstamp 01d4cd7f-0a7f-4072-b6cd-48c66f193b51))
  (pad "21" thru_hole circle (at -12.7 0) (locked) (size 1 1) (drill 0.65) (layers *.Cu *.Mask) (tstamp 2b6bdcec-fc57-4788-9224-ee0799a4e600))
  (pad "22" thru_hole circle (at -12.7 3.81) (locked) (size 1 1) (drill 0.65) (layers *.Cu *.Mask) (tstamp f02fbcec-fe7e-4b7f-bdfe-419dd204eeb3))
  (pad "23" thru_hole circle (at -13.97 1.905) (locked) (size 1 1) (drill 0.65) (layers *.Cu *.Mask) (tstamp 7ad00904-f3e1-424f-bf49-09e6142c44bc))
  (pad "24" thru_hole circle (at -13.97 3.81) (locked) (size 1 1) (drill 0.65) (layers *.Cu *.Mask) (tstamp 7fc72286-ddef-4f0b-aea7-a57b27ab8c96))
  (pad "25" thru_hole circle (at -15.24 0) (locked) (size 1 1) (drill 0.65) (layers *.Cu *.Mask) (tstamp a270a333-1302-45d5-87ce-87a0d6e79459))
  (pad "26" thru_hole circle (at -15.24 3.81) (locked) (size 1 1) (drill 0.65) (layers *.Cu *.Mask) (tstamp 510d1c05-5030-4358-8cc5-bd4d3b7db172))
  (pad "27" thru_hole circle (at -16.51 1.905) (locked) (size 1 1) (drill 0.65) (layers *.Cu *.Mask) (tstamp bb83215a-6b2f-4027-a77c-1eb62eda3936))
  (pad "28" thru_hole circle (at -16.51 3.81) (locked) (size 1 1) (drill 0.65) (layers *.Cu *.Mask) (tstamp 06fb7404-0b49-4a9b-b8cd-be84c128286d))
  (pad "29" thru_hole circle (at -17.78 0) (locked) (size 1 1) (drill 0.65) (layers *.Cu *.Mask) (tstamp f06fa954-04d3-4e42-9935-3a99a5aaa3a9))
  (pad "30" thru_hole circle (at -17.78 3.81) (locked) (size 1 1) (drill 0.65) (layers *.Cu *.Mask) (tstamp c647395f-dc6f-4814-a20a-0568e3ba4477))
  (pad "31" thru_hole circle (at -19.05 1.905) (locked) (size 1 1) (drill 0.65) (layers *.Cu *.Mask) (tstamp e328658a-3266-4e1b-a6c5-6ccd9560e802))
  (pad "32" thru_hole circle (at -19.05 3.81) (locked) (size 1 1) (drill 0.65) (layers *.Cu *.Mask) (tstamp 8f57a49c-01a3-4335-8a34-295d29548bef))
  (pad "33" thru_hole circle (at -20.32 0) (locked) (size 1 1) (drill 0.65) (layers *.Cu *.Mask) (tstamp d75f644f-cf21-444b-9271-6da803273d39))
  (pad "34" thru_hole circle (at -20.32 3.81) (locked) (size 1 1) (drill 0.65) (layers *.Cu *.Mask) (tstamp 27595590-235f-4fc9-bec7-57b2cdf1da6b))
  (pad "35" thru_hole circle (at -21.59 1.905) (locked) (size 1 1) (drill 0.65) (layers *.Cu *.Mask) (tstamp 94573d6a-6508-4bdc-a5bf-a7d4a0bc4179))
  (pad "36" thru_hole circle (at -21.59 3.81) (locked) (size 1 1) (drill 0.65) (layers *.Cu *.Mask) (tstamp 208e7eb7-3f3e-4e98-88ab-8f0f7217aa1b))
  (pad "37" thru_hole circle (at -22.86 0) (locked) (size 1 1) (drill 0.65) (layers *.Cu *.Mask) (tstamp 4d568b03-b8dc-45ae-895b-c80c4593ce37))
  (pad "38" thru_hole circle (at -22.86 3.81) (locked) (size 1 1) (drill 0.65) (layers *.Cu *.Mask) (tstamp 6b1f40db-a4c8-4a59-90b9-861f1922debe))
  (pad "39" thru_hole circle (at -24.13 1.905) (locked) (size 1 1) (drill 0.65) (layers *.Cu *.Mask) (tstamp 01dd45b1-e727-42fa-94c1-a6da9051f9db))
  (pad "40" thru_hole circle (at -24.13 3.81) (locked) (size 1 1) (drill 0.65) (layers *.Cu *.Mask) (tstamp e6d49b04-c88c-4273-bcd9-4ea74a90f78b))
  (pad "41" thru_hole circle (at -25.4 0) (locked) (size 1 1) (drill 0.65) (layers *.Cu *.Mask) (tstamp 51850387-5451-4323-a3d9-b772a99eae85))
  (pad "42" thru_hole circle (at -25.4 3.81) (locked) (size 1 1) (drill 0.65) (layers *.Cu *.Mask) (tstamp c12571e5-a041-466c-895d-612c3bba28a2))
  (pad "43" thru_hole circle (at -26.67 1.905) (locked) (size 1 1) (drill 0.65) (layers *.Cu *.Mask) (tstamp 2056c05d-e86f-48f2-835e-952db5dab0af))
  (pad "44" thru_hole circle (at -26.67 3.81) (locked) (size 1 1) (drill 0.65) (layers *.Cu *.Mask) (tstamp b45f3220-d987-419e-909a-dcf2b661e4eb))
  (pad "45" thru_hole circle (at -27.94 0) (locked) (size 1 1) (drill 0.65) (layers *.Cu *.Mask) (tstamp c90ce9cb-3e85-4cd4-b56c-0b6905ce8688))
  (pad "46" thru_hole circle (at -27.94 3.81) (locked) (size 1 1) (drill 0.65) (layers *.Cu *.Mask) (tstamp d6120115-2b2e-4558-a60e-62371f49ff50))
  (pad "47" thru_hole circle (at -29.21 1.905) (locked) (size 1 1) (drill 0.65) (layers *.Cu *.Mask) (tstamp 3aaa6667-5a5b-4ada-bbcb-9ac6e1db1b69))
  (pad "48" thru_hole circle (at -29.21 3.81) (locked) (size 1 1) (drill 0.65) (layers *.Cu *.Mask) (tstamp 87e90876-da23-4cc4-a459-50256bcc2bd6))
  (pad "49" thru_hole circle (at -30.48 0) (locked) (size 1 1) (drill 0.65) (layers *.Cu *.Mask) (tstamp 3c93464c-0639-4e68-a4db-a0c9334904b5))
  (pad "50" thru_hole circle (at -30.48 3.81) (locked) (size 1 1) (drill 0.65) (layers *.Cu *.Mask) (tstamp 74521a80-2408-48fe-8dd1-34f9f77b5a43))
  (pad "51" thru_hole circle (at -31.75 1.905) (locked) (size 1 1) (drill 0.65) (layers *.Cu *.Mask) (tstamp ed9662a9-5aa3-41a4-999a-d6a1a3b1262d))
  (pad "52" thru_hole circle (at -31.75 3.81) (locked) (size 1 1) (drill 0.65) (layers *.Cu *.Mask) (tstamp 9f9c98a6-65cf-41b1-b0b5-a18c2cada340))
  (pad "53" thru_hole circle (at -33.02 0) (locked) (size 1 1) (drill 0.65) (layers *.Cu *.Mask) (tstamp 9b630fab-3721-4bc7-b4cd-e0c8a9300a57))
  (pad "54" thru_hole circle (at -33.02 3.81) (locked) (size 1 1) (drill 0.65) (layers *.Cu *.Mask) (tstamp 8edf1049-c0cc-4989-8751-00117b83abf7))
  (pad "55" thru_hole circle (at -34.29 1.905) (locked) (size 1 1) (drill 0.65) (layers *.Cu *.Mask) (tstamp 0345d850-7a13-4ada-a81d-c117d6ed88e0))
  (pad "56" thru_hole circle (at -34.29 3.81) (locked) (size 1 1) (drill 0.65) (layers *.Cu *.Mask) (tstamp fc5d929a-a919-45bf-aaef-b482eaeb016f))
  (pad "57" thru_hole circle (at -35.56 0) (locked) (size 1 1) (drill 0.65) (layers *.Cu *.Mask) (tstamp 2d16c9ac-4848-4655-a041-c76c130fb245))
  (pad "58" thru_hole circle (at -35.56 3.81) (locked) (size 1 1) (drill 0.65) (layers *.Cu *.Mask) (tstamp 790b2c2c-d11c-42df-95b6-cf21dcc85151))
  (pad "59" thru_hole circle (at -36.83 1.905) (locked) (size 1 1) (drill 0.65) (layers *.Cu *.Mask) (tstamp 51e324c2-2b05-4ba7-be4b-dbfd2a5dbccd))
  (pad "60" thru_hole circle (at -36.83 3.81) (locked) (size 1 1) (drill 0.65) (layers *.Cu *.Mask) (tstamp 39dcd729-f192-4d4f-9d98-dfe22fd5d56f))
  (pad "61" thru_hole circle (at -38.1 0) (locked) (size 1 1) (drill 0.65) (layers *.Cu *.Mask) (tstamp 03493d23-9b62-4db2-9335-487086d25ef9))
  (pad "62" thru_hole circle (at -38.1 3.81) (locked) (size 1 1) (drill 0.65) (layers *.Cu *.Mask) (tstamp 38e673fc-6111-47ec-86e5-bec7e8a16987))
  (pad "63" thru_hole circle (at -39.37 1.905) (locked) (size 1 1) (drill 0.65) (layers *.Cu *.Mask) (tstamp f9e00d26-023a-4ad2-b229-526ec28989db))
  (pad "64" thru_hole circle (at -39.37 3.81) (locked) (size 1 1) (drill 0.65) (layers *.Cu *.Mask) (tstamp b13f41ea-181a-449a-85e5-509b9661f05a))
  (pad "65" thru_hole circle (at -40.64 0) (locked) (size 1 1) (drill 0.65) (layers *.Cu *.Mask) (tstamp 5da868d0-5be5-48dc-aa46-5df531adf945))
  (pad "66" thru_hole circle (at -40.64 3.81) (locked) (size 1 1) (drill 0.65) (layers *.Cu *.Mask) (tstamp 4cd43d65-ea4d-41dd-a32f-425bc88c6e2a))
  (pad "67" thru_hole circle (at -41.91 1.905) (locked) (size 1 1) (drill 0.65) (layers *.Cu *.Mask) (tstamp 8a4e8b23-2822-456e-a55a-5a7e379890ef))
  (pad "68" thru_hole circle (at -41.91 3.81) (locked) (size 1 1) (drill 0.65) (layers *.Cu *.Mask) (tstamp b2a5e2d6-fbb0-4049-82e2-0d00f4461e4b))
  (pad "69" thru_hole circle (at -43.18 0) (locked) (size 1 1) (drill 0.65) (layers *.Cu *.Mask) (tstamp 822e93b3-4a7f-4c0e-bcaf-fa3574b391e4))
  (pad "70" thru_hole circle (at -43.18 3.81) (locked) (size 1 1) (drill 0.65) (layers *.Cu *.Mask) (tstamp f66807e3-3474-4ba4-9af8-753f430ebf10))
  (pad "71" thru_hole circle (at -44.45 1.905) (locked) (size 1 1) (drill 0.65) (layers *.Cu *.Mask) (tstamp 3cb00b1b-a4f8-4dd9-9b9d-b24f424bf1c1))
  (pad "72" thru_hole circle (at -44.45 3.81) (locked) (size 1 1) (drill 0.65) (layers *.Cu *.Mask) (tstamp d14ec771-ce09-4fca-8614-1136011042fc))
  (pad "73" thru_hole circle (at -45.72 0) (locked) (size 1 1) (drill 0.65) (layers *.Cu *.Mask) (tstamp 80156b62-3f3e-4a82-a21a-8d790cfca799))
  (pad "74" thru_hole circle (at -45.72 3.81) (locked) (size 1 1) (drill 0.65) (layers *.Cu *.Mask) (tstamp be4a986c-881f-4ef4-9a3b-5cb889286bc9))
  (pad "75" thru_hole circle (at -46.99 1.905) (locked) (size 1 1) (drill 0.65) (layers *.Cu *.Mask) (tstamp 224d57db-b8f5-49ea-8350-6e9785168a44))
  (pad "76" thru_hole circle (at -46.99 3.81) (locked) (size 1 1) (drill 0.65) (layers *.Cu *.Mask) (tstamp 4c053115-e1a8-4e71-84a3-ee16f0697b71))
  (pad "77" thru_hole circle (at -48.26 0) (locked) (size 1 1) (drill 0.65) (layers *.Cu *.Mask) (tstamp b178d90a-e3bf-4596-8f8f-4a8ac20c6f66))
  (pad "78" thru_hole circle (at -48.26 3.81) (locked) (size 1 1) (drill 0.65) (layers *.Cu *.Mask) (tstamp a5327c62-499d-4e52-992e-a751e330659d))
  (pad "79" thru_hole circle (at -49.53 1.905) (locked) (size 1 1) (drill 0.65) (layers *.Cu *.Mask) (tstamp 91ffdc2b-dc29-41f1-a6b4-477b91e710ee))
  (pad "80" thru_hole circle (at -49.53 3.81) (locked) (size 1 1) (drill 0.65) (layers *.Cu *.Mask) (tstamp 2a4ab93b-f7e6-4d94-b082-bc6a383f0f18))
  (pad "81" thru_hole circle (at -50.8 0) (locked) (size 1 1) (drill 0.65) (layers *.Cu *.Mask) (tstamp 8a33eaa9-e2ae-424c-a077-4b279af9968c))
  (pad "82" thru_hole circle (at -50.8 3.81) (locked) (size 1 1) (drill 0.65) (layers *.Cu *.Mask) (tstamp a3037a3e-63af-4a86-9443-c828cd9db2e7))
  (pad "83" thru_hole circle (at -52.07 1.905) (locked) (size 1 1) (drill 0.65) (layers *.Cu *.Mask) (tstamp 813ceac0-03a0-49a4-85b7-a23be38ca1ec))
  (pad "84" thru_hole circle (at -52.07 3.81) (locked) (size 1 1) (drill 0.65) (layers *.Cu *.Mask) (tstamp 0aa048ae-e64d-4eeb-a150-c1cc5ecf17ce))
  (pad "85" thru_hole circle (at -53.34 0) (locked) (size 1 1) (drill 0.65) (layers *.Cu *.Mask) (tstamp 26b84334-2b5a-4e25-b501-5a2bec570f81))
  (pad "86" thru_hole circle (at -53.34 3.81) (locked) (size 1 1) (drill 0.65) (layers *.Cu *.Mask) (tstamp 5a73e8a5-85a6-41f7-87d0-606b532b737c))
  (pad "87" thru_hole circle (at -54.61 1.905) (locked) (size 1 1) (drill 0.65) (layers *.Cu *.Mask) (tstamp ed4dbd40-b1e2-4e97-9294-79474ca74c99))
  (pad "88" thru_hole circle (at -54.61 3.81) (locked) (size 1 1) (drill 0.65) (layers *.Cu *.Mask) (tstamp fbd9660a-5760-4245-8f75-0665c4c38590))
  (pad "89" thru_hole circle (at -55.88 0) (locked) (size 1 1) (drill 0.65) (layers *.Cu *.Mask) (tstamp b64ebe92-605b-4f34-89c1-1a09a1c09c8f))
  (pad "90" thru_hole circle (at -55.88 3.81) (locked) (size 1 1) (drill 0.65) (layers *.Cu *.Mask) (tstamp d208f8c0-b6a3-4aec-a6f3-c29cd4180907))
  (pad "91" thru_hole circle (at -57.15 1.905) (locked) (size 1 1) (drill 0.65) (layers *.Cu *.Mask) (tstamp 0af4619c-0d1b-4502-ab97-2d84f339fcec))
  (pad "92" thru_hole circle (at -57.15 3.81) (locked) (size 1 1) (drill 0.65) (layers *.Cu *.Mask) (tstamp b2cf349b-fb15-42df-b675-35be03438b32))
  (pad "93" thru_hole circle (at -58.42 0) (locked) (size 1 1) (drill 0.65) (layers *.Cu *.Mask) (tstamp 14abf65a-662c-41bb-98a8-8ad2d7888f9d))
  (pad "94" thru_hole circle (at -58.42 3.81) (locked) (size 1 1) (drill 0.65) (layers *.Cu *.Mask) (tstamp 42d271ae-2afb-4c30-adb7-8ca650e882b2))
  (pad "95" thru_hole circle (at -59.69 1.905) (locked) (size 1 1) (drill 0.65) (layers *.Cu *.Mask) (tstamp 31cc4797-20a5-4659-89bd-8c654e033ba2))
  (pad "96" thru_hole circle (at -59.69 3.81) (locked) (size 1 1) (drill 0.65) (layers *.Cu *.Mask) (tstamp 232c0486-a702-4fe1-8a60-0f82809b4af1))
  (pad "97" thru_hole circle (at -60.96 0) (locked) (size 1 1) (drill 0.65) (layers *.Cu *.Mask) (tstamp 890b01d1-4c88-41e8-9a84-b54cda3a55db))
  (pad "98" thru_hole circle (at -60.96 3.81) (locked) (size 1 1) (drill 0.65) (layers *.Cu *.Mask) (tstamp 63f04bd9-ecaa-4b5f-a513-51bd07f698e4))
  (pad "99" thru_hole circle (at -62.23 1.905) (locked) (size 1 1) (drill 0.65) (layers *.Cu *.Mask) (tstamp 4262c1d0-12f5-4331-8b8f-2e53b7f9bba0))
  (pad "100" thru_hole circle (at -62.23 3.81) (locked) (size 1 1) (drill 0.65) (layers *.Cu *.Mask) (tstamp 9199d11d-0403-4c6b-9387-a71d9efa5947))
  (pad "MH1" thru_hole circle (at 4.445 1.905) (locked) (size 3.6 3.6) (drill 2.4) (layers *.Cu *.Mask) (tstamp 6711771e-ecaf-4784-b106-869247ee011f))
  (pad "MH2" thru_hole circle (at -66.675 1.905) (locked) (size 3.6 3.6) (drill 2.4) (layers *.Cu *.Mask) (tstamp 5195e925-a726-4863-ac50-ece51351f31d))
  (model "${KIPRJMOD}/lib/dmaps_components/dmaps_components.3dshapes/8911-100-178L-F.stp"
    (offset (xyz 0 0 0))
    (scale (xyz 1 1 1))
    (rotate (xyz 0 0 0))
  )
)
