(module LOGO (layer F.Cu)
  (at 0 0)
(attr board_only exclude_from_pos_files exclude_from_bom)
 (fp_text reference "G***" (at 0 0) (layer F.SilkS)
  (effects (font (thickness 0.3)))
  )
  (fp_text value "LOGO" (at 0.75 0) (layer F.SilkS) hide
  (effects (font (thickness 0.3)))
  )
  (fp_poly (pts (xy 0.427967 -4.475955) (xy 0.524804 -4.449117) (xy 0.621874 -4.402532) (xy 0.718877 -4.336447) (xy 0.815515 -4.251107) (xy 0.911492 -4.146759) (xy 1.006508 -4.023649) (xy 1.047352 -3.964469)
     (xy 1.138552 -3.819092) (xy 1.228747 -3.657235) (xy 1.318048 -3.478592) (xy 1.406564 -3.282856) (xy 1.494405 -3.069720) (xy 1.581678 -2.838879) (xy 1.668494 -2.590024) (xy 1.754961 -2.322849)
     (xy 1.841190 -2.037048) (xy 1.927289 -1.732315) (xy 2.013367 -1.408341) (xy 2.099533 -1.064822) (xy 2.140457 -0.895000) (xy 2.163143 -0.799949) (xy 2.181859 -0.722442) (xy 2.197176 -0.660551)
     (xy 2.209669 -0.612343) (xy 2.219909 -0.575886) (xy 2.228468 -0.549251) (xy 2.235920 -0.530505) (xy 2.242838 -0.517717) (xy 2.249793 -0.508956) (xy 2.256756 -0.502762) (xy 2.273786 -0.489547)
     (xy 2.303542 -0.466658) (xy 2.342839 -0.436536) (xy 2.388491 -0.401624) (xy 2.430000 -0.369941) (xy 2.705381 -0.150959) (xy 2.979164 0.084386) (xy 3.247445 0.332592) (xy 3.506317 0.590156)
     (xy 3.544063 0.629347) (xy 3.762746 0.866179) (xy 3.964482 1.102172) (xy 4.149033 1.336909) (xy 4.316161 1.569974) (xy 4.465627 1.800950) (xy 4.597193 2.029421) (xy 4.710621 2.254971)
     (xy 4.805672 2.477183) (xy 4.882108 2.695641) (xy 4.939691 2.909929) (xy 4.978182 3.119629) (xy 4.980929 3.140000) (xy 4.987608 3.209860) (xy 4.991653 3.292768) (xy 4.993116 3.383047)
     (xy 4.992046 3.475021) (xy 4.988493 3.563012) (xy 4.982508 3.641345) (xy 4.976025 3.693109) (xy 4.958918 3.785104) (xy 4.937728 3.872254) (xy 4.913785 3.949811) (xy 4.888421 4.013024)
     (xy 4.883524 4.023074) (xy 4.863831 4.054537) (xy 4.834580 4.092440) (xy 4.801171 4.129945) (xy 4.791147 4.140094) (xy 4.709353 4.207031) (xy 4.610389 4.263782) (xy 4.494297 4.310347)
     (xy 4.361120 4.346725) (xy 4.210900 4.372916) (xy 4.043679 4.388919) (xy 3.859499 4.394734) (xy 3.658403 4.390359) (xy 3.440433 4.375795) (xy 3.205631 4.351041) (xy 2.954040 4.316097)
     (xy 2.685701 4.270961) (xy 2.400658 4.215634) (xy 2.205000 4.173887) (xy 2.053534 4.139390) (xy 1.887002 4.099494) (xy 1.709274 4.055235) (xy 1.524219 4.007647) (xy 1.335709 3.957766)
     (xy 1.147613 3.906626) (xy 0.963802 3.855263) (xy 0.788147 3.804710) (xy 0.624517 3.756004) (xy 0.510000 3.720675) (xy 0.468139 3.708318) (xy 0.436543 3.702509) (xy 0.408616 3.703794)
     (xy 0.377765 3.712716) (xy 0.337397 3.729817) (xy 0.323748 3.736028) (xy 0.275584 3.757278) (xy 0.212682 3.783853) (xy 0.139063 3.814143) (xy 0.058749 3.846537) (xy -0.024240 3.879424)
     (xy -0.105882 3.911193) (xy -0.182157 3.940235) (xy -0.235000 3.959833) (xy -0.501335 4.052725) (xy -0.770269 4.137979) (xy -1.039595 4.215115) (xy -1.307103 4.283652) (xy -1.570585 4.343110)
     (xy -1.827833 4.393006) (xy -2.076638 4.432861) (xy -2.314791 4.462194) (xy -2.540083 4.480524) (xy -2.649696 4.485493) (xy -2.709112 4.487459) (xy -2.766733 4.489479) (xy -2.817173 4.491356)
     (xy -2.855047 4.492893) (xy -2.865000 4.493347) (xy -2.895063 4.493892) (xy -2.940389 4.493581) (xy -2.996264 4.492499) (xy -3.057973 4.490732) (xy -3.105000 4.489017) (xy -3.354527 4.471426)
     (xy -3.591023 4.439191) (xy -3.814353 4.392356) (xy -4.024386 4.330965) (xy -4.220987 4.255061) (xy -4.404023 4.164687) (xy -4.573361 4.059887) (xy -4.690379 3.972585) (xy -4.782258 3.892738)
     (xy -4.855884 3.815685) (xy -4.912501 3.739756) (xy -4.953354 3.663286) (xy -4.979591 3.585000) (xy -4.987357 3.535534) (xy -4.990853 3.473140) (xy -4.990168 3.404406) (xy -4.985395 3.335922)
     (xy -4.976626 3.274276) (xy -4.975179 3.267021) (xy -4.972791 3.257960) (xy -4.707859 3.257960) (xy -4.707637 3.337102) (xy -4.698339 3.411115) (xy -4.679409 3.475502) (xy -4.649031 3.532673)
     (xy -4.605382 3.585037) (xy -4.546645 3.635005) (xy -4.470998 3.684985) (xy -4.425000 3.711435) (xy -4.322085 3.765161) (xy -4.224354 3.808710) (xy -4.125906 3.844139) (xy -4.020839 3.873508)
     (xy -3.903253 3.898875) (xy -3.870000 3.905052) (xy -3.700521 3.929845) (xy -3.519636 3.944964) (xy -3.326728 3.950350) (xy -3.121178 3.945946) (xy -2.902368 3.931697) (xy -2.669680 3.907543)
     (xy -2.422495 3.873430) (xy -2.160194 3.829299) (xy -1.882161 3.775094) (xy -1.587775 3.710758) (xy -1.475000 3.684474) (xy -1.383266 3.662429) (xy -1.287191 3.638752) (xy -1.188620 3.613944)
     (xy -1.089400 3.588508) (xy -0.991374 3.562946) (xy -0.896389 3.537759) (xy -0.806289 3.513448) (xy -0.722919 3.490517) (xy -0.648125 3.469467) (xy -0.583752 3.450799) (xy -0.531645 3.435016)
     (xy -0.493648 3.422620) (xy -0.471609 3.414112) (xy -0.466852 3.410261) (xy -0.478380 3.405077) (xy -0.505958 3.394597) (xy -0.546668 3.379868) (xy -0.597594 3.361943) (xy -0.655820 3.341870)
     (xy -0.675000 3.335340) (xy -0.797224 3.293442) (xy -0.934618 3.245618) (xy -1.083687 3.193120) (xy -1.240934 3.137201) (xy -1.402863 3.079114) (xy -1.565979 3.020113) (xy -1.726784 2.961451)
     (xy -1.881784 2.904380) (xy -2.000000 2.860432) (xy -2.101747 2.822299) (xy -2.206237 2.782905) (xy -2.311830 2.742887) (xy -2.416884 2.702881) (xy -2.519757 2.663522) (xy -2.618809 2.625448)
     (xy -2.712396 2.589293) (xy -2.798879 2.555694) (xy -2.876616 2.525286) (xy -2.943965 2.498707) (xy -2.999284 2.476591) (xy -3.040933 2.459575) (xy -3.067269 2.448294) (xy -3.076651 2.443385)
     (xy -3.076628 2.443294) (xy -3.066706 2.445608) (xy -3.040623 2.453887) (xy -3.001003 2.467235) (xy -2.950473 2.484759) (xy -2.891658 2.505562) (xy -2.849155 2.520807) (xy -2.710046 2.570633)
     (xy -2.561779 2.623117) (xy -2.406048 2.677692) (xy -2.244549 2.733792) (xy -2.078975 2.790851) (xy -1.911021 2.848302) (xy -1.742383 2.905579) (xy -1.574753 2.962115) (xy -1.409827 3.017345)
     (xy -1.249300 3.070701) (xy -1.094866 3.121618) (xy -0.948219 3.169528) (xy -0.811054 3.213867) (xy -0.685066 3.254066) (xy -0.571948 3.289561) (xy -0.473397 3.319784) (xy -0.391105 3.344169)
     (xy -0.355000 3.354438) (xy -0.295000 3.371177) (xy 0.000000 3.289784) (xy 0.163714 3.245221) (xy 0.314806 3.205331) (xy 0.452131 3.170395) (xy 0.574547 3.140693) (xy 0.680911 3.116506)
     (xy 0.770078 3.098114) (xy 0.813493 3.090208) (xy 0.902612 3.077526) (xy 0.982126 3.071227) (xy 1.050269 3.071184) (xy 1.105277 3.077265) (xy 1.145384 3.089343) (xy 1.168825 3.107286)
     (xy 1.173289 3.116587) (xy 1.184009 3.160334) (xy 1.186027 3.193210) (xy 1.177592 3.221059) (xy 1.156953 3.249723) (xy 1.122976 3.284448) (xy 1.090515 3.311897) (xy 1.043645 3.346339)
     (xy 0.985770 3.385672) (xy 0.920294 3.427796) (xy 0.850622 3.470610) (xy 0.780157 3.512013) (xy 0.712303 3.549903) (xy 0.650465 3.582180) (xy 0.607500 3.602599) (xy 0.588066 3.613095)
     (xy 0.580000 3.621055) (xy 0.589420 3.626106) (xy 0.616471 3.635352) (xy 0.659331 3.648324) (xy 0.716182 3.664553) (xy 0.785206 3.683569) (xy 0.864582 3.704902) (xy 0.952491 3.728083)
     (xy 1.047115 3.752642) (xy 1.146635 3.778111) (xy 1.249230 3.804019) (xy 1.353083 3.829897) (xy 1.456374 3.855275) (xy 1.557284 3.879684) (xy 1.653993 3.902655) (xy 1.744683 3.923718)
     (xy 1.810000 3.938504) (xy 2.087063 3.997904) (xy 2.353989 4.050161) (xy 2.609310 4.095038) (xy 2.851557 4.132302) (xy 3.079259 4.161716) (xy 3.290948 4.183045) (xy 3.380000 4.189902)
     (xy 3.451430 4.193465) (xy 3.533865 4.195323) (xy 3.623002 4.195576) (xy 3.714541 4.194323) (xy 3.804178 4.191664) (xy 3.887614 4.187700) (xy 3.960545 4.182530) (xy 4.018670 4.176253)
     (xy 4.028221 4.174861) (xy 4.160750 4.149128) (xy 4.275282 4.115450) (xy 4.372302 4.073521) (xy 4.452299 4.023029) (xy 4.515758 3.963668) (xy 4.563167 3.895128) (xy 4.595014 3.817100)
     (xy 4.595555 3.815232) (xy 4.603689 3.771516) (xy 4.608306 3.712380) (xy 4.609564 3.642063) (xy 4.607620 3.564803) (xy 4.602631 3.484840) (xy 4.594754 3.406414) (xy 4.584147 3.333762)
     (xy 4.576190 3.293122) (xy 4.537181 3.144149) (xy 4.484779 2.991212) (xy 4.418604 2.833717) (xy 4.338280 2.671068) (xy 4.243426 2.502671) (xy 4.133665 2.327929) (xy 4.008617 2.146248)
     (xy 3.867904 1.957033) (xy 3.711147 1.759689) (xy 3.537968 1.553620) (xy 3.347987 1.338232) (xy 3.295265 1.280051) (xy 3.262545 1.244687) (xy 3.220390 1.199994) (xy 3.170224 1.147420)
     (xy 3.113471 1.088411) (xy 3.051556 1.024415) (xy 2.985904 0.956880) (xy 2.917937 0.887252) (xy 2.849082 0.816979) (xy 2.780762 0.747509) (xy 2.714401 0.680288) (xy 2.651425 0.616764)
     (xy 2.593256 0.558385) (xy 2.541321 0.506597) (xy 2.497043 0.462848) (xy 2.461846 0.428585) (xy 2.437155 0.405256) (xy 2.424395 0.394308) (xy 2.422968 0.393698) (xy 2.423802 0.404083)
     (xy 2.427932 0.431797) (xy 2.434959 0.474508) (xy 2.444484 0.529890) (xy 2.456110 0.595612) (xy 2.469439 0.669347) (xy 2.478973 0.721257) (xy 2.526299 0.979833) (xy 2.570246 1.225352)
     (xy 2.611555 1.462283) (xy 2.650964 1.695091) (xy 2.689215 1.928243) (xy 2.727047 2.166205) (xy 2.765200 2.413444) (xy 2.804414 2.674427) (xy 2.819607 2.777176) (xy 2.834958 2.882330)
     (xy 2.847375 2.969355) (xy 2.856842 3.038069) (xy 2.863343 3.088292) (xy 2.866860 3.119841) (xy 2.867378 3.132537) (xy 2.864880 3.126199) (xy 2.859350 3.100645) (xy 2.850772 3.055695)
     (xy 2.839128 2.991167) (xy 2.838921 2.990000) (xy 2.784384 2.684112) (xy 2.732371 2.396542) (xy 2.682595 2.125804) (xy 2.634767 1.870415) (xy 2.588599 1.628891) (xy 2.543805 1.399746)
     (xy 2.500094 1.181496) (xy 2.457181 0.972658) (xy 2.414776 0.771748) (xy 2.372592 0.577280) (xy 2.358055 0.511493) (xy 2.306212 0.277987) (xy 2.004454 -0.016594) (xy 1.873489 -0.145359)
     (xy 1.757126 -0.261780) (xy 1.654790 -0.366537) (xy 1.565909 -0.460313) (xy 1.489907 -0.543789) (xy 1.426212 -0.617648) (xy 1.374249 -0.682571) (xy 1.333443 -0.739241) (xy 1.303222 -0.788338)
     (xy 1.283011 -0.830544) (xy 1.272237 -0.866542) (xy 1.270000 -0.889054) (xy 1.273994 -0.917875) (xy 1.288763 -0.942851) (xy 1.304352 -0.959373) (xy 1.327546 -0.979678) (xy 1.347486 -0.988443)
     (xy 1.373886 -0.989021) (xy 1.386852 -0.987870) (xy 1.442730 -0.976326) (xy 1.512983 -0.951510) (xy 1.597204 -0.913622) (xy 1.694986 -0.862863) (xy 1.805924 -0.799432) (xy 1.929612 -0.723530)
     (xy 1.952500 -0.709005) (xy 1.998434 -0.680007) (xy 2.037855 -0.655674) (xy 2.067982 -0.637678) (xy 2.086035 -0.627688) (xy 2.090000 -0.626356) (xy 2.087429 -0.640349) (xy 2.080127 -0.671319)
     (xy 2.068704 -0.716973) (xy 2.053775 -0.775015) (xy 2.035951 -0.843150) (xy 2.015846 -0.919083) (xy 1.994072 -1.000521) (xy 1.971241 -1.085167) (xy 1.947966 -1.170728) (xy 1.924860 -1.254908)
     (xy 1.902535 -1.335412) (xy 1.881605 -1.409947) (xy 1.868781 -1.455000) (xy 1.785324 -1.738122) (xy 1.700901 -2.008435) (xy 1.615818 -2.265152) (xy 1.530383 -2.507483) (xy 1.444902 -2.734640)
     (xy 1.359685 -2.945834) (xy 1.275037 -3.140277) (xy 1.191265 -3.317180) (xy 1.108678 -3.475753) (xy 1.027583 -3.615209) (xy 1.026347 -3.617204) (xy 0.938995 -3.748745) (xy 0.851608 -3.861954)
     (xy 0.764475 -3.956640) (xy 0.677885 -4.032612) (xy 0.592127 -4.089680) (xy 0.507491 -4.127653) (xy 0.424265 -4.146339) (xy 0.342739 -4.145548) (xy 0.263201 -4.125089) (xy 0.259309 -4.123557)
     (xy 0.220912 -4.105880) (xy 0.171286 -4.079695) (xy 0.115573 -4.047984) (xy 0.058916 -4.013728) (xy 0.006457 -3.979906) (xy -0.020000 -3.961676) (xy -0.139641 -3.867242) (xy -0.256318 -3.756096)
     (xy -0.370213 -3.627922) (xy -0.481507 -3.482405) (xy -0.590382 -3.319229) (xy -0.697021 -3.138080) (xy -0.801605 -2.938641) (xy -0.904317 -2.720599) (xy -1.005337 -2.483637) (xy -1.104849 -2.227440)
     (xy -1.203033 -1.951694) (xy -1.235624 -1.855000) (xy -1.259205 -1.782973) (xy -1.285076 -1.701966) (xy -1.312683 -1.613871) (xy -1.341472 -1.520582) (xy -1.370890 -1.423993) (xy -1.400381 -1.325996)
     (xy -1.429393 -1.228485) (xy -1.457371 -1.133353) (xy -1.483761 -1.042492) (xy -1.508010 -0.957797) (xy -1.529563 -0.881160) (xy -1.547866 -0.814475) (xy -1.562365 -0.759635) (xy -1.572507 -0.718532)
     (xy -1.577737 -0.693061) (xy -1.577944 -0.685141) (xy -1.569861 -0.690687) (xy -1.548592 -0.707553) (xy -1.516164 -0.734069) (xy -1.474599 -0.768567) (xy -1.425923 -0.809378) (xy -1.375000 -0.852423)
     (xy -1.198733 -1.001453) (xy -1.019527 -1.151957) (xy -0.839591 -1.302115) (xy -0.661135 -1.450106) (xy -0.486368 -1.594112) (xy -0.317500 -1.732312) (xy -0.156739 -1.862887) (xy -0.006295 -1.984017)
     (xy 0.131624 -2.093881) (xy 0.145000 -2.104461) (xy 0.207440 -2.153676) (xy 0.255783 -2.191449) (xy 0.289897 -2.217642) (xy 0.309650 -2.232116) (xy 0.314911 -2.234733) (xy 0.305548 -2.225355)
     (xy 0.281428 -2.203842) (xy 0.242422 -2.170056) (xy 0.188396 -2.123858) (xy 0.119220 -2.065110) (xy 0.060000 -2.014998) (xy -0.218169 -1.778554) (xy -0.484848 -1.549196) (xy -0.739162 -1.327697)
     (xy -0.980235 -1.114827) (xy -1.207190 -0.911358) (xy -1.419151 -0.718063) (xy -1.543036 -0.603309) (xy -1.621071 -0.530555) (xy -1.725923 -0.132778) (xy -1.772969 0.044368) (xy -1.815921 0.203112)
     (xy -1.855151 0.344552) (xy -1.891031 0.469781) (xy -1.923932 0.579894) (xy -1.954225 0.675987) (xy -1.982282 0.759154) (xy -2.008475 0.830491) (xy -2.033175 0.891091) (xy -2.056752 0.942051)
     (xy -2.079580 0.984465) (xy -2.102029 1.019429) (xy -2.124470 1.048036) (xy -2.127774 1.051753) (xy -2.149959 1.075009) (xy -2.167059 1.086314) (xy -2.187027 1.088884) (xy -2.213560 1.086442)
     (xy -2.255471 1.077268) (xy -2.284164 1.058910) (xy -2.304193 1.027335) (xy -2.315119 0.996480) (xy -2.325544 0.948011) (xy -2.333633 0.882496) (xy -2.339356 0.802753) (xy -2.342683 0.711604)
     (xy -2.343586 0.611867) (xy -2.342034 0.506363) (xy -2.337999 0.397912) (xy -2.331450 0.289333) (xy -2.323496 0.195000) (xy -2.316720 0.125000) (xy -2.444747 0.245000) (xy -2.498307 0.296098)
     (xy -2.563270 0.359554) (xy -2.637405 0.433094) (xy -2.718481 0.514443) (xy -2.804267 0.601327) (xy -2.892533 0.691470) (xy -2.981047 0.782598) (xy -3.067580 0.872436) (xy -3.149899 0.958711)
     (xy -3.225774 1.039146) (xy -3.267763 1.084181) (xy -3.470550 1.306179) (xy -3.657061 1.517377) (xy -3.827597 1.718169) (xy -3.982454 1.908949) (xy -4.121933 2.090112) (xy -4.246331 2.262052)
     (xy -4.355947 2.425163) (xy -4.451081 2.579840) (xy -4.532030 2.726476) (xy -4.571028 2.804708) (xy -4.627453 2.932725) (xy -4.668779 3.049820) (xy -4.695437 3.157671) (xy -4.707859 3.257960)
     (xy -4.972791 3.257960) (xy -4.940083 3.133872) (xy -4.888194 2.991800) (xy -4.819465 2.840747) (xy -4.733852 2.680656) (xy -4.631307 2.511468) (xy -4.511786 2.333127) (xy -4.375243 2.145573)
     (xy -4.221632 1.948750) (xy -4.050906 1.742601) (xy -3.863022 1.527066) (xy -3.657932 1.302089) (xy -3.435591 1.067613) (xy -3.195954 0.823578) (xy -2.938974 0.569928) (xy -2.664605 0.306604)
     (xy -2.520000 0.170468) (xy -2.469588 0.123297) (xy -2.422935 0.079640) (xy -2.382396 0.041702) (xy -2.350326 0.011685) (xy -2.329078 -0.008206) (xy -2.322464 -0.014402) (xy -2.314331 -0.023995)
     (xy -2.307285 -0.037952) (xy -2.300675 -0.059045) (xy -2.293852 -0.090048) (xy -2.286164 -0.133737) (xy -2.276963 -0.192884) (xy -2.270690 -0.235264) (xy -2.215273 -0.574063) (xy -2.149219 -0.907175)
     (xy -2.073012 -1.233158) (xy -1.987134 -1.550571) (xy -1.892068 -1.857971) (xy -1.788297 -2.153916) (xy -1.676303 -2.436964) (xy -1.556569 -2.705673) (xy -1.429578 -2.958600) (xy -1.295812 -3.194304)
     (xy -1.261600 -3.250000) (xy -1.120760 -3.461472) (xy -0.974016 -3.654147) (xy -0.821440 -3.827959) (xy -0.663107 -3.982841) (xy -0.499090 -4.118726) (xy -0.329463 -4.235548) (xy -0.154298 -4.333239)
     (xy 0.010000 -4.405514) (xy 0.117146 -4.443172) (xy 0.211811 -4.468214) (xy 0.296654 -4.481087) (xy 0.374335 -4.482241) )(layer F.SilkS) (width  0.000000)
  )
  (fp_poly (pts (xy 2.910000 3.385000) (xy 2.905000 3.390000) (xy 2.900000 3.385000) (xy 2.905000 3.380000) )(layer F.SilkS) (width  0.000000)
  )
  (fp_poly (pts (xy 2.896666 3.313333) (xy 2.897863 3.325200) (xy 2.896666 3.326666) (xy 2.890721 3.325293) (xy 2.890000 3.320000) (xy 2.893658 3.311768) )(layer F.SilkS) (width  0.000000)
  )
  (fp_poly (pts (xy 2.886622 3.237500) (xy 2.887943 3.257973) (xy 2.886622 3.262500) (xy 2.882972 3.263756) (xy 2.881578 3.250000) (xy 2.883150 3.235803) )(layer F.SilkS) (width  0.000000)
  )
  (fp_poly (pts (xy 2.876435 3.170970) (xy 2.876929 3.172690) (xy 2.878393 3.194473) (xy 2.876559 3.202690) (xy 2.873276 3.203022) (xy 2.871935 3.187368) (xy 2.871949 3.185000) (xy 2.873391 3.169490)
     )(layer F.SilkS) (width  0.000000)
  )
  (fp_poly (pts (xy -3.108567 2.425285) (xy -3.100000 2.430000) (xy -3.091996 2.437923) (xy -3.095000 2.439693) (xy -3.111434 2.434714) (xy -3.120000 2.430000) (xy -3.128005 2.422076) (xy -3.125000 2.420306)
     )(layer F.SilkS) (width  0.000000)
  )
  (fp_poly (pts (xy -3.143334 2.413333) (xy -3.144707 2.419278) (xy -3.150000 2.420000) (xy -3.158232 2.416341) (xy -3.156667 2.413333) (xy -3.144800 2.412136) )(layer F.SilkS) (width  0.000000)
  )
  (fp_poly (pts (xy -3.170000 2.405000) (xy -3.175000 2.410000) (xy -3.180000 2.405000) (xy -3.175000 2.400000) )(layer F.SilkS) (width  0.000000)
  )
  (fp_poly (pts (xy -3.200000 2.395000) (xy -3.205000 2.400000) (xy -3.210000 2.395000) (xy -3.205000 2.390000) )(layer F.SilkS) (width  0.000000)
  )
  (fp_poly (pts (xy -3.220000 2.385000) (xy -3.225000 2.390000) (xy -3.230000 2.385000) (xy -3.225000 2.380000) )(layer F.SilkS) (width  0.000000)
  )
  (fp_poly (pts (xy -3.250000 2.375000) (xy -3.255000 2.380000) (xy -3.260000 2.375000) (xy -3.255000 2.370000) )(layer F.SilkS) (width  0.000000)
  )
  (fp_poly (pts (xy 0.482866 0.584118) (xy 0.495454 0.594545) (xy 0.504623 0.604372) (xy 0.511461 0.614839) (xy 0.516062 0.628526) (xy 0.518521 0.648010) (xy 0.518932 0.675871) (xy 0.517389 0.714687)
     (xy 0.513988 0.767037) (xy 0.508822 0.835500) (xy 0.505731 0.875000) (xy 0.500665 0.943613) (xy 0.495919 1.015659) (xy 0.491611 1.088409) (xy 0.487865 1.159134) (xy 0.484801 1.225104)
     (xy 0.482541 1.283590) (xy 0.481205 1.331863) (xy 0.480915 1.367193) (xy 0.481792 1.386852) (xy 0.482858 1.390000) (xy 0.490852 1.382783) (xy 0.508797 1.363184) (xy 0.533954 1.334277)
     (xy 0.560787 1.302500) (xy 0.627747 1.223962) (xy 0.693971 1.149654) (xy 0.757868 1.081135) (xy 0.817849 1.019962) (xy 0.872324 0.967694) (xy 0.919705 0.925890) (xy 0.958400 0.896108)
     (xy 0.986822 0.879907) (xy 0.993991 0.877745) (xy 1.032784 0.879136) (xy 1.064541 0.896532) (xy 1.085540 0.926215) (xy 1.092060 0.964466) (xy 1.091029 0.974686) (xy 1.083208 0.987330)
     (xy 1.063087 1.011398) (xy 1.032849 1.044522) (xy 0.994676 1.084330) (xy 0.950749 1.128454) (xy 0.937272 1.141693) (xy 0.786543 1.289013) (xy 0.828463 1.334491) (xy 0.873963 1.388433)
     (xy 0.916074 1.448648) (xy 0.956508 1.518178) (xy 0.996977 1.600063) (xy 1.039192 1.697344) (xy 1.055792 1.738339) (xy 1.080918 1.803487) (xy 1.097772 1.853328) (xy 1.106701 1.890600)
     (xy 1.108050 1.918046) (xy 1.102166 1.938405) (xy 1.089392 1.954418) (xy 1.083651 1.959274) (xy 1.047289 1.978751) (xy 1.012898 1.978399) (xy 0.980451 1.958196) (xy 0.949916 1.918123)
     (xy 0.921266 1.858160) (xy 0.915796 1.843877) (xy 0.886180 1.768710) (xy 0.854344 1.696375) (xy 0.821485 1.628860) (xy 0.788800 1.568156) (xy 0.757483 1.516252) (xy 0.728731 1.475140)
     (xy 0.703740 1.446809) (xy 0.683707 1.433248) (xy 0.670475 1.435736) (xy 0.661321 1.446568) (xy 0.642281 1.470081) (xy 0.615807 1.503213) (xy 0.584353 1.542905) (xy 0.570873 1.560000)
     (xy 0.480323 1.675000) (xy 0.480161 1.827954) (xy 0.479976 1.886442) (xy 0.479243 1.928376) (xy 0.477484 1.957200) (xy 0.474218 1.976360) (xy 0.468967 1.989301) (xy 0.461250 1.999469)
     (xy 0.455454 2.005454) (xy 0.422555 2.026033) (xy 0.386090 2.027924) (xy 0.349649 2.011115) (xy 0.343057 2.005835) (xy 0.315000 1.981670) (xy 0.315598 1.563335) (xy 0.316698 1.382741)
     (xy 0.319506 1.220070) (xy 0.324104 1.073308) (xy 0.330572 0.940443) (xy 0.338992 0.819465) (xy 0.349443 0.708360) (xy 0.350250 0.700933) (xy 0.356683 0.653937) (xy 0.364599 0.622161)
     (xy 0.375385 0.600824) (xy 0.381471 0.593433) (xy 0.412364 0.573664) (xy 0.448171 0.570579) )(layer F.SilkS) (width  0.000000)
  )
  (fp_poly (pts (xy -1.386177 0.671998) (xy -1.369244 0.685810) (xy -1.361213 0.694837) (xy -1.355190 0.704358) (xy -1.350892 0.717190) (xy -1.348035 0.736154) (xy -1.346335 0.764066) (xy -1.345508 0.803747)
     (xy -1.345270 0.858013) (xy -1.345328 0.923310) (xy -1.346076 0.997194) (xy -1.347965 1.067097) (xy -1.350811 1.128897) (xy -1.354429 1.178473) (xy -1.358131 1.208864) (xy -1.363637 1.244830)
     (xy -1.366770 1.272278) (xy -1.366966 1.286055) (xy -1.366676 1.286657) (xy -1.355726 1.288709) (xy -1.328910 1.291340) (xy -1.290344 1.294200) (xy -1.247279 1.296774) (xy -1.131810 1.302962)
     (xy -1.125234 1.243981) (xy -1.115244 1.164674) (xy -1.103182 1.085548) (xy -1.089677 1.009517) (xy -1.075357 0.939494) (xy -1.060853 0.878395) (xy -1.046794 0.829132) (xy -1.033809 0.794620)
     (xy -1.025042 0.780046) (xy -0.994189 0.759077) (xy -0.958622 0.754689) (xy -0.923831 0.766260) (xy -0.895305 0.793170) (xy -0.894178 0.794851) (xy -0.887351 0.806713) (xy -0.883790 0.819372)
     (xy -0.883757 0.836762) (xy -0.887519 0.862820) (xy -0.895339 0.901482) (xy -0.903997 0.940984) (xy -0.937125 1.116177) (xy -0.955819 1.278244) (xy -0.960082 1.427903) (xy -0.949916 1.565872)
     (xy -0.925322 1.692868) (xy -0.905881 1.757609) (xy -0.891138 1.810934) (xy -0.888817 1.850747) (xy -0.899439 1.879609) (xy -0.923524 1.900081) (xy -0.936033 1.906075) (xy -0.958628 1.915067)
     (xy -0.971441 1.919315) (xy -0.972179 1.919366) (xy -0.982505 1.915557) (xy -0.995000 1.910546) (xy -1.023927 1.890579) (xy -1.048062 1.855108) (xy -1.063033 1.820000) (xy -1.078551 1.770623)
     (xy -1.094272 1.709017) (xy -1.108509 1.642860) (xy -1.119573 1.579835) (xy -1.124799 1.538980) (xy -1.131275 1.472961) (xy -1.237193 1.466480) (xy -1.300555 1.462500) (xy -1.347024 1.460092)
     (xy -1.379697 1.460181) (xy -1.401670 1.463694) (xy -1.416042 1.471558) (xy -1.425907 1.484697) (xy -1.434364 1.504040) (xy -1.443605 1.528217) (xy -1.469811 1.586218) (xy -1.503432 1.647446)
     (xy -1.542049 1.708610) (xy -1.583244 1.766416) (xy -1.624597 1.817572) (xy -1.663690 1.858784) (xy -1.698103 1.886760) (xy -1.712904 1.894800) (xy -1.753256 1.902939) (xy -1.788579 1.892203)
     (xy -1.810226 1.872442) (xy -1.826017 1.846656) (xy -1.830093 1.821346) (xy -1.821464 1.793280) (xy -1.799142 1.759221) (xy -1.762500 1.716333) (xy -1.691114 1.628235) (xy -1.633442 1.534476)
     (xy -1.587646 1.431293) (xy -1.551886 1.314925) (xy -1.538995 1.259225) (xy -1.531127 1.218616) (xy -1.525113 1.178124) (xy -1.520642 1.133796) (xy -1.517405 1.081676) (xy -1.515094 1.017811)
     (xy -1.513398 0.938247) (xy -1.513269 0.930447) (xy -1.511998 0.857586) (xy -1.510675 0.802028) (xy -1.509024 0.761076) (xy -1.506770 0.732033) (xy -1.503641 0.712203) (xy -1.499360 0.698889)
     (xy -1.493653 0.689396) (xy -1.488072 0.682947) (xy -1.457372 0.663465) (xy -1.421237 0.659868) )(layer F.SilkS) (width  0.000000)
  )
  (fp_poly (pts (xy 1.648672 0.579748) (xy 1.725720 0.596596) (xy 1.791797 0.623128) (xy 1.849389 0.659977) (xy 1.873414 0.680291) (xy 1.925603 0.739123) (xy 1.961399 0.806236) (xy 1.981938 0.884163)
     (xy 1.987226 0.933912) (xy 1.985659 1.018386) (xy 1.971917 1.100958) (xy 1.947305 1.174585) (xy 1.939661 1.190663) (xy 1.893152 1.259989) (xy 1.830072 1.318311) (xy 1.750620 1.365517)
     (xy 1.655000 1.401496) (xy 1.543412 1.426137) (xy 1.504747 1.431562) (xy 1.410000 1.443206) (xy 1.410000 1.632260) (xy 1.409657 1.704480) (xy 1.408325 1.759550) (xy 1.405550 1.800312)
     (xy 1.400879 1.829608) (xy 1.393856 1.850281) (xy 1.384028 1.865172) (xy 1.370940 1.877124) (xy 1.370866 1.877181) (xy 1.340635 1.889047) (xy 1.305111 1.887130) (xy 1.272568 1.872342)
     (xy 1.264545 1.865454) (xy 1.256219 1.856649) (xy 1.250027 1.847301) (xy 1.245654 1.834512) (xy 1.242783 1.815385) (xy 1.241098 1.787022) (xy 1.240283 1.746525) (xy 1.240022 1.690999)
     (xy 1.240000 1.640454) (xy 1.239877 1.572170) (xy 1.239363 1.521336) (xy 1.238235 1.485403) (xy 1.236270 1.461822) (xy 1.233246 1.448044) (xy 1.228941 1.441521) (xy 1.223133 1.439702)
     (xy 1.222500 1.439681) (xy 1.191364 1.430980) (xy 1.170017 1.409409) (xy 1.158959 1.379809) (xy 1.158693 1.347026) (xy 1.169719 1.315901) (xy 1.192540 1.291277) (xy 1.206353 1.283790)
     (xy 1.239356 1.270000) (xy 1.410000 1.270000) (xy 1.437500 1.269651) (xy 1.460728 1.267735) (xy 1.496309 1.263011) (xy 1.536958 1.256459) (xy 1.541139 1.255720) (xy 1.627680 1.234574)
     (xy 1.696816 1.204657) (xy 1.749509 1.165115) (xy 1.786720 1.115095) (xy 1.809413 1.053743) (xy 1.816446 1.011259) (xy 1.819086 0.940727) (xy 1.810229 0.884239) (xy 1.789303 0.839091)
     (xy 1.776823 0.822910) (xy 1.746442 0.793396) (xy 1.712336 0.771874) (xy 1.670684 0.757078) (xy 1.617667 0.747740) (xy 1.549466 0.742595) (xy 1.532500 0.741916) (xy 1.410000 0.737585)
     (xy 1.410000 1.270000) (xy 1.239356 1.270000) (xy 1.240000 1.269731) (xy 1.240000 0.960336) (xy 1.240387 0.855232) (xy 1.241549 0.769669) (xy 1.243480 0.703747) (xy 1.246179 0.657570)
     (xy 1.249641 0.631239) (xy 1.251102 0.626573) (xy 1.262427 0.609032) (xy 1.280096 0.595889) (xy 1.306982 0.586368) (xy 1.345958 0.579697) (xy 1.399900 0.575101) (xy 1.451726 0.572558)
     (xy 1.558169 0.571946) )(layer F.SilkS) (width  0.000000)
  )
  (fp_poly (pts (xy 0.179880 0.763716) (xy 0.233491 0.773799) (xy 0.271254 0.790700) (xy 0.294275 0.814779) (xy 0.303655 0.846396) (xy 0.304000 0.855000) (xy 0.298821 0.887949) (xy 0.280430 0.912798)
     (xy 0.277638 0.915266) (xy 0.265588 0.924683) (xy 0.252812 0.930836) (xy 0.235298 0.934186) (xy 0.209039 0.935193) (xy 0.170023 0.934317) (xy 0.126948 0.932572) (xy 0.030868 0.932234)
     (xy -0.049810 0.940619) (xy -0.117929 0.958255) (xy -0.176333 0.985672) (xy -0.184026 0.990403) (xy -0.227682 1.026682) (xy -0.251908 1.067653) (xy -0.256644 1.113016) (xy -0.241827 1.162472)
     (xy -0.225411 1.191173) (xy -0.212127 1.208214) (xy -0.194232 1.224301) (xy -0.168486 1.241544) (xy -0.131648 1.262057) (xy -0.080477 1.287951) (xy -0.066038 1.295037) (xy 0.008913 1.334101)
     (xy 0.066541 1.370047) (xy 0.108917 1.404634) (xy 0.138112 1.439624) (xy 0.156199 1.476777) (xy 0.159185 1.486453) (xy 0.168505 1.551941) (xy 0.159206 1.611684) (xy 0.132078 1.664743)
     (xy 0.087916 1.710184) (xy 0.027511 1.747068) (xy -0.048343 1.774460) (xy -0.093082 1.784539) (xy -0.129791 1.789822) (xy -0.178127 1.794582) (xy -0.234199 1.798672) (xy -0.294118 1.801946)
     (xy -0.353993 1.804256) (xy -0.409934 1.805457) (xy -0.458051 1.805401) (xy -0.494454 1.803942) (xy -0.515252 1.800934) (xy -0.516431 1.800498) (xy -0.546842 1.778432) (xy -0.564572 1.746806)
     (xy -0.568296 1.711411) (xy -0.556693 1.678040) (xy -0.547109 1.666199) (xy -0.537522 1.657758) (xy -0.526014 1.651500) (xy -0.509383 1.646937) (xy -0.484423 1.643580) (xy -0.447934 1.640941)
     (xy -0.396710 1.638534) (xy -0.354609 1.636886) (xy -0.267662 1.632834) (xy -0.197848 1.627712) (xy -0.142311 1.621115) (xy -0.098196 1.612639) (xy -0.062648 1.601879) (xy -0.040540 1.592387)
     (xy -0.012001 1.574179) (xy -0.000141 1.554957) (xy -0.005486 1.533955) (xy -0.028561 1.510407) (xy -0.069892 1.483544) (xy -0.130005 1.452602) (xy -0.139499 1.448112) (xy -0.222672 1.405481)
     (xy -0.288278 1.363031) (xy -0.338597 1.318480) (xy -0.375909 1.269543) (xy -0.402496 1.213939) (xy -0.415450 1.171792) (xy -0.424945 1.098203) (xy -0.415911 1.028952) (xy -0.389561 0.965178)
     (xy -0.347108 0.908017) (xy -0.289767 0.858610) (xy -0.218750 0.818095) (xy -0.135270 0.787609) (xy -0.040541 0.768292) (xy 0.020699 0.762563) (xy 0.109317 0.760091) )(layer F.SilkS) (width  0.000000)
  )
  (fp_poly (pts (xy -0.624792 0.734229) (xy -0.609134 0.742818) (xy -0.590025 0.761099) (xy -0.578794 0.782994) (xy -0.574662 0.812770) (xy -0.576848 0.854692) (xy -0.581656 0.893088) (xy -0.586212 0.938425)
     (xy -0.589832 1.002907) (xy -0.592490 1.085700) (xy -0.594160 1.185972) (xy -0.594816 1.302888) (xy -0.594823 1.311443) (xy -0.594931 1.401184) (xy -0.595228 1.473076) (xy -0.595831 1.529271)
     (xy -0.596861 1.571919) (xy -0.598436 1.603172) (xy -0.600675 1.625180) (xy -0.603698 1.640096) (xy -0.607622 1.650069) (xy -0.612568 1.657252) (xy -0.614050 1.658943) (xy -0.642251 1.676623)
     (xy -0.677055 1.680150) (xy -0.711144 1.669734) (xy -0.729362 1.655679) (xy -0.739142 1.643175) (xy -0.746342 1.627240) (xy -0.751793 1.604008) (xy -0.756324 1.569612) (xy -0.760765 1.520186)
     (xy -0.762102 1.503179) (xy -0.765989 1.432317) (xy -0.767832 1.350715) (xy -0.767778 1.262163) (xy -0.765971 1.170451) (xy -0.762558 1.079367) (xy -0.757684 0.992701) (xy -0.751494 0.914242)
     (xy -0.744135 0.847781) (xy -0.735752 0.797106) (xy -0.734800 0.792776) (xy -0.719058 0.762201) (xy -0.691432 0.740643) (xy -0.657987 0.730515) )(layer F.SilkS) (width  0.000000)
  )
  (fp_poly (pts (xy 0.386069 -2.293755) (xy 0.375000 -2.280000) (xy 0.359972 -2.265211) (xy 0.351900 -2.260000) (xy 0.353930 -2.266246) (xy 0.365000 -2.280000) (xy 0.380027 -2.294790) (xy 0.388099 -2.300000)
     )(layer F.SilkS) (width  0.000000)
  )
  (fp_poly (pts (xy 0.436861 -2.334746) (xy 0.431275 -2.327500) (xy 0.416679 -2.311954) (xy 0.410164 -2.312021) (xy 0.410000 -2.313776) (xy 0.416833 -2.322123) (xy 0.427500 -2.331276) (xy 0.439344 -2.339925)
     )(layer F.SilkS) (width  0.000000)
  )
  (fp_poly (pts (xy 0.480000 -2.365000) (xy 0.475000 -2.360000) (xy 0.470000 -2.365000) (xy 0.475000 -2.370000) )(layer F.SilkS) (width  0.000000)
  )
)
