(footprint "PinHeader_1x16_P2.54mm_Vertical" (version 20210126) (generator pcbnew) (layer "F.Cu")
  (tedit 59FED5CC)
  (descr "Through hole straight pin header, 1x16, 2.54mm pitch, single row")
  (tags "Through hole pin header THT 1x16 2.54mm single row")
  (property "Sheetfile" "MightyPixRun2020_PCB.kicad_sch")
  (property "Sheetname" "")
  (attr through_hole)
  (fp_text reference "REF**" (at 0 -2.33 -180) (layer "F.SilkS")
    (effects (font (size 1 1) (thickness 0.15)))
    (tstamp a17022c4-6350-4482-a66d-74af5e066c62)
  )
  (fp_text value "Conn_01x16_Male" (at 0 40.43 -180) (layer "F.Fab")
    (effects (font (size 1 1) (thickness 0.15)))
    (tstamp d7e6571d-e528-47f6-addd-3ebd5f1c48e2)
  )
  (fp_text user "${REFERENCE}" (at 0 19.05 -90) (layer "F.Fab")
    (effects (font (size 1 1) (thickness 0.15)))
    (tstamp bc6ba391-0e1d-4d24-b1a3-0cbdb066d105)
  )
  (fp_line (start 1.33 1.27) (end 1.33 39.43) (layer "F.SilkS") (width 0.12) (tstamp 004c963b-0d4a-4f54-a4de-d0169502e1f6))
  (fp_line (start -1.33 -1.33) (end 0 -1.33) (layer "F.SilkS") (width 0.12) (tstamp 0e3199ce-0cdd-44e6-ae09-f7fb9d898776))
  (fp_line (start -1.33 1.27) (end -1.33 39.43) (layer "F.SilkS") (width 0.12) (tstamp 108da95c-fc8c-4721-813a-6494bb7106f0))
  (fp_line (start -1.33 0) (end -1.33 -1.33) (layer "F.SilkS") (width 0.12) (tstamp 4be90320-6d48-406a-bf00-7e427944b066))
  (fp_line (start -1.33 1.27) (end 1.33 1.27) (layer "F.SilkS") (width 0.12) (tstamp 88662269-1d41-40bd-8e6a-cab059882e47))
  (fp_line (start -1.33 39.43) (end 1.33 39.43) (layer "F.SilkS") (width 0.12) (tstamp f99448a4-1b3f-4eef-accc-6858b266b9ad))
  (fp_line (start 1.8 -1.8) (end -1.8 -1.8) (layer "F.CrtYd") (width 0.05) (tstamp 230d6dfd-e019-410f-a801-4c916bde3a84))
  (fp_line (start -1.8 -1.8) (end -1.8 39.9) (layer "F.CrtYd") (width 0.05) (tstamp 369c959d-f79d-41d4-bde5-8262801a647d))
  (fp_line (start -1.8 39.9) (end 1.8 39.9) (layer "F.CrtYd") (width 0.05) (tstamp 5b1b1b78-7e9b-45b2-a34c-859086220805))
  (fp_line (start 1.8 39.9) (end 1.8 -1.8) (layer "F.CrtYd") (width 0.05) (tstamp 927f83ab-c7fa-48d3-bd77-c9a82976105f))
  (fp_line (start -1.27 -0.635) (end -0.635 -1.27) (layer "F.Fab") (width 0.1) (tstamp 5617ff04-d895-4cef-a41d-ab693fbab90f))
  (fp_line (start 1.27 39.37) (end -1.27 39.37) (layer "F.Fab") (width 0.1) (tstamp 7f3ff64b-0cc3-4335-bc82-f6f7d03d3afe))
  (fp_line (start -1.27 39.37) (end -1.27 -0.635) (layer "F.Fab") (width 0.1) (tstamp 90682a39-dc75-452d-a271-d6a0c57667e6))
  (fp_line (start 1.27 -1.27) (end 1.27 39.37) (layer "F.Fab") (width 0.1) (tstamp a7bcaff3-7021-4e57-8086-25ce275945c9))
  (fp_line (start -0.635 -1.27) (end 1.27 -1.27) (layer "F.Fab") (width 0.1) (tstamp e9d1707e-4e06-4050-9327-a36e269f3e71))
  (pad "1" thru_hole rect (at 0 0) (locked) (size 1.7 1.7) (drill 1) (layers *.Cu *.Mask) (tstamp af21ea9d-b878-4547-90aa-9f60f5af9ae0))
  (pad "2" thru_hole oval (at 0 2.54) (locked) (size 1.7 1.7) (drill 1) (layers *.Cu *.Mask) (tstamp 7a87b60a-47a6-4627-8357-c8170a1cfd88))
  (pad "3" thru_hole oval (at 0 5.08) (locked) (size 1.7 1.7) (drill 1) (layers *.Cu *.Mask) (tstamp 8c04d5d7-9ad0-4736-bc07-f3c6f981a883))
  (pad "4" thru_hole oval (at 0 7.62) (locked) (size 1.7 1.7) (drill 1) (layers *.Cu *.Mask) (tstamp d255bd89-95cc-4553-894c-ac2e1ee0b43d))
  (pad "5" thru_hole oval (at 0 10.16) (locked) (size 1.7 1.7) (drill 1) (layers *.Cu *.Mask) (tstamp c3225a3c-e882-4cc9-874d-b1f90cc6f92a))
  (pad "6" thru_hole oval (at 0 12.7) (locked) (size 1.7 1.7) (drill 1) (layers *.Cu *.Mask) (tstamp 08fcbdf8-9f8f-4697-b214-74c3495f808a))
  (pad "7" thru_hole oval (at 0 15.24) (locked) (size 1.7 1.7) (drill 1) (layers *.Cu *.Mask) (tstamp ac1c1ecd-3bb5-48f4-a881-b39073a5379f))
  (pad "8" thru_hole oval (at 0 17.78) (locked) (size 1.7 1.7) (drill 1) (layers *.Cu *.Mask) (tstamp 8a23c213-874f-4900-9282-30fb05a9789b))
  (pad "9" thru_hole oval (at 0 20.32) (locked) (size 1.7 1.7) (drill 1) (layers *.Cu *.Mask) (tstamp f71f5e46-c6be-4459-afd4-02d0297213f1))
  (pad "10" thru_hole oval (at 0 22.86) (locked) (size 1.7 1.7) (drill 1) (layers *.Cu *.Mask) (tstamp 27c67093-dcba-4852-8c6a-9864055ff771))
  (pad "11" thru_hole oval (at 0 25.4) (locked) (size 1.7 1.7) (drill 1) (layers *.Cu *.Mask) (tstamp 16f9456d-bbcd-4468-885a-26612607dc4a))
  (pad "12" thru_hole oval (at 0 27.94) (locked) (size 1.7 1.7) (drill 1) (layers *.Cu *.Mask) (tstamp 5b983373-26b8-425f-917c-de92c9599244))
  (pad "13" thru_hole oval (at 0 30.48) (locked) (size 1.7 1.7) (drill 1) (layers *.Cu *.Mask) (tstamp 2c1887cb-17a8-4bed-8ddf-a2bdbaeb5fac))
  (pad "14" thru_hole oval (at 0 33.02) (locked) (size 1.7 1.7) (drill 1) (layers *.Cu *.Mask) (tstamp 41585af1-230a-46d7-9d26-a1311e02beb0))
  (pad "15" thru_hole oval (at 0 35.56) (locked) (size 1.7 1.7) (drill 1) (layers *.Cu *.Mask) (tstamp e020970f-f159-43ae-8509-88f1c8184e89))
  (pad "16" thru_hole oval (at 0 38.1) (locked) (size 1.7 1.7) (drill 1) (layers *.Cu *.Mask) (tstamp ed275fdd-1457-4f3f-bfc3-30427b68940e))
  (model "${KISYS3DMOD}/Connector_PinHeader_2.54mm.3dshapes/PinHeader_1x16_P2.54mm_Vertical.wrl"
    (offset (xyz 0 0 0))
    (scale (xyz 1 1 1))
    (rotate (xyz 0 0 0))
  )
)
