(module poti (layer F.Cu) (tedit 5D54100E)
  (fp_text reference REF** (at -0.14 -6.13) (layer F.SilkS)
    (effects (font (size 1 1) (thickness 0.15)))
  )
  (fp_text value poti (at -0.12 1.37) (layer F.Fab)
    (effects (font (size 1 1) (thickness 0.15)))
  )
  (fp_line (start -1.6 -4.02) (end 1.6 -4.02) (layer F.Fab) (width 0.12))
  (fp_line (start 1.6 -0.48) (end 1.6 -4.02) (layer F.Fab) (width 0.12))
  (fp_line (start 1.6 -0.48) (end -1.6 -0.48) (layer F.Fab) (width 0.12))
  (fp_line (start -1.6 -4.02) (end -1.6 -0.48) (layer F.Fab) (width 0.12))
  (fp_line (start -2.2 -5) (end 2.2 -5) (layer F.CrtYd) (width 0.12))
  (fp_line (start 2.2 -5) (end 2.2 0.5) (layer F.CrtYd) (width 0.12))
  (fp_line (start 2.2 0.5) (end -2.2 0.5) (layer F.CrtYd) (width 0.12))
  (fp_line (start -2.2 0.5) (end -2.2 -5) (layer F.CrtYd) (width 0.12))
  (fp_line (start 1 -4.2) (end 1.8 -4.2) (layer F.SilkS) (width 0.12))
  (fp_line (start 1.8 -4.2) (end 1.8 -1.9) (layer F.SilkS) (width 0.12))
  (fp_line (start 0.5 -0.3) (end -0.5 -0.3) (layer F.SilkS) (width 0.12))
  (fp_line (start -1.8 -1.9) (end -1.8 -4.2) (layer F.SilkS) (width 0.12))
  (fp_line (start -1.8 -4.2) (end -1 -4.2) (layer F.SilkS) (width 0.12))
  (fp_text user 1 (at -1.04 -1.2) (layer F.Fab)
    (effects (font (size 1 1) (thickness 0.15)))
  )
  (fp_text user 3 (at 1.06 -1.2) (layer F.Fab)
    (effects (font (size 1 1) (thickness 0.15)))
  )
  (fp_text user 2 (at -0.03 -3.31) (layer F.Fab)
    (effects (font (size 1 1) (thickness 0.15)))
  )
  (pad 1 smd rect (at -1.155 0) (size 1.09 1.6) (drill (offset 0 -0.8)) (layers F.Cu F.Paste F.Mask)
    (solder_paste_margin -0.1) (clearance 0.1))
  (pad 2 smd rect (at 0 -4.5) (size 1.6 1.6) (drill (offset 0 0.8)) (layers F.Cu F.Paste F.Mask)
    (solder_paste_margin -0.1) (clearance 0.1))
  (pad 3 smd rect (at 1.155 0) (size 1.09 1.6) (drill (offset 0 -0.8)) (layers F.Cu F.Paste F.Mask)
    (solder_paste_margin -0.1) (clearance 0.1))
)
