(footprint "R_0603_1608Metric_Pad0.98x0.95mm_HandSolder" (version 20210126) (generator pcbnew) (layer "F.Cu")
  (tedit 5F68FEEE)
  (descr "Resistor SMD 0603 (1608 Metric), square (rectangular) end terminal, IPC_7351 nominal with elongated pad for handsoldering. (Body size source: IPC-SM-782 page 72, https://www.pcb-3d.com/wordpress/wp-content/uploads/ipc-sm-782a_amendment_1_and_2.pdf), generated with kicad-footprint-generator")
  (tags "resistor handsolder")
  (property "Sheetfile" "Analog_connections.kicad_sch")
  (property "Sheetname" "Analog_connections")
  (attr smd)
  (fp_text reference "REF**" (at 0 -1.43 180) (layer "F.SilkS")
    (effects (font (size 1 1) (thickness 0.15)))
    (tstamp a6f3b50c-99de-4793-9813-6ac15cc884f3)
  )
  (fp_text value "10k" (at 0 1.43 180) (layer "F.Fab")
    (effects (font (size 1 1) (thickness 0.15)))
    (tstamp 83773c56-a8a1-4f62-a6b2-69512a96ef8e)
  )
  (fp_text user "${REFERENCE}" (at 0 0 180) (layer "F.Fab")
    (effects (font (size 0.4 0.4) (thickness 0.06)))
    (tstamp da9b1a54-5c24-47a0-975b-42d6f31269f6)
  )
  (fp_line (start -0.254724 -0.5225) (end 0.254724 -0.5225) (layer "F.SilkS") (width 0.12) (tstamp 08b9d348-c9fb-4ad6-84ca-9609682fcf54))
  (fp_line (start -0.254724 0.5225) (end 0.254724 0.5225) (layer "F.SilkS") (width 0.12) (tstamp 7f77dbd2-de46-4dc2-b159-22e39636ec36))
  (fp_line (start -1.65 0.73) (end -1.65 -0.73) (layer "F.CrtYd") (width 0.05) (tstamp 77f4c418-d3a6-4b90-b0b7-ffae4f68d435))
  (fp_line (start 1.65 0.73) (end -1.65 0.73) (layer "F.CrtYd") (width 0.05) (tstamp aae649b4-556f-4e03-b6e0-5a8d647770a8))
  (fp_line (start 1.65 -0.73) (end 1.65 0.73) (layer "F.CrtYd") (width 0.05) (tstamp bed279fd-e373-4f25-9e94-0589af9aa30b))
  (fp_line (start -1.65 -0.73) (end 1.65 -0.73) (layer "F.CrtYd") (width 0.05) (tstamp d6950d25-917f-4e37-81cb-df7925fa422e))
  (fp_line (start -0.8 0.4125) (end -0.8 -0.4125) (layer "F.Fab") (width 0.1) (tstamp 124c1b7d-38b4-42fe-a093-9c32f780d272))
  (fp_line (start -0.8 -0.4125) (end 0.8 -0.4125) (layer "F.Fab") (width 0.1) (tstamp 44573653-7283-4c18-adae-da71cac4ef73))
  (fp_line (start 0.8 -0.4125) (end 0.8 0.4125) (layer "F.Fab") (width 0.1) (tstamp d13048ba-038f-4fec-bf93-06fe188835a3))
  (fp_line (start 0.8 0.4125) (end -0.8 0.4125) (layer "F.Fab") (width 0.1) (tstamp d150a985-cbd1-4bad-bf9a-d00706a38e3a))
  (pad "1" smd roundrect (at -0.9125 0 180) (locked) (size 0.975 0.95) (layers "F.Cu" "F.Paste" "F.Mask") (roundrect_rratio 0.25) (tstamp 33df750a-0d07-4139-a426-a0774b58a3ef))
  (pad "2" smd roundrect (at 0.9125 0 180) (locked) (size 0.975 0.95) (layers "F.Cu" "F.Paste" "F.Mask") (roundrect_rratio 0.25) (tstamp a135466f-19f7-4a71-aa78-a682ffe33598))
  (model "${KISYS3DMOD}/Resistor_SMD.3dshapes/R_0603_1608Metric.wrl"
    (offset (xyz 0 0 0))
    (scale (xyz 1 1 1))
    (rotate (xyz 0 0 0))
  )
)
