(footprint "SOT-23-5_HandSoldering" (version 20210126) (generator pcbnew) (layer "F.Cu")
  (tedit 5A0AB76C)
  (descr "5-pin SOT23 package")
  (tags "SOT-23-5 hand-soldering")
  (property "Arrow Part Number" "LMV721M5")
  (property "Arrow Price/Stock" "https://www.arrow.com/en/products/lmv721m5/texas-instruments")
  (property "Description" "Operational Amplifier")
  (property "Height" "1.45")
  (property "Manufacturer_Name" "Texas Instruments")
  (property "Manufacturer_Part_Number" "LMV721M5")
  (property "Mouser Part Number" "926-LMV721M5")
  (property "Mouser Price/Stock" "https://www.mouser.com/Search/Refine.aspx?Keyword=926-LMV721M5")
  (property "Sheetfile" "Analog_connections.kicad_sch")
  (property "Sheetname" "Analog_connections")
  (attr smd)
  (fp_text reference "REF**" (at -3.6684 1.6002 -180) (layer "F.SilkS")
    (effects (font (size 1 1) (thickness 0.15)))
    (tstamp ab49a921-622e-48d3-83db-54d2d81a7766)
  )
  (fp_text value "LMV721M5" (at 0 2.9 -180) (layer "F.Fab")
    (effects (font (size 1 1) (thickness 0.15)))
    (tstamp c23a04db-4871-4c9f-a753-e54baf058b49)
  )
  (fp_text user "${REFERENCE}" (at 0 0 -90) (layer "F.Fab")
    (effects (font (size 0.5 0.5) (thickness 0.075)))
    (tstamp 9910c986-34e4-4a20-8d80-4478287aed91)
  )
  (fp_line (start -0.9 1.61) (end 0.9 1.61) (layer "F.SilkS") (width 0.12) (tstamp 7b18bb7c-a982-48e9-9669-eb2d5c69e406))
  (fp_line (start 0.9 -1.61) (end -1.55 -1.61) (layer "F.SilkS") (width 0.12) (tstamp c0b08240-1469-482d-91e6-c97633282bd4))
  (fp_line (start -2.38 -1.8) (end 2.38 -1.8) (layer "F.CrtYd") (width 0.05) (tstamp 36c13e59-0f3c-480c-8f7e-1bd50064b9c3))
  (fp_line (start 2.38 1.8) (end 2.38 -1.8) (layer "F.CrtYd") (width 0.05) (tstamp 3d21b0cb-9b71-4f88-b169-e5a83816cffd))
  (fp_line (start 2.38 1.8) (end -2.38 1.8) (layer "F.CrtYd") (width 0.05) (tstamp 46d089ee-fcff-4cb5-8b39-69b757f96a01))
  (fp_line (start -2.38 -1.8) (end -2.38 1.8) (layer "F.CrtYd") (width 0.05) (tstamp 5df3e973-c49e-464f-94ec-279900b91038))
  (fp_line (start 0.9 1.55) (end -0.9 1.55) (layer "F.Fab") (width 0.1) (tstamp 3eb726a8-50f9-4691-aec0-8242ff6c5b04))
  (fp_line (start 0.9 -1.55) (end -0.25 -1.55) (layer "F.Fab") (width 0.1) (tstamp 3eba483b-615c-4c09-9219-52d62c7cf66c))
  (fp_line (start -0.9 -0.9) (end -0.25 -1.55) (layer "F.Fab") (width 0.1) (tstamp b2c620c0-ab7f-4feb-989f-d62c2bc3c55b))
  (fp_line (start 0.9 -1.55) (end 0.9 1.55) (layer "F.Fab") (width 0.1) (tstamp bc20dff1-d075-44d3-a0da-d478cecb8aac))
  (fp_line (start -0.9 -0.9) (end -0.9 1.55) (layer "F.Fab") (width 0.1) (tstamp e4d9d4b5-ed07-4408-849e-5bf9587546ba))
  (pad "1" smd rect (at -1.35 -0.95) (locked) (size 1.56 0.65) (layers "F.Cu" "F.Paste" "F.Mask") (tstamp f317746b-5649-4142-9a7b-de5bf13c1217))
  (pad "2" smd rect (at -1.35 0) (locked) (size 1.56 0.65) (layers "F.Cu" "F.Paste" "F.Mask") (tstamp e7ce460c-9f0b-4619-8cb4-217224fcc470))
  (pad "3" smd rect (at -1.35 0.95) (locked) (size 1.56 0.65) (layers "F.Cu" "F.Paste" "F.Mask") (tstamp 9e6f33f2-1ec1-49dd-ab7c-98f2fc3d7ac7))
  (pad "4" smd rect (at 1.35 0.95) (locked) (size 1.56 0.65) (layers "F.Cu" "F.Paste" "F.Mask") (tstamp 2da00a15-d890-4e95-b469-b273c17387c4))
  (pad "5" smd rect (at 1.35 -0.95) (locked) (size 1.56 0.65) (layers "F.Cu" "F.Paste" "F.Mask") (tstamp 512765e6-4e11-4f28-bd58-65728f8c1a58))
  (model "${KISYS3DMOD}/Package_TO_SOT_SMD.3dshapes/SOT-23-5.wrl"
    (offset (xyz 0 0 0))
    (scale (xyz 1 1 1))
    (rotate (xyz 0 0 0))
  )
)
