(footprint "tsi_mpw_chip_two_row" (version 20210126) (generator pcbnew) locked (layer "F.Cu")
  (tedit 602ABDEC)
  (property "Sheetfile" "MightyPixRun2020_PCB.kicad_sch")
  (property "Sheetname" "")
  (solder_mask_margin -1)
  (solder_paste_ratio -0.5)
  (clearance 0.1)
  (attr exclude_from_pos_files)
  (fp_text reference "REF**" (at -10.9222 -8.5982) (layer "F.SilkS")
    (effects (font (size 1 1) (thickness 0.15)))
    (tstamp 7f5bb2cc-3e55-4af6-832f-a60f1b155481)
  )
  (fp_text value "MPW_Chip" (at 1.25 -10.5) (layer "F.Fab")
    (effects (font (size 1 1) (thickness 0.15)))
    (tstamp e4fd5991-7e66-49b3-aca8-d04141c1859e)
  )
  (fp_text user "24" (at -0.05 2.15 90) (layer "Dwgs.User")
    (effects (font (size 0.05 0.05) (thickness 0.005)))
    (tstamp 3f3bf62e-718f-45ae-8df1-4a4f60c68ee4)
  )
  (fp_text user "48" (at 2.35 2.15 90) (layer "Dwgs.User")
    (effects (font (size 0.05 0.05) (thickness 0.001)))
    (tstamp 4dabfc4a-cc67-48ea-83aa-d7b43489edc9)
  )
  (fp_text user "62" (at 2.4 -2.2) (layer "Dwgs.User")
    (effects (font (size 0.05 0.05) (thickness 0.001)))
    (tstamp b0e3927e-3c22-4005-962a-4815cdba23ce)
  )
  (fp_text user "49" (at -2.3 -2.2) (layer "Dwgs.User")
    (effects (font (size 0.05 0.05) (thickness 0.001)))
    (tstamp c7184961-cea4-4603-8a34-991a6ec7bab5)
  )
  (fp_text user "78" (at 2.35 1.9) (layer "Dwgs.User")
    (effects (font (size 0.05 0.05) (thickness 0.001)))
    (tstamp d4fd0e04-c5df-48ef-b645-8be137e1ca06)
  )
  (fp_text user "77" (at 2.4 -0.4) (layer "Dwgs.User")
    (effects (font (size 0.05 0.05) (thickness 0.001)))
    (tstamp e4ec33c8-1af2-44cf-b657-e7b2c982f040)
  )
  (fp_text user "61" (at -2.4 -0.7) (layer "Dwgs.User")
    (effects (font (size 0.05 0.05) (thickness 0.001)))
    (tstamp edfa089e-6552-4174-9210-55da8c551e97)
  )
  (fp_text user "1" (at -2.35 2.15 90) (layer "Dwgs.User")
    (effects (font (size 0.05 0.05) (thickness 0.001)))
    (tstamp ef01bd1f-7d6e-4406-b98c-aa979900854b)
  )
  (fp_text user "36" (at 1.1336 2.318 unlocked) (layer "User.2")
    (effects (font (size 0.03 0.03) (thickness 0.0075)))
    (tstamp a30bc17d-b260-4a6f-878d-ee1aacfc5f80)
  )
  (fp_text user "12" (at -1.2664 2.318 unlocked) (layer "User.2")
    (effects (font (size 0.03 0.03) (thickness 0.0075)))
    (tstamp ac3198f3-5007-44a0-9c6b-768eb2954b1c)
  )
  (fp_poly (pts (xy 4.35 4.4)
    (xy -5.4 4.4)
    (xy -5.4 -4.02)
    (xy 4.35 -4.02)) (layer "B.Mask") (width 0.1) (fill solid) (tstamp dabbcd99-ad43-483f-ad5a-f58323ef5fcc))
  (fp_poly (pts (xy 8.4 8.2)
    (xy -8.4 8.2)
    (xy -8.4 -5.4)
    (xy 8.4 -5.4)) (layer "F.Mask") (width 0.1) (fill solid) (tstamp 247f8d70-23bf-44f0-8118-59dd8fed2d19))
  (fp_line (start 2.275 2.385) (end 2.2 2.385) (layer "Dwgs.User") (width 0.01) (tstamp 00722bed-8bf1-413c-a501-4012cc909c25))
  (fp_line (start -1.8 2.245) (end -1.8 2.385) (layer "Dwgs.User") (width 0.01) (tstamp 0119bc97-3203-4ac2-8b55-c806b3aa35fc))
  (fp_line (start -0.2 2.245) (end -0.125 2.245) (layer "Dwgs.User") (width 0.01) (tstamp 01db7fcb-4a0a-4342-a486-176252da5242))
  (fp_line (start 2.475 -0.775) (end 2.4 -0.775) (layer "Dwgs.User") (width 0.01) (tstamp 026661a5-9e41-4ff4-a06d-728bb6dfa910))
  (fp_line (start -0.625 2.245) (end -0.625 2.385) (layer "Dwgs.User") (width 0.01) (tstamp 04bdfa9d-b7ad-401f-a7d1-632f3714c736))
  (fp_line (start -1.6 2.245) (end -1.6 2.385) (layer "Dwgs.User") (width 0.01) (tstamp 05617958-c6aa-4d6e-a31e-6c0c16b47a21))
  (fp_line (start -0.225 2.245) (end -0.225 2.385) (layer "Dwgs.User") (width 0.01) (tstamp 07f44933-c56d-4ccc-a393-fabaea4c8df8))
  (fp_line (start 2.2 2.245) (end 2.275 2.245) (layer "Dwgs.User") (width 0.01) (tstamp 09994816-381f-44ff-9d1c-a1978794073d))
  (fp_line (start 1.975 2.385) (end 1.9 2.385) (layer "Dwgs.User") (width 0.01) (tstamp 0a349107-8a94-4dec-ac60-5b908571acb5))
  (fp_line (start 2.3 1.98) (end 2.3 2.055) (layer "Dwgs.User") (width 0.01) (tstamp 0b26289f-2207-4f81-9c67-0d829832dfe1))
  (fp_line (start -2.475 -1.15) (end -2.475 -1.075) (layer "Dwgs.User") (width 0.01) (tstamp 0b94039a-a8d0-490d-8fdc-ec1b1d06edaf))
  (fp_line (start 2.475 -1.275) (end 2.4 -1.275) (layer "Dwgs.User") (width 0.01) (tstamp 0b995d93-8344-4703-adad-1e517ddf77e0))
  (fp_line (start -0.325 2.245) (end -0.325 2.385) (layer "Dwgs.User") (width 0.01) (tstamp 0c001461-655c-4bce-8c6e-0b737cab94b4))
  (fp_line (start -2.4 -1.45) (end -2.4 -1.375) (layer "Dwgs.User") (width 0.01) (tstamp 0c97d8eb-a087-4617-9e1c-2c8bf0447b49))
  (fp_line (start 2.4 -2.15) (end 2.4 -2.075) (layer "Dwgs.User") (width 0.01) (tstamp 0e252dc3-6693-40a8-95ee-4eab993c4357))
  (fp_line (start 2.175 2.385) (end 2.1 2.385) (layer "Dwgs.User") (width 0.01) (tstamp 0e42321a-905a-4d6e-96c1-07cbdce83e42))
  (fp_line (start 2.375 2.245) (end 2.375 2.385) (layer "Dwgs.User") (width 0.01) (tstamp 0e461770-c2ff-4906-a02b-00260e90cbe9))
  (fp_line (start -0.4 2.245) (end -0.4 2.385) (layer "Dwgs.User") (width 0.01) (tstamp 0fbfdc90-30ba-4cb3-a5a5-131fed34b4f9))
  (fp_line (start 2.375 2.055) (end 2.3 2.055) (layer "Dwgs.User") (width 0.01) (tstamp 104f6731-cd81-47de-870c-13609b051840))
  (fp_line (start 0.6 2.245) (end 0.6 2.385) (layer "Dwgs.User") (width 0.01) (tstamp 12c7cf22-a61a-4f02-bf7b-20cfbf3bcedf))
  (fp_line (start 1.1 2.245) (end 1.1 2.385) (layer "Dwgs.User") (width 0.01) (tstamp 13f8daa4-f62a-471c-9087-81219e2b3257))
  (fp_line (start -1.125 2.245) (end -1.125 2.385) (layer "Dwgs.User") (width 0.01) (tstamp 148786d8-69cd-4c0f-a92f-3dd966bed760))
  (fp_line (start 0.3 2.245) (end 0.3 2.385) (layer "Dwgs.User") (width 0.01) (tstamp 14c1cfcf-271c-4f8c-becf-7f1691425d50))
  (fp_line (start -1 2.245) (end -1 2.385) (layer "Dwgs.User") (width 0.01) (tstamp 16b14487-b31e-47c5-9bc6-6e19e9f1ed64))
  (fp_line (start -2.475 -1.85) (end -2.475 -1.775) (layer "Dwgs.User") (width 0.01) (tstamp 17ff871c-593e-473b-ba29-95362ce4c1ad))
  (fp_line (start -2.4 -0.975) (end -2.475 -0.975) (layer "Dwgs.User") (width 0.01) (tstamp 186a529d-b370-4c2b-9f81-2ebfb6f781b1))
  (fp_line (start -1.525 2.385) (end -1.6 2.385) (layer "Dwgs.User") (width 0.01) (tstamp 1874374f-28a5-4fb0-9924-683f37826def))
  (fp_line (start 0.075 2.385) (end 0 2.385) (layer "Dwgs.User") (width 0.01) (tstamp 19d3b338-758b-4ce6-89bb-8f6a2459a9e0))
  (fp_line (start -0.625 2.385) (end -0.7 2.385) (layer "Dwgs.User") (width 0.01) (tstamp 1a3238bf-e095-48af-a47c-d79dc3b1c8d2))
  (fp_line (start -0.1 2.245) (end -0.025 2.245) (layer "Dwgs.User") (width 0.01) (tstamp 1b9ec238-5f9b-44b5-b1eb-0118568840e4))
  (fp_line (start -2.4 -1.875) (end -2.475 -1.875) (layer "Dwgs.User") (width 0.01) (tstamp 1e1358b0-3d7a-4a1b-a256-81d39addbff8))
  (fp_line (start -0.7 2.245) (end -0.625 2.245) (layer "Dwgs.User") (width 0.01) (tstamp 1eb773d9-bc4f-4037-9daf-7bb70acc39a4))
  (fp_line (start 0.1 2.245) (end 0.1 2.385) (layer "Dwgs.User") (width 0.01) (tstamp 20e0dc6d-a71e-41ec-b7aa-7e05a6eb353d))
  (fp_line (start -0.8 2.245) (end -0.8 2.385) (layer "Dwgs.User") (width 0.01) (tstamp 223d86d2-8f3d-407b-b77e-bc6c4ff37d24))
  (fp_line (start 2.4 -1.65) (end 2.4 -1.575) (layer "Dwgs.User") (width 0.01) (tstamp 224e243e-6c95-449b-8c5f-c02fcc8fbf39))
  (fp_line (start -2.125 2.385) (end -2.2 2.385) (layer "Dwgs.User") (width 0.01) (tstamp 2278d924-603e-4022-938f-cf2915c77cbc))
  (fp_line (start 2.475 -0.875) (end 2.4 -0.875) (layer "Dwgs.User") (width 0.01) (tstamp 227b2412-5ad5-4748-b6a9-2429f71973a0))
  (fp_line (start 0.5 2.245) (end 0.575 2.245) (layer "Dwgs.User") (width 0.01) (tstamp 23c88235-f43e-4408-befb-75a8b7789eaa))
  (fp_line (start -2.4 -1.05) (end -2.4 -0.975) (layer "Dwgs.User") (width 0.01) (tstamp 2433194f-5b7b-485e-ac58-4b4afd7710aa))
  (fp_line (start -1.2 2.245) (end -1.125 2.245) (layer "Dwgs.User") (width 0.01) (tstamp 2689c115-40ba-4822-8c4f-989c2546740d))
  (fp_line (start -2.475 -0.95) (end -2.4 -0.95) (layer "Dwgs.User") (width 0.01) (tstamp 27a84810-ce2c-4f8a-b9b1-e2b1fba1af55))
  (fp_line (start 2.475 -1.15) (end 2.475 -1.075) (layer "Dwgs.User") (width 0.01) (tstamp 27c4671b-3077-4b02-8dd3-ce79a95ac248))
  (fp_line (start -0.825 2.385) (end -0.9 2.385) (layer "Dwgs.User") (width 0.01) (tstamp 28e66be2-6edf-4140-a78f-3b29422232ea))
  (fp_line (start 1.875 2.245) (end 1.875 2.385) (layer "Dwgs.User") (width 0.01) (tstamp 2a91b044-35d5-4cd0-92ac-7578c6ab5a8a))
  (fp_line (start 1.175 2.245) (end 1.175 2.385) (layer "Dwgs.User") (width 0.01) (tstamp 2b4c21c5-796d-4e56-b0a1-d8e6e426e6a3))
  (fp_line (start -2.4 -1.275) (end -2.475 -1.275) (layer "Dwgs.User") (width 0.01) (tstamp 2dacee30-d7d4-4e98-8b2c-f0ae1562f63a))
  (fp_line (start 0.375 2.245) (end 0.375 2.385) (layer "Dwgs.User") (width 0.01) (tstamp 2ef130d5-362f-478e-87eb-85a493a5b6a1))
  (fp_line (start 0.7 2.245) (end 0.7 2.385) (layer "Dwgs.User") (width 0.01) (tstamp 2f6f834f-af08-4f1f-839a-bf86c067fe0c))
  (fp_line (start -1.7 2.245) (end -1.7 2.385) (layer "Dwgs.User") (width 0.01) (tstamp 3099a65e-62cc-4acf-bf7e-9397ca0f992c))
  (fp_line (start -2.125 2.245) (end -2.125 2.385) (layer "Dwgs.User") (width 0.01) (tstamp 30fe8a9c-3492-4b2a-b207-4049a32d2693))
  (fp_line (start 2.475 -1.775) (end 2.4 -1.775) (layer "Dwgs.User") (width 0.01) (tstamp 3123285a-e652-4a1f-b098-a817ac40e98f))
  (fp_line (start -0.925 2.385) (end -1 2.385) (layer "Dwgs.User") (width 0.01) (tstamp 31a56783-93a5-4d16-ac64-f38becd2725a))
  (fp_line (start -0.725 2.245) (end -0.725 2.385) (layer "Dwgs.User") (width 0.01) (tstamp 31a91520-06a6-4668-a049-9bc452337660))
  (fp_line (start -2.475 -1.25) (end -2.4 -1.25) (layer "Dwgs.User") (width 0.01) (tstamp 338701af-83a9-4029-a045-35ab832f45ad))
  (fp_line (start -1.525 2.245) (end -1.525 2.385) (layer "Dwgs.User") (width 0.01) (tstamp 33a14c1e-5cf9-49ab-972f-bb9b2295ff83))
  (fp_line (start 0.575 2.245) (end 0.575 2.385) (layer "Dwgs.User") (width 0.01) (tstamp 3426fa01-cee0-4910-b177-f6d7f70d37f6))
  (fp_line (start 2.4 -0.85) (end 2.4 -0.775) (layer "Dwgs.User") (width 0.01) (tstamp 345107f4-18c5-45bb-ad11-d62fb5ce3fba))
  (fp_line (start 2.5 2.42) (end -2.5 2.42) (layer "Dwgs.User") (width 0.01) (tstamp 35b082c2-a3fc-486b-bcc7-287de9c8430e))
  (fp_line (start -0.6 2.245) (end -0.6 2.385) (layer "Dwgs.User") (width 0.01) (tstamp 368b09a0-24f4-473d-8c63-8e3775f1e8e6))
  (fp_line (start 2.475 -0.65) (end 2.475 -0.575) (layer "Dwgs.User") (width 0.01) (tstamp 3815118a-ce42-4781-9d08-d8bd413b778c))
  (fp_line (start -2.475 -1.05) (end -2.4 -1.05) (layer "Dwgs.User") (width 0.01) (tstamp 38905f2d-1d22-4b13-b293-cf3a8b743c59))
  (fp_line (start -0.4 2.245) (end -0.325 2.245) (layer "Dwgs.User") (width 0.01) (tstamp 3991b2b9-738d-4ee8-bcf3-e71d53518b5a))
  (fp_line (start 2.475 -1.75) (end 2.475 -1.675) (layer "Dwgs.User") (width 0.01) (tstamp 39f8f7e8-5b74-4cac-8309-de3db5f17f54))
  (fp_line (start -2.475 -1.75) (end -2.4 -1.75) (layer "Dwgs.User") (width 0.01) (tstamp 39f9cce0-ce2b-4c0a-b53c-b50c737826a3))
  (fp_line (start 2.4 -1.95) (end 2.475 -1.95) (layer "Dwgs.User") (width 0.01) (tstamp 3ab84546-7033-46fc-91e5-1e1b4da84631))
  (fp_line (start 1.275 2.385) (end 1.2 2.385) (layer "Dwgs.User") (width 0.01) (tstamp 3d8de4cb-18ba-4cd5-b4d5-366abec0067b))
  (fp_line (start 0.975 2.245) (end 0.975 2.385) (layer "Dwgs.User") (width 0.01) (tstamp 3e3ce8ee-b1ef-4ef7-bd64-9342997b09b2))
  (fp_line (start -0.125 2.385) (end -0.2 2.385) (layer "Dwgs.User") (width 0.01) (tstamp 3e54f138-1e5d-461a-8db9-40e44c9ccecc))
  (fp_line (start -2.1 2.245) (end -2.1 2.385) (layer "Dwgs.User") (width 0.01) (tstamp 3ebc5bae-f5c2-4442-8610-d2f8acd48d32))
  (fp_line (start 2.475 -1.65) (end 2.475 -1.575) (layer "Dwgs.User") (width 0.01) (tstamp 40507b3c-bdcf-4b36-bac0-f7b5e20c16ff))
  (fp_line (start 2.4 -0.65) (end 2.475 -0.65) (layer "Dwgs.User") (width 0.01) (tstamp 41aeed69-2f3d-46af-95e6-7d472268f106))
  (fp_line (start -2.4 -0.95) (end -2.4 -0.875) (layer "Dwgs.User") (width 0.01) (tstamp 41cc357b-6b72-44d9-aafe-5adacc95def9))
  (fp_line (start 1.6 2.245) (end 1.675 2.245) (layer "Dwgs.User") (width 0.01) (tstamp 426eb591-e9c5-4080-8107-59318e196028))
  (fp_line (start -2.475 -1.55) (end -2.4 -1.55) (layer "Dwgs.User") (width 0.01) (tstamp 43a43370-4b24-4ec0-a8bb-6e7576644341))
  (fp_line (start 2.4 -1.65) (end 2.475 -1.65) (layer "Dwgs.User") (width 0.01) (tstamp 43ab8338-f813-48a3-ad55-7340787776b2))
  (fp_line (start -0.325 2.385) (end -0.4 2.385) (layer "Dwgs.User") (width 0.01) (tstamp 44b1b3d0-42c4-4a11-9f93-44fb8c04e18b))
  (fp_line (start 2.1 2.245) (end 2.175 2.245) (layer "Dwgs.User") (width 0.01) (tstamp 45576234-0254-45d7-b8f7-58ddd6adf19b))
  (fp_line (start -2.475 -1.65) (end -2.4 -1.65) (layer "Dwgs.User") (width 0.01) (tstamp 469e8585-916a-41e2-95c7-4b72ca15ec45))
  (fp_line (start 2.475 -1.075) (end 2.4 -1.075) (layer "Dwgs.User") (width 0.01) (tstamp 46bc8567-1dcc-4ae8-8e7c-48a16ba0373a))
  (fp_line (start 2.475 -1.875) (end 2.4 -1.875) (layer "Dwgs.User") (width 0.01) (tstamp 47996498-c7c5-4fec-9d52-f91b624776a3))
  (fp_line (start 2.2 2.245) (end 2.2 2.385) (layer "Dwgs.User") (width 0.01) (tstamp 482f0720-c469-46a7-9cb3-e7cce1a7933f))
  (fp_line (start -1.8 2.245) (end -1.725 2.245) (layer "Dwgs.User") (width 0.01) (tstamp 494b444b-4a04-4836-ad14-0e5ad22ec5ad))
  (fp_line (start 2.075 2.385) (end 2 2.385) (layer "Dwgs.User") (width 0.01) (tstamp 4a545711-6b34-48f6-8d54-833f4bf93212))
  (fp_line (start -2.4 -1.675) (end -2.475 -1.675) (layer "Dwgs.User") (width 0.01) (tstamp 4a68c7fc-2957-43cc-8458-e4509cbd9ab3))
  (fp_line (start -0.8 2.245) (end -0.725 2.245) (layer "Dwgs.User") (width 0.01) (tstamp 4bb06ac5-27af-4fbc-a34b-99d37066fcae))
  (fp_line (start 0.175 2.245) (end 0.175 2.385) (layer "Dwgs.User") (width 0.01) (tstamp 4cadc5e1-198f-4451-8252-34a048895b19))
  (fp_line (start -2.1 2.245) (end -2.025 2.245) (layer "Dwgs.User") (width 0.01) (tstamp 4f165300-6248-40d0-9d6c-6e94aeaf04e0))
  (fp_line (start 0.275 2.385) (end 0.2 2.385) (layer "Dwgs.User") (width 0.01) (tstamp 50cbaed5-b470-44c2-a728-283b956624ff))
  (fp_line (start 1.475 2.385) (end 1.4 2.385) (layer "Dwgs.User") (width 0.01) (tstamp 512c0533-946b-447d-aed9-389f8bfa40d0))
  (fp_line (start 0.775 2.385) (end 0.7 2.385) (layer "Dwgs.User") (width 0.01) (tstamp 51cd7d35-0ef8-4920-bcf8-b6f581141365))
  (fp_line (start 1.6 2.245) (end 1.6 2.385) (layer "Dwgs.User") (width 0.01) (tstamp 51e7ad35-dbff-46f0-add9-2a361899384f))
  (fp_line (start -2.4 -1.95) (end -2.4 -1.875) (layer "Dwgs.User") (width 0.01) (tstamp 524851c5-52af-40e8-a5c3-914cbbc0755b))
  (fp_line (start 0.4 2.245) (end 0.4 2.385) (layer "Dwgs.User") (width 0.01) (tstamp 52ca2713-b201-4441-9fa4-68f539aa565c))
  (fp_line (start -2.2 2.245) (end -2.125 2.245) (layer "Dwgs.User") (width 0.01) (tstamp 53394718-f3d5-4ddf-bc01-40e521fd6e62))
  (fp_line (start -0.9 2.245) (end -0.825 2.245) (layer "Dwgs.User") (width 0.01) (tstamp 54151a02-ba7d-4fa4-a49c-992067bc27d9))
  (fp_line (start -1.725 2.245) (end -1.725 2.385) (layer "Dwgs.User") (width 0.01) (tstamp 54a7b304-14ce-4332-910f-8d1aca1b6ffc))
  (fp_line (start 1.9 2.245) (end 1.975 2.245) (layer "Dwgs.User") (width 0.01) (tstamp 54da0b7b-871a-480a-ab41-6957311e6650))
  (fp_line (start 0.1 2.245) (end 0.175 2.245) (layer "Dwgs.User") (width 0.01) (tstamp 57169aad-4d58-4bba-be44-c77d48074e51))
  (fp_line (start 2.4 -0.55) (end 2.475 -0.55) (layer "Dwgs.User") (width 0.01) (tstamp 57c408c8-5a02-4e33-b4fd-8f99ee66104e))
  (fp_line (start -1.9 2.245) (end -1.9 2.385) (layer "Dwgs.User") (width 0.01) (tstamp 57ca3337-4db6-4283-bb30-a797bb8dc42c))
  (fp_line (start 2.4 -1.15) (end 2.475 -1.15) (layer "Dwgs.User") (width 0.01) (tstamp 59555ee0-7188-4bed-b1f4-b0b22148f76a))
  (fp_line (start 2.3 1.98) (end 2.375 1.98) (layer "Dwgs.User") (width 0.01) (tstamp 5a102f09-7baf-40e3-9fd9-1c2063bb0d43))
  (fp_line (start -2.475 -0.85) (end -2.4 -0.85) (layer "Dwgs.User") (width 0.01) (tstamp 5a3f4cc3-94f0-46a8-9f8b-1e02e8d352c3))
  (fp_line (start 2.475 -2.075) (end 2.4 -2.075) (layer "Dwgs.User") (width 0.01) (tstamp 5ca78628-5107-495b-bf9f-4fdbbc50ae5c))
  (fp_line (start 1 2.245) (end 1 2.385) (layer "Dwgs.User") (width 0.01) (tstamp 5d920811-45b3-40b5-b6d5-87af7e456184))
  (fp_line (start 2.475 -0.75) (end 2.475 -0.675) (layer "Dwgs.User") (width 0.01) (tstamp 5e2b46ed-7439-4c54-b2dc-15f582aba826))
  (fp_line (start 0.9 2.245) (end 0.9 2.385) (layer "Dwgs.User") (width 0.01) (tstamp 5e6c00dd-0260-4857-bb4b-8d2a9c0314c9))
  (fp_line (start 2.4 -1.05) (end 2.4 -0.975) (layer "Dwgs.User") (width 0.01) (tstamp 5edf85b2-fbcd-4a9b-9806-3c7114945bf8))
  (fp_line (start -0.1 2.245) (end -0.1 2.385) (layer "Dwgs.User") (width 0.01) (tstamp 5f0ee957-5cbc-4f95-a940-f7ff2ded4575))
  (fp_line (start -2.475 -1.25) (end -2.475 -1.175) (layer "Dwgs.User") (width 0.01) (tstamp 60314e24-f43f-43de-8d34-dd8a1925cc06))
  (fp_line (start -1.025 2.385) (end -1.1 2.385) (layer "Dwgs.User") (width 0.01) (tstamp 60364f72-f835-4a78-a68c-cfae69f74dce))
  (fp_line (start 0.8 2.245) (end 0.8 2.385) (layer "Dwgs.User") (width 0.01) (tstamp 60a1745c-5f92-45d1-ada0-fec129eb12b1))
  (fp_line (start 0.575 2.385) (end 0.5 2.385) (layer "Dwgs.User") (width 0.01) (tstamp 60b13b63-aad6-4923-8805-209af78155ca))
  (fp_line (start -1.5 2.245) (end -1.5 2.385) (layer "Dwgs.User") (width 0.01) (tstamp 6162cc5c-ffac-44c0-9059-0420f130566d))
  (fp_line (start -1.625 2.385) (end -1.7 2.385) (layer "Dwgs.User") (width 0.01) (tstamp 617ca464-3bff-4812-b9c6-3b8cd92f044c))
  (fp_line (start -1.5 2.245) (end -1.425 2.245) (layer "Dwgs.User") (width 0.01) (tstamp 63c21c52-0c71-4881-bfd8-52111c46f7f6))
  (fp_line (start -2.4 -1.65) (end -2.4 -1.575) (layer "Dwgs.User") (width 0.01) (tstamp 647379a7-19d8-4bb9-81a3-72cf99e2a1ac))
  (fp_line (start 1.275 2.245) (end 1.275 2.385) (layer "Dwgs.User") (width 0.01) (tstamp 662472fe-24ab-483c-8c6e-024eca08750a))
  (fp_line (start 0.8 2.245) (end 0.875 2.245) (layer "Dwgs.User") (width 0.01) (tstamp 662c9827-ad41-4caa-8ad6-bcec36aef3c0))
  (fp_line (start -0.825 2.245) (end -0.825 2.385) (layer "Dwgs.User") (width 0.01) (tstamp 66b5d0fc-182e-4534-8289-f47eb45c3cd3))
  (fp_line (start 0.175 2.385) (end 0.1 2.385) (layer "Dwgs.User") (width 0.01) (tstamp 66d6ae84-20b6-476a-a04a-4ba4ee9201af))
  (fp_line (start -0.425 2.245) (end -0.425 2.385) (layer "Dwgs.User") (width 0.01) (tstamp 6926493c-b609-406e-9e46-d20313edb3b4))
  (fp_line (start 2.4 -1.15) (end 2.4 -1.075) (layer "Dwgs.User") (width 0.01) (tstamp 695c98a1-2bd3-439e-8bb1-ef512904d921))
  (fp_line (start 1.375 2.245) (end 1.375 2.385) (layer "Dwgs.User") (width 0.01) (tstamp 697bc9f0-a58d-452d-8d0d-c87caaa1cb25))
  (fp_line (start 0.7 2.245) (end 0.775 2.245) (layer "Dwgs.User") (width 0.01) (tstamp 69cabe66-a59f-4f7a-b01c-b6e12d520720))
  (fp_line (start -2.3 2.245) (end -2.3 2.385) (layer "Dwgs.User") (width 0.01) (tstamp 6b2f3988-8a35-4829-8f58-571b705de245))
  (fp_line (start 2.4 -1.25) (end 2.4 -1.175) (layer "Dwgs.User") (width 0.01) (tstamp 6c995731-b0a9-4846-af40-7fda716d4aed))
  (fp_line (start 2.475 -1.35) (end 2.475 -1.275) (layer "Dwgs.User") (width 0.01) (tstamp 6ca4eb4a-ea5d-4225-af82-040728cd93ab))
  (fp_line (start -2.5 -2.45) (end -2.5 2.42) (layer "Dwgs.User") (width 0.01) (tstamp 6ca5a9b2-4f72-442d-8630-6443eac6a4a5))
  (fp_line (start -1.3 2.245) (end -1.3 2.385) (layer "Dwgs.User") (width 0.01) (tstamp 6ee59650-0c38-452a-932d-9c8ca6c55028))
  (fp_line (start -2.475 -1.35) (end -2.475 -1.275) (layer "Dwgs.User") (width 0.01) (tstamp 6f033890-830d-4904-9429-01dc6ea64652))
  (fp_line (start 1.5 2.245) (end 1.575 2.245) (layer "Dwgs.User") (width 0.01) (tstamp 7313665a-27c7-4f9a-962a-2dd6cd3515e3))
  (fp_line (start -2.4 2.245) (end -2.4 2.385) (layer "Dwgs.User") (width 0.01) (tstamp 73be4d26-a1a2-4078-ac9c-b41fcee12799))
  (fp_line (start 0.875 2.245) (end 0.875 2.385) (layer "Dwgs.User") (width 0.01) (tstamp 7412932b-5987-460a-9490-02cf56ee0ceb))
  (fp_line (start -2.475 -2.25) (end -2.4 -2.25) (layer "Dwgs.User") (width 0.01) (tstamp 74fb2e3b-0be8-451d-b622-13aa04336d85))
  (fp_line (start -2.225 2.245) (end -2.225 2.385) (layer "Dwgs.User") (width 0.01) (tstamp 7623b4af-d194-4924-81c4-c38e20bd71b7))
  (fp_line (start -2.4 -1.15) (end -2.4 -1.075) (layer "Dwgs.User") (width 0.01) (tstamp 7699988c-34a8-495c-8b5e-13ae8d3bcf68))
  (fp_line (start -0.225 2.385) (end -0.3 2.385) (layer "Dwgs.User") (width 0.01) (tstamp 777753b6-ab72-464a-adc2-ca89be99a11b))
  (fp_line (start 0.2 2.245) (end 0.275 2.245) (layer "Dwgs.User") (width 0.01) (tstamp 77d2c6cc-e941-4b78-83eb-56884af6935b))
  (fp_line (start -2.4 -1.575) (end -2.475 -1.575) (layer "Dwgs.User") (width 0.01) (tstamp 786aa2a3-84be-4370-98b4-2302da4f9a06))
  (fp_line (start 1 2.245) (end 1.075 2.245) (layer "Dwgs.User") (width 0.01) (tstamp 78ec4540-ea24-45ce-8258-2843b936ae68))
  (fp_line (start 2.475 -0.675) (end 2.4 -0.675) (layer "Dwgs.User") (width 0.01) (tstamp 797f8ad2-58f1-42b3-a676-bf18cf33fa03))
  (fp_line (start -1.4 2.245) (end -1.325 2.245) (layer "Dwgs.User") (width 0.01) (tstamp 7a68a292-87dd-4f9b-8e34-f5a6bc36774e))
  (fp_line (start 1.075 2.245) (end 1.075 2.385) (layer "Dwgs.User") (width 0.01) (tstamp 7accb676-95b8-45b8-a935-8c162d0b3a95))
  (fp_line (start 1.575 2.385) (end 1.5 2.385) (layer "Dwgs.User") (width 0.01) (tstamp 7ae5d1d1-49c7-40de-9f54-f23e20efa53b))
  (fp_line (start 2.3 2.245) (end 2.3 2.385) (layer "Dwgs.User") (width 0.01) (tstamp 7d034926-7d1b-421e-ac10-6b412f8c8f3e))
  (fp_line (start -0.425 2.385) (end -0.5 2.385) (layer "Dwgs.User") (width 0.01) (tstamp 7d366e32-a7e5-4717-b5a1-c45a5fea0d5d))
  (fp_line (start 2.475 -1.575) (end 2.4 -1.575) (layer "Dwgs.User") (width 0.01) (tstamp 7d6329ee-6ce0-49fc-be02-cd9d658f9b6b))
  (fp_line (start -2.475 -0.95) (end -2.475 -0.875) (layer "Dwgs.User") (width 0.01) (tstamp 7d7a49a1-886d-4060-8f72-d0fa1de7c4b7))
  (fp_line (start 0.675 2.245) (end 0.675 2.385) (layer "Dwgs.User") (width 0.01) (tstamp 7e0a3fec-0b21-44b2-88ca-1448dcf61c07))
  (fp_line (start 2.475 -0.475) (end 2.4 -0.475) (layer "Dwgs.User") (width 0.01) (tstamp 7e0bbe7f-48c7-4ad8-962c-40f9c0a2897b))
  (fp_line (start 1.8 2.245) (end 1.8 2.385) (layer "Dwgs.User") (width 0.01) (tstamp 7ed6eaee-a312-4f8d-b8fc-1d2054911c17))
  (fp_line (start 2.4 -1.05) (end 2.475 -1.05) (layer "Dwgs.User") (width 0.01) (tstamp 7f94c36b-69be-4dfc-84ce-a633472c7546))
  (fp_line (start -2.4 -1.75) (end -2.4 -1.675) (layer "Dwgs.User") (width 0.01) (tstamp 7fce5fda-377e-4720-94f9-bffc46a55d44))
  (fp_line (start -0.925 2.245) (end -0.925 2.385) (layer "Dwgs.User") (width 0.01) (tstamp 80397e7f-2dce-4894-aaad-800107ca56cb))
  (fp_line (start 1.675 2.385) (end 1.6 2.385) (layer "Dwgs.User") (width 0.01) (tstamp 80deab89-0d94-4e88-b4ab-165838a20a09))
  (fp_line (start 0.775 2.245) (end 0.775 2.385) (layer "Dwgs.User") (width 0.01) (tstamp 80ef5c18-f9a5-4eeb-9587-ed4530424744))
  (fp_line (start -2.475 -1.45) (end -2.4 -1.45) (layer "Dwgs.User") (width 0.01) (tstamp 82abad3d-0e00-4364-b47f-0713f5ded19f))
  (fp_line (start -2.025 2.245) (end -2.025 2.385) (layer "Dwgs.User") (width 0.01) (tstamp 82b9ef03-f79b-4c4a-8ef3-ff47ac34690c))
  (fp_line (start -0.9 2.245) (end -0.9 2.385) (layer "Dwgs.User") (width 0.01) (tstamp 835f6b47-44ca-4fd5-8fc4-74c8bba15fe8))
  (fp_line (start 0.075 2.245) (end 0.075 2.385) (layer "Dwgs.User") (width 0.01) (tstamp 839b755a-3553-450a-8dc0-6db66ceb8ee4))
  (fp_line (start -0.3 2.245) (end -0.3 2.385) (layer "Dwgs.User") (width 0.01) (tstamp 84d2d37a-05fc-4630-bd2b-7a4ebf60270c))
  (fp_line (start -1.1 2.245) (end -1.1 2.385) (layer "Dwgs.User") (width 0.01) (tstamp 85b7c150-b06b-41f3-8b90-d06479cde2d5))
  (fp_line (start -2.475 -1.45) (end -2.475 -1.375) (layer "Dwgs.User") (width 0.01) (tstamp 86012a27-e83c-4833-bcb8-6aea14021fc6))
  (fp_line (start -2.475 -1.65) (end -2.475 -1.575) (layer "Dwgs.User") (width 0.01) (tstamp 865cdb64-3f07-4122-bbb5-fa2cc4e3e6bb))
  (fp_line (start 2 2.245) (end 2.075 2.245) (layer "Dwgs.User") (width 0.01) (tstamp 866dfd27-160d-4f59-baba-cdfa5064ad21))
  (fp_line (start 1.5 2.245) (end 1.5 2.385) (layer "Dwgs.User") (width 0.01) (tstamp 87c5f093-3139-49a2-a576-277bdb0d6f59))
  (fp_line (start -1.425 2.245) (end -1.425 2.385) (layer "Dwgs.User") (width 0.01) (tstamp 88ec65bd-3e91-49ad-a6fe-e5906d92266c))
  (fp_line (start 1.775 2.385) (end 1.7 2.385) (layer "Dwgs.User") (width 0.01) (tstamp 89a33bb4-a30e-498a-b3fd-f12c9d8af1c7))
  (fp_line (start 0.5 2.245) (end 0.5 2.385) (layer "Dwgs.User") (width 0.01) (tstamp 8b08151b-ee83-4edd-8976-388ae04e289d))
  (fp_line (start 1.8 2.245) (end 1.875 2.245) (layer "Dwgs.User") (width 0.01) (tstamp 8cea98ef-092b-4a10-ac63-d32715c834f2))
  (fp_line (start -2.475 -1.05) (end -2.475 -0.975) (layer "Dwgs.User") (width 0.01) (tstamp 8cfa3351-bd5f-4157-857c-20370c1001c3))
  (fp_line (start 2.4 -1.75) (end 2.475 -1.75) (layer "Dwgs.User") (width 0.01) (tstamp 8db099ec-3de2-42cb-b656-5026d5362c8c))
  (fp_line (start 1.175 2.385) (end 1.1 2.385) (layer "Dwgs.User") (width 0.01) (tstamp 8df602e3-9108-496d-babf-354e0dddbb5a))
  (fp_line (start 0.475 2.245) (end 0.475 2.385) (layer "Dwgs.User") (width 0.01) (tstamp 8e24a025-3196-4ae6-901f-142b63698e86))
  (fp_line (start 2.375 1.98) (end 2.375 2.055) (layer "Dwgs.User") (width 0.01) (tstamp 8e83cec8-4c91-420d-9f0c-f88823de6352))
  (fp_line (start 2.475 -1.675) (end 2.4 -1.675) (layer "Dwgs.User") (width 0.01) (tstamp 8ecf0cfe-64d5-489a-879e-38972d5efe05))
  (fp_line (start 2.075 2.245) (end 2.075 2.385) (layer "Dwgs.User") (width 0.01) (tstamp 901f70f1-2828-4f65-99df-2e6622ac2ad0))
  (fp_line (start 2.4 -1.35) (end 2.475 -1.35) (layer "Dwgs.User") (width 0.01) (tstamp 90528a83-3222-443f-a3a8-77c18392f711))
  (fp_line (start -0.7 2.245) (end -0.7 2.385) (layer "Dwgs.User") (width 0.01) (tstamp 907494f6-78b4-4a18-b0d4-b2bb23b51ca5))
  (fp_line (start -2.4 -0.775) (end -2.475 -0.775) (layer "Dwgs.User") (width 0.01) (tstamp 918a60ee-7f39-48d4-8a3a-643fdfde2731))
  (fp_line (start -0.525 2.385) (end -0.6 2.385) (layer "Dwgs.User") (width 0.01) (tstamp 93493f26-24a7-46b0-b14e-44dc8775575c))
  (fp_line (start -1.825 2.385) (end -1.9 2.385) (layer "Dwgs.User") (width 0.01) (tstamp 94a1575f-dca4-48e8-af73-7c0c477371c7))
  (fp_line (start 2.475 -1.85) (end 2.475 -1.775) (layer "Dwgs.User") (width 0.01) (tstamp 94e78515-3aee-4ec0-bb51-e7c502428804))
  (fp_line (start 2.3 2.245) (end 2.375 2.245) (layer "Dwgs.User") (width 0.01) (tstamp 9585c224-7839-4e00-a199-f2b2e26a4a1a))
  (fp_line (start -0.725 2.385) (end -0.8 2.385) (layer "Dwgs.User") (width 0.01) (tstamp 95b66762-f06e-4614-9d93-716eba59826f))
  (fp_line (start 0 2.245) (end 0.075 2.245) (layer "Dwgs.User") (width 0.01) (tstamp 95ff9607-e20b-4557-ad14-4836fe07604e))
  (fp_line (start -1.925 2.245) (end -1.925 2.385) (layer "Dwgs.User") (width 0.01) (tstamp 967e4750-3d73-416e-a12d-29114624bfbd))
  (fp_line (start -1.325 2.245) (end -1.325 2.385) (layer "Dwgs.User") (width 0.01) (tstamp 96de373f-8581-4969-875c-a71b6652c153))
  (fp_line (start -1.625 2.245) (end -1.625 2.385) (layer "Dwgs.User") (width 0.01) (tstamp 97268474-44d9-485f-bf1a-f2c41aa2aab6))
  (fp_line (start 2.475 -1.55) (end 2.475 -1.475) (layer "Dwgs.User") (width 0.01) (tstamp 98e37264-8e73-469c-869a-791ad9c3498e))
  (fp_line (start 2.4 -1.55) (end 2.475 -1.55) (layer "Dwgs.User") (width 0.01) (tstamp 993345b9-5f08-449e-8f67-5b62d7206ebd))
  (fp_line (start -1.225 2.245) (end -1.225 2.385) (layer "Dwgs.User") (width 0.01) (tstamp 99d24a16-6205-4323-86e9-05b3a14ff1c2))
  (fp_line (start 1.775 2.245) (end 1.775 2.385) (layer "Dwgs.User") (width 0.01) (tstamp 9b9dcc1f-6793-4597-a74f-b93e54d84e36))
  (fp_line (start 0.675 2.385) (end 0.6 2.385) (layer "Dwgs.User") (width 0.01) (tstamp 9f63fdb8-2adf-4030-8c53-8d71615aa56c))
  (fp_line (start 2.4 -0.95) (end 2.4 -0.875) (layer "Dwgs.User") (width 0.01) (tstamp a043a82b-c3ba-466f-af92-0d42c7b2f1dc))
  (fp_line (start 2.1 2.245) (end 2.1 2.385) (layer "Dwgs.User") (width 0.01) (tstamp a183e145-438a-4a73-9340-23325b8bdbac))
  (fp_line (start 0.475 2.385) (end 0.4 2.385) (layer "Dwgs.User") (width 0.01) (tstamp a19414c7-59fd-4ec6-b50f-644c684dd81e))
  (fp_line (start -0.2 2.245) (end -0.2 2.385) (layer "Dwgs.User") (width 0.01) (tstamp a1b32691-7b95-4ab8-935a-3da38960938c))
  (fp_line (start -1.225 2.385) (end -1.3 2.385) (layer "Dwgs.User") (width 0.01) (tstamp a2719464-828e-4ca9-a4f2-581ddfc91627))
  (fp_line (start 2.475 -1.95) (end 2.475 -1.875) (layer "Dwgs.User") (width 0.01) (tstamp a2ac29cd-b785-47e3-a61a-48d80e643af2))
  (fp_line (start 2.4 -1.55) (end 2.4 -1.475) (layer "Dwgs.User") (width 0.01) (tstamp a2e744a5-80d5-4870-a08f-5fcbade139e6))
  (fp_line (start 2.475 -1.175) (end 2.4 -1.175) (layer "Dwgs.User") (width 0.01) (tstamp a36ff9b2-ff15-47c2-9b3e-f18d2c1b7d90))
  (fp_line (start 2 2.245) (end 2 2.385) (layer "Dwgs.User") (width 0.01) (tstamp a3d77851-7679-4591-ace9-bf42688b7ac1))
  (fp_line (start -2.4 -1.775) (end -2.475 -1.775) (layer "Dwgs.User") (width 0.01) (tstamp a526d70d-a77c-48ca-8ec7-721de533f626))
  (fp_line (start -2.475 -1.95) (end -2.475 -1.875) (layer "Dwgs.User") (width 0.01) (tstamp a589fd74-c955-46d5-94a1-3049a55000e9))
  (fp_line (start -1.3 2.245) (end -1.225 2.245) (layer "Dwgs.User") (width 0.01) (tstamp a5a3f599-488f-4ce0-ba4a-caff9cca8121))
  (fp_line (start -1.925 2.385) (end -2 2.385) (layer "Dwgs.User") (width 0.01) (tstamp a6e479c0-f050-491d-8675-2cacb5b70534))
  (fp_line (start -2.4 -2.25) (end -2.4 -2.175) (layer "Dwgs.User") (width 0.01) (tstamp a782544b-7a2f-4336-861c-01262c6f18b5))
  (fp_line (start 2.4 -0.85) (end 2.475 -0.85) (layer "Dwgs.User") (width 0.01) (tstamp a799604d-bf47-494d-ac70-3e2a6a5f7454))
  (fp_line (start -1.7 2.245) (end -1.625 2.245) (layer "Dwgs.User") (width 0.01) (tstamp a7ad602e-ebb1-4098-84a5-25240d6a4393))
  (fp_line (start 1.075 2.385) (end 1 2.385) (layer "Dwgs.User") (width 0.01) (tstamp aa5b4894-5eba-496b-897a-59c83a3b1d2d))
  (fp_line (start 2.475 -0.975) (end 2.4 -0.975) (layer "Dwgs.User") (width 0.01) (tstamp abbac3f2-0a22-4df8-928c-a96eea3fb2d4))
  (fp_line (start 2.4 -2.15) (end 2.475 -2.15) (layer "Dwgs.User") (width 0.01) (tstamp b000ee88-5415-4631-88cc-f47254e57eb5))
  (fp_line (start 2.275 2.245) (end 2.275 2.385) (layer "Dwgs.User") (width 0.01) (tstamp b098c3ff-e13b-4df5-b7d9-196fe4bb6adc))
  (fp_line (start -2.4 -1.25) (end -2.4 -1.175) (layer "Dwgs.User") (width 0.01) (tstamp b0d2e086-ef9e-4e78-8db0-657bc9f20d0c))
  (fp_line (start 2.4 -1.75) (end 2.4 -1.675) (layer "Dwgs.User") (width 0.01) (tstamp b0defd24-d0a8-43d6-b05a-89c1acdebbdc))
  (fp_line (start -1.825 2.245) (end -1.825 2.385) (layer "Dwgs.User") (width 0.01) (tstamp b19e66a0-4b89-489e-90ad-b1356bf08ccd))
  (fp_line (start 2.475 -1.25) (end 2.475 -1.175) (layer "Dwgs.User") (width 0.01) (tstamp b357160a-d1cf-4f03-b39b-d94bd41b27dc))
  (fp_line (start 2.4 -1.45) (end 2.475 -1.45) (layer "Dwgs.User") (width 0.01) (tstamp b3a6e839-f29c-461a-a3b4-e83513a75a09))
  (fp_line (start 2.475 -1.45) (end 2.475 -1.375) (layer "Dwgs.User") (width 0.01) (tstamp b3ac8d86-6782-465d-b805-f201042cc847))
  (fp_line (start -2.5 -2.45) (end 2.5 -2.45) (layer "Dwgs.User") (width 0.01) (tstamp b455eefb-70aa-41cc-a634-ac6f685aa30d))
  (fp_line (start -1.125 2.385) (end -1.2 2.385) (layer "Dwgs.User") (width 0.01) (tstamp b80e129a-3c91-4d18-aa5c-2d26a8f0cc42))
  (fp_line (start -2 2.245) (end -2 2.385) (layer "Dwgs.User") (width 0.01) (tstamp b8403a9b-b68f-4683-8096-77c00174fc6e))
  (fp_line (start -1.9 2.245) (end -1.825 2.245) (layer "Dwgs.User") (width 0.01) (tstamp b9c51895-df50-4e5d-8ffa-d9795837fbd1))
  (fp_line (start 2.4 -1.85) (end 2.475 -1.85) (layer "Dwgs.User") (width 0.01) (tstamp ba9ddca7-c437-4bcf-9004-5802813dacd9))
  (fp_line (start 1.4 2.245) (end 1.475 2.245) (layer "Dwgs.User") (width 0.01) (tstamp bb719446-efe9-462a-8b7a-b9d253064f57))
  (fp_line (start 0 2.245) (end 0 2.385) (layer "Dwgs.User") (width 0.01) (tstamp bc5fef7f-07a2-47ea-8b33-712686952b76))
  (fp_line (start -1.425 2.385) (end -1.5 2.385) (layer "Dwgs.User") (width 0.01) (tstamp bd043517-bead-43cd-a0cb-759c7c36c133))
  (fp_line (start -2.4 2.245) (end -2.325 2.245) (layer "Dwgs.User") (width 0.01) (tstamp bd3557cf-b062-465f-8dde-a4b7100200cd))
  (fp_line (start -1.1 2.245) (end -1.025 2.245) (layer "Dwgs.User") (width 0.01) (tstamp be2680f3-9b0d-4e87-a6d1-92a06adebff6))
  (fp_line (start 1.3 2.245) (end 1.3 2.385) (layer "Dwgs.User") (width 0.01) (tstamp be29720d-edcb-4752-b99b-7b9f5eb4f687))
  (fp_line (start -1 2.245) (end -0.925 2.245) (layer "Dwgs.User") (width 0.01) (tstamp bf33cbc1-fa94-41d8-9eb3-bdf80f1c7def))
  (fp_line (start 0.275 2.245) (end 0.275 2.385) (layer "Dwgs.User") (width 0.01) (tstamp bfb86749-3265-4562-8e21-1dd38c98f2a3))
  (fp_line (start 0.3 2.245) (end 0.375 2.245) (layer "Dwgs.User") (width 0.01) (tstamp bfbb8227-2410-45a2-be15-1ac04996dd13))
  (fp_line (start 2.475 -0.55) (end 2.475 -0.475) (layer "Dwgs.User") (width 0.01) (tstamp c001d360-5df9-46f9-90b0-0557b73c599b))
  (fp_line (start -2.4 -0.85) (end -2.4 -0.775) (layer "Dwgs.User") (width 0.01) (tstamp c074e409-55dc-4143-bfd6-37c2acd4b8fe))
  (fp_line (start 2.5 -2.45) (end 2.5 2.42) (layer "Dwgs.User") (width 0.01) (tstamp c15ec829-7564-4c22-b2a0-ae410455a08e))
  (fp_line (start 1.1 2.245) (end 1.175 2.245) (layer "Dwgs.User") (width 0.01) (tstamp c197021a-fd2e-41d4-8d8a-76835e42ca1b))
  (fp_line (start 2.375 2.385) (end 2.3 2.385) (layer "Dwgs.User") (width 0.01) (tstamp c1b0511e-6ed9-4af9-bbff-be25160eb170))
  (fp_line (start -2.475 -1.95) (end -2.4 -1.95) (layer "Dwgs.User") (width 0.01) (tstamp c346c2ba-bff2-4106-8386-8fd05771e44d))
  (fp_line (start -2.025 2.385) (end -2.1 2.385) (layer "Dwgs.User") (width 0.01) (tstamp c56be9ae-5953-45e8-82dd-fbeb55994313))
  (fp_line (start 2.475 -1.475) (end 2.4 -1.475) (layer "Dwgs.User") (width 0.01) (tstamp c61d3f19-549a-418f-9f34-bcd165c3d405))
  (fp_line (start -0.5 2.245) (end -0.5 2.385) (layer "Dwgs.User") (width 0.01) (tstamp c6b8c73f-aa71-4ccc-a06f-08d3661e88de))
  (fp_line (start -2.475 -2.25) (end -2.475 -2.175) (layer "Dwgs.User") (width 0.01) (tstamp c8847aaf-b312-4034-8770-b9986f1df42d))
  (fp_line (start 1.3 2.245) (end 1.375 2.245) (layer "Dwgs.User") (width 0.01) (tstamp c8c4d1c4-bfdd-4f95-a8e7-ba744f353ab5))
  (fp_line (start 2.4 -0.95) (end 2.475 -0.95) (layer "Dwgs.User") (width 0.01) (tstamp c9300159-f09b-4376-8199-8cd806f81af6))
  (fp_line (start -2.4 -1.075) (end -2.475 -1.075) (layer "Dwgs.User") (width 0.01) (tstamp ca0e36c8-d0cb-4dfa-ab68-7f58e73d9b60))
  (fp_line (start 0.2 2.245) (end 0.2 2.385) (layer "Dwgs.User") (width 0.01) (tstamp ca34685e-1dec-470a-9bd6-aad2776654ac))
  (fp_line (start -1.725 2.385) (end -1.8 2.385) (layer "Dwgs.User") (width 0.01) (tstamp ca9cff0e-4f2d-4655-91f4-87131683c0b3))
  (fp_line (start -2.475 -1.85) (end -2.4 -1.85) (layer "Dwgs.User") (width 0.01) (tstamp cb958e11-c0dd-4e4a-a226-0005e6c79fd7))
  (fp_line (start -1.4 2.245) (end -1.4 2.385) (layer "Dwgs.User") (width 0.01) (tstamp cc0aea06-2de6-4d91-aa46-4bb186513b8d))
  (fp_line (start 0.875 2.385) (end 0.8 2.385) (layer "Dwgs.User") (width 0.01) (tstamp cc7ae75a-12f0-4f87-a32f-e163d798228f))
  (fp_line (start 1.675 2.245) (end 1.675 2.385) (layer "Dwgs.User") (width 0.01) (tstamp cd291b7b-f806-4f44-9c53-f2920dcc5ccc))
  (fp_line (start -2.475 -0.85) (end -2.475 -0.775) (layer "Dwgs.User") (width 0.01) (tstamp cdec8a5b-de36-4a55-9fe4-3b954cef53e4))
  (fp_line (start -2.4 -2.175) (end -2.475 -2.175) (layer "Dwgs.User") (width 0.01) (tstamp ce74fc4d-b623-419e-a0b0-a219a0a4cb31))
  (fp_line (start -0.5 2.245) (end -0.425 2.245) (layer "Dwgs.User") (width 0.01) (tstamp ceaa30c4-320f-4012-989b-ef61c7c70bd9))
  (fp_line (start -0.3 2.245) (end -0.225 2.245) (layer "Dwgs.User") (width 0.01) (tstamp cf4b911d-970c-4b48-9864-a3f1e8069c55))
  (fp_line (start 2.4 -0.75) (end 2.4 -0.675) (layer "Dwgs.User") (width 0.01) (tstamp d00ad6c9-aa22-41fb-890b-eb05dd42badd))
  (fp_line (start 2.4 -1.35) (end 2.4 -1.275) (layer "Dwgs.User") (width 0.01) (tstamp d0219758-d0e6-49e6-bcd4-6e44726afe6e))
  (fp_line (start 2.4 -1.45) (end 2.4 -1.375) (layer "Dwgs.User") (width 0.01) (tstamp d0745fe8-ac8c-4e94-b40c-397cbd4771d9))
  (fp_line (start -0.6 2.245) (end -0.525 2.245) (layer "Dwgs.User") (width 0.01) (tstamp d0b1c437-0b1a-4c90-82ed-a75882973eaa))
  (fp_line (start 1.2 2.245) (end 1.275 2.245) (layer "Dwgs.User") (width 0.01) (tstamp d41ef4fc-c59d-48b3-b7a8-0b1087c15517))
  (fp_line (start -1.325 2.385) (end -1.4 2.385) (layer "Dwgs.User") (width 0.01) (tstamp d4471373-fe13-47b1-87d1-1c1955404461))
  (fp_line (start -2.3 2.245) (end -2.225 2.245) (layer "Dwgs.User") (width 0.01) (tstamp d480caf5-07c0-4241-a7fe-19c21aaaa30d))
  (fp_line (start 0.375 2.385) (end 0.3 2.385) (layer "Dwgs.User") (width 0.01) (tstamp d54fae36-c456-480f-9c0e-670fb35da9cf))
  (fp_line (start 0.4 2.245) (end 0.475 2.245) (layer "Dwgs.User") (width 0.01) (tstamp d5c39710-28eb-42ad-abd9-059212ebbb40))
  (fp_line (start 1.4 2.245) (end 1.4 2.385) (layer "Dwgs.User") (width 0.01) (tstamp d7865f97-ee84-44f4-8e9b-74eed98bc38a))
  (fp_line (start -2.4 -1.55) (end -2.4 -1.475) (layer "Dwgs.User") (width 0.01) (tstamp d844a6bd-2354-482f-a9db-28ebc516aa87))
  (fp_line (start 0.975 2.385) (end 0.9 2.385) (layer "Dwgs.User") (width 0.01) (tstamp d8945713-79c0-4112-b536-043cd889eab5))
  (fp_line (start 1.475 2.245) (end 1.475 2.385) (layer "Dwgs.User") (width 0.01) (tstamp d9219850-289d-4b10-a712-eea9d66b4be7))
  (fp_line (start -2.475 -1.15) (end -2.4 -1.15) (layer "Dwgs.User") (width 0.01) (tstamp da973ffe-fc3e-4646-a9a9-989738e8d961))
  (fp_line (start 1.575 2.245) (end 1.575 2.385) (layer "Dwgs.User") (width 0.01) (tstamp daad265d-f1b1-41d2-b646-2cc132d2594c))
  (fp_line (start -2.325 2.385) (end -2.4 2.385) (layer "Dwgs.User") (width 0.01) (tstamp dbacc5d4-831f-493f-adbb-f8a176c98179))
  (fp_line (start 2.475 -0.575) (end 2.4 -0.575) (layer "Dwgs.User") (width 0.01) (tstamp dd9042ab-e108-4e08-996b-543786c7fbf2))
  (fp_line (start -2 2.245) (end -1.925 2.245) (layer "Dwgs.User") (width 0.01) (tstamp dd927c66-d336-4874-8e83-b3ab69910fb7))
  (fp_line (start 1.975 2.245) (end 1.975 2.385) (layer "Dwgs.User") (width 0.01) (tstamp ddcbc74f-6da0-4951-94b3-d6b2e8307aad))
  (fp_line (start -2.2 2.245) (end -2.2 2.385) (layer "Dwgs.User") (width 0.01) (tstamp df2fe28b-392b-4506-87f9-8debf7742d46))
  (fp_line (start 2.4 -1.85) (end 2.4 -1.775) (layer "Dwgs.User") (width 0.01) (tstamp df973078-8d52-4878-a2dd-63659f58da46))
  (fp_line (start 2.4 -0.55) (end 2.4 -0.475) (layer "Dwgs.User") (width 0.01) (tstamp dfc9d821-ac5b-4144-af2e-7c7cfe3c81c6))
  (fp_line (start 2.475 -1.375) (end 2.4 -1.375) (layer "Dwgs.User") (width 0.01) (tstamp e0a251ea-9139-4c95-acbf-0a15d8a5ca10))
  (fp_line (start 2.4 -1.25) (end 2.475 -1.25) (layer "Dwgs.User") (width 0.01) (tstamp e2c1362d-7586-435e-a3d6-ddbb217b470f))
  (fp_line (start 0.6 2.245) (end 0.675 2.245) (layer "Dwgs.User") (width 0.01) (tstamp e36b48e8-d9ab-457f-bb94-e49b5db9129b))
  (fp_line (start 2.175 2.245) (end 2.175 2.385) (layer "Dwgs.User") (width 0.01) (tstamp e36c0fda-706f-40d6-8c7d-6588a228eb98))
  (fp_line (start -2.4 -1.475) (end -2.475 -1.475) (layer "Dwgs.User") (width 0.01) (tstamp e415fb7f-d7ef-4e61-8b18-eef40a4e0465))
  (fp_line (start -1.2 2.245) (end -1.2 2.385) (layer "Dwgs.User") (width 0.01) (tstamp e55905a2-9ea4-4ef2-b032-1f0970b79046))
  (fp_line (start -2.4 -0.875) (end -2.475 -0.875) (layer "Dwgs.User") (width 0.01) (tstamp e635d79b-4b1c-41c3-b6b5-25a99170c2f1))
  (fp_line (start 2.475 -2.15) (end 2.475 -2.075) (layer "Dwgs.User") (width 0.01) (tstamp e6970faa-ea51-426c-9f5e-e98b986e35b2))
  (fp_line (start -2.475 -1.35) (end -2.4 -1.35) (layer "Dwgs.User") (width 0.01) (tstamp e79bc5e2-6fdc-4ffa-8315-9d7bce890ce6))
  (fp_line (start 1.7 2.245) (end 1.7 2.385) (layer "Dwgs.User") (width 0.01) (tstamp e895742d-78b2-4077-a4af-3089aa6b55b2))
  (fp_line (start 2.4 -0.65) (end 2.4 -0.575) (layer "Dwgs.User") (width 0.01) (tstamp e96c103c-5f9b-4e7f-b0eb-9ad9bedc86f8))
  (fp_line (start 2.475 -0.95) (end 2.475 -0.875) (layer "Dwgs.User") (width 0.01) (tstamp e9808cfd-2b8e-4c18-b990-8c7e7ea7d98d))
  (fp_line (start -2.4 -1.35) (end -2.4 -1.275) (layer "Dwgs.User") (width 0.01) (tstamp e9d69281-b484-4d8f-aa8e-81ed90a422f4))
  (fp_line (start 1.875 2.385) (end 1.8 2.385) (layer "Dwgs.User") (width 0.01) (tstamp ea00257e-d995-4ef0-9835-da25811a2030))
  (fp_line (start 0.9 2.245) (end 0.975 2.245) (layer "Dwgs.User") (width 0.01) (tstamp ea1df107-ccc0-4762-8f5e-e976904b092e))
  (fp_line (start -2.4 -1.175) (end -2.475 -1.175) (layer "Dwgs.User") (width 0.01) (tstamp eca41948-b3bd-40f4-bf5b-081104c053b4))
  (fp_line (start 1.7 2.245) (end 1.775 2.245) (layer "Dwgs.User") (width 0.01) (tstamp ece31589-5433-4def-87fd-9e45e3bdc5d5))
  (fp_line (start 1.2 2.245) (end 1.2 2.385) (layer "Dwgs.User") (width 0.01) (tstamp ed849ded-eaca-43de-8ad9-af92e810977c))
  (fp_line (start -1.6 2.245) (end -1.525 2.245) (layer "Dwgs.User") (width 0.01) (tstamp ede056c1-fe95-46dc-becb-3320912b3319))
  (fp_line (start 2.4 -1.95) (end 2.4 -1.875) (layer "Dwgs.User") (width 0.01) (tstamp ee7a1d80-5755-4669-8faa-7049fa2d8eba))
  (fp_line (start 2.475 -1.05) (end 2.475 -0.975) (layer "Dwgs.User") (width 0.01) (tstamp ef2c1d06-9bcd-4e9b-af0f-809c16951838))
  (fp_line (start -1.025 2.245) (end -1.025 2.385) (layer "Dwgs.User") (width 0.01) (tstamp f00015d0-780e-4391-8c4e-6751cd326de9))
  (fp_line (start 2.475 -0.85) (end 2.475 -0.775) (layer "Dwgs.User") (width 0.01) (tstamp f06139b1-0576-4008-861c-287c7ddc8217))
  (fp_line (start -0.125 2.245) (end -0.125 2.385) (layer "Dwgs.User") (width 0.01) (tstamp f30a7389-6361-4e02-b5ae-fc5aa7665f8f))
  (fp_line (start -2.325 2.245) (end -2.325 2.385) (layer "Dwgs.User") (width 0.01) (tstamp f508a65c-57e2-4b70-a078-898d6bef40b9))
  (fp_line (start 1.9 2.245) (end 1.9 2.385) (layer "Dwgs.User") (width 0.01) (tstamp f513a1a6-b7b7-44ba-aa2f-799d8f3bc2fd))
  (fp_line (start -2.4 -1.375) (end -2.475 -1.375) (layer "Dwgs.User") (width 0.01) (tstamp f5cd4197-673b-40ff-a8d0-05038c4b6260))
  (fp_line (start -0.025 2.245) (end -0.025 2.385) (layer "Dwgs.User") (width 0.01) (tstamp f9d97c44-ae78-4132-8e97-2451ba5e868c))
  (fp_line (start -0.525 2.245) (end -0.525 2.385) (layer "Dwgs.User") (width 0.01) (tstamp fa06ea6b-53e8-40e4-b989-d1a447bff902))
  (fp_line (start -2.475 -1.55) (end -2.475 -1.475) (layer "Dwgs.User") (width 0.01) (tstamp fa287233-3cca-40d6-bf83-b78081351d89))
  (fp_line (start -2.225 2.385) (end -2.3 2.385) (layer "Dwgs.User") (width 0.01) (tstamp fb0fd849-aba0-4bb4-9c54-ff8496c0b32a))
  (fp_line (start 2.4 -0.75) (end 2.475 -0.75) (layer "Dwgs.User") (width 0.01) (tstamp fc450609-6bfc-4a30-ad74-53a8f3d69d92))
  (fp_line (start 1.375 2.385) (end 1.3 2.385) (layer "Dwgs.User") (width 0.01) (tstamp fc7d130a-87eb-422c-8808-4972d27817a2))
  (fp_line (start -2.475 -1.75) (end -2.475 -1.675) (layer "Dwgs.User") (width 0.01) (tstamp fcfa9fc3-b3f9-42ec-9498-7bb0e9169c40))
  (fp_line (start -0.025 2.385) (end -0.1 2.385) (layer "Dwgs.User") (width 0.01) (tstamp fed10ac8-4d25-4a24-97a4-b8525dc5c351))
  (fp_line (start -2.4 -1.85) (end -2.4 -1.775) (layer "Dwgs.User") (width 0.01) (tstamp fefc05e2-9593-408b-b9ed-d5ce939ce16c))
  (fp_line (start -2.3876 2.286) (end -6.7056 8.2296) (layer "Cmts.User") (width 0.12) (tstamp 014e04d4-d08a-4b41-ae61-1bb44a8ab1b8))
  (fp_line (start 6.5 1.2) (end 7 1.2) (layer "Cmts.User") (width 0.1) (tstamp 18daf752-4050-44ea-b465-f69c05667d6e))
  (fp_line (start 3 2.42) (end 3 2.92) (layer "Cmts.User") (width 0.1) (tstamp 1d2de51e-61a4-4d25-86fb-7b938f2041bd))
  (fp_line (start -2.3368 2.286) (end -6.0452 6.35) (layer "Cmts.User") (width 0.12) (tstamp 1daee0e5-6a75-4084-899c-33484d30d4a6))
  (fp_line (start 6.7564 8.2804) (end 2.3368 2.3368) (layer "Cmts.User") (width 0.12) (tstamp 264e8fa2-c4e1-4eb8-be34-1f6bedc14dd3))
  (fp_line (start -5.05 5.5) (end -5.05 5) (layer "Cmts.User") (width 0.1) (tstamp 4ed88bcb-b45c-48f1-8864-be0c73f7e385))
  (fp_line (start -6.9 0.45) (end -6.4 0.45) (layer "Cmts.User") (width 0.1) (tstamp 500d9883-d6af-4402-838c-d315e18e87bb))
  (fp_line (start -2.7 -4.2) (end -2.2 -4.2) (layer "Cmts.User") (width 0.1) (tstamp 50eb4f9b-de24-4579-a183-a32c6c0dd9b1))
  (fp_line (start 3 -2.95) (end 3 -2.45) (layer "Cmts.User") (width 0.1) (tstamp 679822fe-0794-4875-88fd-b52ec7f2481e))
  (fp_line (start -6.65 0.7) (end -6.65 0.2) (layer "Cmts.User") (width 0.1) (tstamp 72dd2077-0b25-4418-8850-869f395cc03c))
  (fp_line (start -3 2.42) (end -3 2.92) (layer "Cmts.User") (width 0.1) (tstamp 771b104a-a507-4d7d-96b1-9ffdb0e51eb9))
  (fp_line (start -3 -2.95) (end -3 -2.45) (layer "Cmts.User") (width 0.1) (tstamp 858a69ff-6b5e-4740-bcdc-b24f759b183c))
  (fp_line (start 2.3368 2.286) (end 5.9436 6.4516) (layer "Cmts.User") (width 0.12) (tstamp 8e346aa4-4933-48c9-9b0d-bafb5dde6fe3))
  (fp_line (start 4.85 5.4) (end 5.35 5.4) (layer "Cmts.User") (width 0.1) (tstamp 92e061e6-b043-4d60-aed7-286e745bb16d))
  (fp_line (start 2.7 -4.2) (end 2.2 -4.2) (layer "Cmts.User") (width 0.1) (tstamp a1267173-0151-4ddc-9f6d-56c60fa17265))
  (fp_line (start 5.1 5.65) (end 5.1 5.15) (layer "Cmts.User") (width 0.1) (tstamp a5a9b4d6-73e4-4ebb-8b2f-007054b057ef))
  (fp_line (start -5.3 5.25) (end -4.8 5.25) (layer "Cmts.User") (width 0.1) (tstamp c540791d-2cc2-4b5a-aec1-9c29018028b1))
  (fp_line (start 6.75 1.45) (end 6.75 0.95) (layer "Cmts.User") (width 0.1) (tstamp ce413ea0-785b-4e24-a2a8-dea89e1cd18a))
  (fp_line (start -2.5 -2.95) (end -3 -2.95) (layer "Cmts.User") (width 0.1) (tstamp d1a37ac7-26cb-417c-896d-f7b797c8341a))
  (fp_line (start 2.5 2.92) (end 3 2.92) (layer "Cmts.User") (width 0.1) (tstamp e200942a-7765-45d0-966d-1718d1541968))
  (fp_line (start -0.0508 2.286) (end -0.0508 7.7216) (layer "Cmts.User") (width 0.12) (tstamp e43262ca-61bc-4c4a-aaca-b297af914616))
  (fp_line (start 2.5 -2.95) (end 3 -2.95) (layer "Cmts.User") (width 0.1) (tstamp eb0cc368-7740-40b8-b93b-f9d3f81388b5))
  (fp_line (start -3 2.92) (end -2.5 2.92) (layer "Cmts.User") (width 0.1) (tstamp fef10cc0-a145-4fc4-9a69-a2582361a552))
  (pad "1" smd rect (at -2.997617 3.2004) (locked) (size 0.15 0.15) (layers "F.Cu" "F.Paste" "F.Mask") (tstamp 8d13bb62-3440-4c84-a111-7c5fa26a8bd8))
  (pad "2" smd rect (at -5.1912 6.4008) (locked) (size 0.15 0.15) (layers "F.Cu" "F.Paste" "F.Mask") (tstamp 1d91016a-0e86-4bc7-aee6-5e5faf77c873))
  (pad "3" smd rect (at -2.6924 3.2004) (locked) (size 0.15 0.15) (layers "F.Cu" "F.Paste" "F.Mask") (tstamp 10762b74-8338-4b8e-a482-38d3c3347c9c))
  (pad "4" smd rect (at -4.9412 6.4008) (locked) (size 0.15 0.15) (layers "F.Cu" "F.Paste" "F.Mask") (tstamp e5059b81-531f-4f8b-84ef-795ef444a78e))
  (pad "5" smd rect (at -2.396366 3.2004) (locked) (size 0.15 0.15) (layers "F.Cu" "F.Paste" "F.Mask") (tstamp 6cbd1e79-d86c-47c1-abca-80d78188f369))
  (pad "6" smd rect (at -4.6912 6.4008) (locked) (size 0.15 0.15) (layers "F.Cu" "F.Paste" "F.Mask") (tstamp e61d4b6c-abee-4caf-af71-6620fe090007))
  (pad "7" smd rect (at -2.141949 3.2004) (locked) (size 0.15 0.15) (layers "F.Cu" "F.Paste" "F.Mask") (tstamp 99840506-becf-41e4-98e0-65ebb193a7da))
  (pad "8" smd rect (at -4.4412 6.4008 270) (locked) (size 0.15 0.15) (layers "F.Cu" "F.Paste" "F.Mask") (tstamp f9ab52c3-47ae-44f3-baec-e0a6d2f33d9d))
  (pad "9" smd rect (at -1.887532 3.2004) (locked) (size 0.15 0.15) (layers "F.Cu" "F.Paste" "F.Mask") (tstamp 03961d0d-2d4f-498a-899f-d333a0f0d0b0))
  (pad "10" smd rect (at -4.1912 6.4008) (locked) (size 0.15 0.15) (layers "F.Cu" "F.Paste" "F.Mask") (tstamp 9c33a914-f2b1-4ef6-a225-07f9ad34944b))
  (pad "11" smd rect (at -1.633115 3.2004) (locked) (size 0.15 0.15) (layers "F.Cu" "F.Paste" "F.Mask") (tstamp 38824470-db36-41dc-b220-13f95473752b))
  (pad "12" smd rect (at -2.91416 6.4008) (locked) (size 0.15 0.15) (layers "F.Cu" "F.Paste" "F.Mask") (tstamp 036dc920-90e7-48da-aced-fe0ed12a8723))
  (pad "13" smd rect (at -2.66416 6.4008) (locked) (size 0.15 0.15) (layers "F.Cu" "F.Paste" "F.Mask") (tstamp 4b3507a5-db3c-434e-820a-6e972f36f377))
  (pad "14" smd rect (at -1.378698 3.2004) (locked) (size 0.15 0.15) (layers "F.Cu" "F.Paste" "F.Mask") (tstamp 072ac615-ced4-41dc-acfb-1a3170c4e821))
  (pad "15" smd rect (at -1.124281 3.2004) (locked) (size 0.15 0.15) (layers "F.Cu" "F.Paste" "F.Mask") (tstamp 826b7c04-8de4-4662-ac59-a65bda5ac7cf))
  (pad "16" smd rect (at -2.41416 6.4008) (locked) (size 0.15 0.15) (layers "F.Cu" "F.Paste" "F.Mask") (tstamp ee4f9870-aacf-4cfd-8447-60259847b44e))
  (pad "17" smd rect (at -2.16416 6.4008) (locked) (size 0.15 0.15) (layers "F.Cu" "F.Paste" "F.Mask") (tstamp 00b58a93-9cdd-43d9-9613-b50185de4c94))
  (pad "18" smd rect (at -0.869864 3.2004) (locked) (size 0.15 0.15) (layers "F.Cu" "F.Paste" "F.Mask") (tstamp b50d4487-d7bb-4c53-a3bb-c67fb7d1d143))
  (pad "19" smd rect (at -0.615447 3.2004) (locked) (size 0.15 0.15) (layers "F.Cu" "F.Paste" "F.Mask") (tstamp ed0bf2d9-d843-43cb-a6ec-929902632c39))
  (pad "20" smd rect (at -1.125 6.4008) (locked) (size 0.15 0.15) (layers "F.Cu" "F.Paste" "F.Mask") (tstamp a8ce2f7a-19dd-4572-a759-7e355212c7b0))
  (pad "21" smd rect (at -0.36103 3.2004) (locked) (size 0.15 0.15) (layers "F.Cu" "F.Paste" "F.Mask") (tstamp 19e685c2-d770-40a6-8a88-298f78b0fd50))
  (pad "22" smd rect (at -0.842528 6.4008) (locked) (size 0.15 0.15) (layers "F.Cu" "F.Paste" "F.Mask") (tstamp 5287979d-4643-4180-9a15-4e66f3ef8345))
  (pad "23" smd rect (at -0.106613 3.2004) (locked) (size 0.15 0.15) (layers "F.Cu" "F.Paste" "F.Mask") (tstamp 42337c50-169f-40dc-9517-91ed711c14f1))
  (pad "24" smd rect (at -0.592528 6.4008) (locked) (size 0.15 0.15) (layers "F.Cu" "F.Paste" "F.Mask") (tstamp bff7a08c-0547-4574-bf35-5472106359e8))
  (pad "25" smd rect (at 0.147804 3.9624) (locked) (size 0.15 0.15) (layers "F.Cu" "F.Paste" "F.Mask") (tstamp 67cfe20d-28ed-4ebd-ac67-bf00b682b9bf))
  (pad "26" smd rect (at -0.342528 6.4008) (locked) (size 0.15 0.15) (layers "F.Cu" "F.Paste" "F.Mask") (tstamp d45fec9d-ef90-46f7-b6f4-972ecef7e6bc))
  (pad "27" smd rect (at 0.407804 3.2004) (locked) (size 0.15 0.15) (layers "F.Cu" "F.Paste" "F.Mask") (tstamp 393a45ab-cfd0-4fc0-aa29-432d78a331e5))
  (pad "28" smd rect (at 0.667804 3.9624 180) (locked) (size 0.15 0.15) (layers "F.Cu" "F.Paste" "F.Mask") (tstamp 1f32c5ef-662a-43c1-bb78-4b178414b2cd))
  (pad "29" smd rect (at 0.729104 6.4008) (locked) (size 0.15 0.15) (layers "F.Cu" "F.Paste" "F.Mask") (tstamp aeda138e-8de5-428f-b414-1ae8dd9c9ed1))
  (pad "30" smd rect (at 0.979104 6.4008) (locked) (size 0.15 0.15) (layers "F.Cu" "F.Paste" "F.Mask") (tstamp e2d271a0-4603-421e-ac72-a93ea84530f4))
  (pad "31" smd rect (at 0.911055 3.2004) (locked) (size 0.15 0.15) (layers "F.Cu" "F.Paste" "F.Mask") (tstamp 5522797d-5eb0-4a6b-96fe-8b4a8b4aa845))
  (pad "32" smd rect (at 1.229104 6.4008) (locked) (size 0.15 0.15) (layers "F.Cu" "F.Paste" "F.Mask") (tstamp 7c6d1cd4-6f07-43e8-aeb6-5d5c6fd83998))
  (pad "33" smd rect (at 1.187804 3.9624) (locked) (size 0.15 0.15) (layers "F.Cu" "F.Paste" "F.Mask") (tstamp 1eb0d0f4-f5f7-4a52-8d5a-2a22ad2de52e))
  (pad "34" smd rect (at 2.300736 6.4008) (locked) (size 0.15 0.15) (layers "F.Cu" "F.Paste" "F.Mask") (tstamp 2911c560-c197-406c-a1fe-0d219228fe90))
  (pad "35" smd rect (at 1.3208 3.2004) (locked) (size 0.15 0.15) (layers "F.Cu" "F.Paste" "F.Mask") (tstamp 3f65e3cc-e6ef-41f7-9a5a-d81a0f475743))
  (pad "36" smd rect (at 2.550736 6.4008) (locked) (size 0.15 0.15) (layers "F.Cu" "F.Paste" "F.Mask") (tstamp 1cc4e5bf-cf02-4e17-9ccc-5ebf16cc7847))
  (pad "37" smd rect (at 1.6256 3.2004) (locked) (size 0.15 0.15) (layers "F.Cu" "F.Paste" "F.Mask") (tstamp 79d58e6e-5cbf-424f-a766-1a169968f697))
  (pad "38" smd rect (at 2.800736 6.4008) (locked) (size 0.15 0.15) (layers "F.Cu" "F.Paste" "F.Mask") (tstamp 83ff1280-8dcf-4d75-91bb-cc4a4407bf2d))
  (pad "39" smd rect (at 1.928723 3.2004) (locked) (size 0.15 0.15) (layers "F.Cu" "F.Paste" "F.Mask") (tstamp 034ac0a1-11b3-4134-8fa9-25baa5d93c29))
  (pad "40" smd rect (at 4.2832 6.4008) (locked) (size 0.15 0.15) (layers "F.Cu" "F.Paste" "F.Mask") (tstamp 7ba97f95-3249-4bd0-afa2-4527d808d300))
  (pad "41" smd rect (at 2.18314 3.2004) (locked) (size 0.15 0.15) (layers "F.Cu" "F.Paste" "F.Mask") (tstamp 9dc61817-1c40-4bfb-bad8-1d444a44c281))
  (pad "42" smd rect (at 4.5332 6.4008) (locked) (size 0.15 0.15) (layers "F.Cu" "F.Paste" "F.Mask") (tstamp 1faa4504-0d60-41ad-af8f-983610962663))
  (pad "43" smd rect (at 2.437557 3.2004) (locked) (size 0.15 0.15) (layers "F.Cu" "F.Paste" "F.Mask") (tstamp 6a62b059-bb4e-4c2c-b7b8-dd0a1e7719be))
  (pad "44" smd rect (at 4.7832 6.4008) (locked) (size 0.15 0.15) (layers "F.Cu" "F.Paste" "F.Mask") (tstamp f6c0737d-1869-4bcd-86e1-1ee62e996e09))
  (pad "45" smd rect (at 2.691974 3.2004) (locked) (size 0.15 0.15) (layers "F.Cu" "F.Paste" "F.Mask") (tstamp 52c5b7d1-0202-40c6-89b6-0d91e9cab18a))
  (pad "46" smd rect (at 5.0332 6.4008) (locked) (size 0.15 0.15) (layers "F.Cu" "F.Paste" "F.Mask") (tstamp cf92d1e5-0a4c-413a-8e18-6cec5e8e00d9))
  (pad "47" smd rect (at 2.9464 3.2004) (locked) (size 0.15 0.15) (layers "F.Cu" "F.Paste" "F.Mask") (tstamp 8f5b7572-2565-4135-9253-bf552000b387))
  (pad "48" smd rect (at 5.2832 6.4008) (locked) (size 0.15 0.15) (layers "F.Cu" "F.Paste" "F.Mask") (tstamp b1b37f62-e6cc-4512-941f-506dcfb31951))
  (pad "49" smd rect (at -2.4384 -4.7752) (locked) (size 0.15 1) (layers "F.Cu" "F.Paste" "F.Mask") (tstamp 6734f04f-2ba3-4785-b168-c94af37de322))
  (pad "50" smd rect (at -6.2172 -3.0984 90) (locked) (size 0.15 1) (layers "F.Cu" "F.Paste" "F.Mask") (tstamp e3b1eaab-b439-42cd-b035-1845b227bf6c))
  (pad "51" smd rect (at -4.2672 -2.2224 90) (locked) (size 0.15 1) (layers "F.Cu" "F.Paste" "F.Mask") (tstamp 9bc3e4b7-24d8-49c5-a220-ae426ae34f2a))
  (pad "52" smd rect (at -6.2484 -2.2988 90) (locked) (size 0.15 1) (layers "F.Cu" "F.Paste" "F.Mask") (tstamp 50f3e639-d476-41e7-ac5b-3fb5e8e2fcf1))
  (pad "53" smd rect (at -4.2672 -1.816 90) (locked) (size 0.15 1) (layers "F.Cu" "F.Paste" "F.Mask") (tstamp 3007d222-f752-42a1-830d-61e2a2dd3721))
  (pad "54" smd rect (at -6.2172 -1.4984 90) (locked) (size 0.15 1) (layers "F.Cu" "F.Paste" "F.Mask") (tstamp 4f5ba4a3-24e2-4ec0-aa50-dc44b9946b3b))
  (pad "55" smd rect (at -4.2672 -1.4096 90) (locked) (size 0.15 1) (layers "F.Cu" "F.Paste" "F.Mask") (tstamp 7ffc3ac4-5857-48c8-8ea6-51faea082b89))
  (pad "56" smd rect (at -6.1976 -0.6984 90) (locked) (size 0.15 1) (layers "F.Cu" "F.Paste" "F.Mask") (tstamp e5ea0f35-a65b-4e2a-9cf3-4c8a95533839))
  (pad "57" smd rect (at -4.2672 -1.0032 90) (locked) (size 0.15 1) (layers "F.Cu" "F.Paste" "F.Mask") (tstamp 9188078e-8599-4e27-8410-063ceda76e90))
  (pad "58" smd rect (at -6.2172 0.1016 90) (locked) (size 0.15 1) (layers "F.Cu" "F.Paste" "F.Mask") (tstamp 5c7a7742-4d4d-4fe7-9eed-5f9b6e8082dd))
  (pad "59" smd rect (at -4.2672 -0.6096 90) (locked) (size 0.15 1) (layers "F.Cu" "F.Paste" "F.Mask") (tstamp 71032d7e-9753-45bb-9bd7-6ac09aa4e2de))
  (pad "60" smd rect (at -6.2484 0.9016 90) (locked) (size 0.15 1) (layers "F.Cu" "F.Paste" "F.Mask") (tstamp 66ed364b-6b99-4ca8-b3d3-523f907f96cc))
  (pad "61" smd rect (at -4.2672 -0.1904 90) (locked) (size 0.15 1) (layers "F.Cu" "F.Paste" "F.Mask") (tstamp 0bba43ef-7228-4526-a0fc-3c47a9866724))
  (pad "62" smd rect (at 2.4384 -4.7752) (locked) (size 0.15 1) (layers "F.Cu" "F.Paste" "F.Mask") (tstamp 4d87f877-3ac2-4c18-8a3e-1457df892044))
  (pad "63" smd rect (at 5.2324 -2.4892 90) (locked) (size 0.15 1) (layers "F.Cu" "F.Paste" "F.Mask") (tstamp 1a7fc067-05fa-483d-bd40-2e3dab848645))
  (pad "64" smd rect (at 7.3152 -2.6044 90) (locked) (size 0.15 1) (layers "F.Cu" "F.Paste" "F.Mask") (tstamp 329e0b02-4580-4c7e-9cf5-ee74d5586ac3))
  (pad "65" smd rect (at 5.2324 -2.046515 90) (locked) (size 0.15 1) (layers "F.Cu" "F.Paste" "F.Mask") (tstamp 880d91f2-1d34-43e1-b579-3d57fd887508))
  (pad "66" smd rect (at 7.3152 -1.959134 90) (locked) (size 0.15 1) (layers "F.Cu" "F.Paste" "F.Mask") (tstamp 4cbb440b-7d6c-4e8f-b9d8-6f4a7713cc4e))
  (pad "67" smd rect (at 5.2324 -1.60383 90) (locked) (size 0.15 1) (layers "F.Cu" "F.Paste" "F.Mask") (tstamp 060a1b1b-6c66-4c40-b396-3ccf422e59fb))
  (pad "68" smd rect (at 7.3152 -1.313868 90) (locked) (size 0.15 1) (layers "F.Cu" "F.Paste" "F.Mask") (tstamp 0b9e8e85-440a-4b11-9eec-dbf413cebd32))
  (pad "69" smd rect (at 5.2324 -1.161145 90) (locked) (size 0.15 1) (layers "F.Cu" "F.Paste" "F.Mask") (tstamp 44b53f3e-3067-48f9-99d7-20b1ff4c5faf))
  (pad "70" smd rect (at 7.3152 -0.668602 90) (locked) (size 0.15 1) (layers "F.Cu" "F.Paste" "F.Mask") (tstamp 78447fc2-c5de-486e-b0f6-27b60e55a627))
  (pad "71" smd rect (at 5.2324 -0.71846 90) (locked) (size 0.15 1) (layers "F.Cu" "F.Paste" "F.Mask") (tstamp 2c6daacb-2930-47bc-b166-7d41f91b1967))
  (pad "72" smd rect (at 7.3152 -0.023336 90) (locked) (size 0.15 1) (layers "F.Cu" "F.Paste" "F.Mask") (tstamp 7c532919-963e-485f-b72b-b340b10327aa))
  (pad "73" smd rect (at 5.2324 -0.275775 90) (locked) (size 0.15 1) (layers "F.Cu" "F.Paste" "F.Mask") (tstamp 0b92d810-1e42-4389-9b5d-82cf45bc4431))
  (pad "74" smd rect (at 7.3152 0.62193 90) (locked) (size 0.15 1) (layers "F.Cu" "F.Paste" "F.Mask") (tstamp b2ea7837-3af6-44ef-848c-e5ec41286eb2))
  (pad "75" smd rect (at 5.2324 0.16691 90) (locked) (size 0.15 1) (layers "F.Cu" "F.Paste" "F.Mask") (tstamp 27e0394b-7d00-4873-a7f1-9bcbc631c1fc))
  (pad "76" smd rect (at 7.3152 1.2672 90) (locked) (size 0.15 1) (layers "F.Cu" "F.Paste" "F.Mask") (tstamp 2b2b8305-89aa-4641-a82d-1c36729815d6))
  (pad "77" smd rect (at 5.2324 0.6096 90) (locked) (size 0.15 1) (layers "F.Cu" "F.Paste" "F.Mask") (tstamp dbbdb737-5427-4bf6-b307-19bf7f8344cf))
  (pad "78" smd rect (at 5.2324 2.2324 90) (locked) (size 0.15 1) (layers "F.Cu" "F.Paste" "F.Mask") (tstamp 3f4dbd91-105c-4628-973d-ccc27567e996))
)
