(footprint "tsi_mpw_chip_f_wider_pads_distr" (version 20210126) (generator pcbnew) locked (layer "F.Cu")
  (tedit 60263A6D)
  (property "Sheetfile" "MightyPixRun2020_PCB.kicad_sch")
  (property "Sheetname" "")
  (solder_mask_margin -1)
  (solder_paste_ratio -0.5)
  (clearance 0.1)
  (attr exclude_from_pos_files)
  (fp_text reference "REF**" (at -10.9222 -8.5982) (layer "F.SilkS")
    (effects (font (size 1 1) (thickness 0.15)))
    (tstamp b5e84813-8fc2-43db-ab76-361929ec5c7c)
  )
  (fp_text value "MPW_Chip" (at 1.25 -10.5) (layer "F.Fab")
    (effects (font (size 1 1) (thickness 0.15)))
    (tstamp 258645e1-7716-4127-b911-9df6cffa2534)
  )
  (fp_text user "24" (at -0.05 2.15 90) (layer "Dwgs.User")
    (effects (font (size 0.05 0.05) (thickness 0.005)))
    (tstamp 0651024c-8ab0-45f9-b3c1-76aeacc80652)
  )
  (fp_text user "62" (at 2.4 -2.2) (layer "Dwgs.User")
    (effects (font (size 0.05 0.05) (thickness 0.001)))
    (tstamp 3d4992cd-20a7-4455-bdd1-987d7b6b55b7)
  )
  (fp_text user "48" (at 2.35 2.15 90) (layer "Dwgs.User")
    (effects (font (size 0.05 0.05) (thickness 0.001)))
    (tstamp 7719cd9f-cf1a-40c3-b139-db7243215139)
  )
  (fp_text user "78" (at 2.35 1.9) (layer "Dwgs.User")
    (effects (font (size 0.05 0.05) (thickness 0.001)))
    (tstamp 7eb378dd-be26-4587-9ea6-f9b0579cae49)
  )
  (fp_text user "61" (at -2.4 -0.7) (layer "Dwgs.User")
    (effects (font (size 0.05 0.05) (thickness 0.001)))
    (tstamp 88c2f0af-d49a-4559-b579-d3e0f7a7d99e)
  )
  (fp_text user "49" (at -2.3 -2.2) (layer "Dwgs.User")
    (effects (font (size 0.05 0.05) (thickness 0.001)))
    (tstamp 9dffec8d-d15b-4649-884a-c924e95ed2c7)
  )
  (fp_text user "1" (at -2.35 2.15 90) (layer "Dwgs.User")
    (effects (font (size 0.05 0.05) (thickness 0.001)))
    (tstamp a639a520-30a9-413c-af5a-c024932493e0)
  )
  (fp_text user "77" (at 2.4 -0.4) (layer "Dwgs.User")
    (effects (font (size 0.05 0.05) (thickness 0.001)))
    (tstamp f5cb6ad5-6a71-4e47-b8ce-da12561fcb5e)
  )
  (fp_line (start -5.3 5.25) (end -4.8 5.25) (layer "F.Cu") (width 0.1) (tstamp 032a6712-a88b-45be-bdf1-d1e484a7680a))
  (fp_line (start -3 2.92) (end -2.5 2.92) (layer "F.Cu") (width 0.1) (tstamp 0682fbbd-2b8a-41b1-b0e4-bf6582ceb602))
  (fp_line (start -3 2.42) (end -3 2.92) (layer "F.Cu") (width 0.1) (tstamp 1a23237d-b7c8-4d81-a064-d00c44364457))
  (fp_line (start -2.7 -4.2) (end -2.2 -4.2) (layer "F.Cu") (width 0.1) (tstamp 3712e916-3151-4be6-a683-f026f40b39a3))
  (fp_line (start 2.5 -2.95) (end 3 -2.95) (layer "F.Cu") (width 0.1) (tstamp 3fe41fa3-5b0c-4915-a7a2-6b5e774a77f0))
  (fp_line (start 5.1 5.65) (end 5.1 5.15) (layer "F.Cu") (width 0.1) (tstamp 4e41909c-da3a-4594-848d-a31e5be0281e))
  (fp_line (start -6.65 0.7) (end -6.65 0.2) (layer "F.Cu") (width 0.1) (tstamp 673bb35c-9934-436c-ad2e-33a083089f36))
  (fp_line (start 4.85 5.4) (end 5.35 5.4) (layer "F.Cu") (width 0.1) (tstamp 69e05846-49d6-489f-b6d5-450d95e27301))
  (fp_line (start -6.9 0.45) (end -6.4 0.45) (layer "F.Cu") (width 0.1) (tstamp 69e23cea-721e-451d-aab7-237c0add1367))
  (fp_line (start 3 -2.95) (end 3 -2.45) (layer "F.Cu") (width 0.1) (tstamp 8335a479-89bf-4780-9d7a-ed2d8228b8a9))
  (fp_line (start -3 -2.95) (end -3 -2.45) (layer "F.Cu") (width 0.1) (tstamp 8959def0-6ff3-47ed-be7d-2859e6208f7c))
  (fp_line (start 2.5 2.92) (end 3 2.92) (layer "F.Cu") (width 0.1) (tstamp af3dfb34-b755-4ed6-965d-a0a2ae6653a1))
  (fp_line (start -5.05 5.5) (end -5.05 5) (layer "F.Cu") (width 0.1) (tstamp baff82c0-cf00-407a-beb1-c72fec70e850))
  (fp_line (start 3 2.42) (end 3 2.92) (layer "F.Cu") (width 0.1) (tstamp c774476f-52ca-4236-b57d-471d68cebe09))
  (fp_line (start 2.7 -4.2) (end 2.2 -4.2) (layer "F.Cu") (width 0.1) (tstamp e51539cc-3e6c-4ef8-81e1-70c7c0376828))
  (fp_line (start 6.75 1.45) (end 6.75 0.95) (layer "F.Cu") (width 0.1) (tstamp e5c4d589-8941-40e0-8341-9099f2841739))
  (fp_line (start -2.5 -2.95) (end -3 -2.95) (layer "F.Cu") (width 0.1) (tstamp e7aaf3cb-bf70-47c5-8034-ca8b0dfcafe8))
  (fp_line (start 6.5 1.2) (end 7 1.2) (layer "F.Cu") (width 0.1) (tstamp fa1fef1b-20d4-48db-9cb1-94d8de2d1d4b))
  (fp_poly (pts (xy 8.4 8.2)
    (xy -8.4 8.2)
    (xy -8.4 -5.4)
    (xy 8.4 -5.4)) (layer "B.Mask") (width 0.1) (fill solid) (tstamp 697ff5cb-e8dd-4a97-80da-72c80a1f87df))
  (fp_poly (pts (xy 8.4 8.2)
    (xy -8.4 8.2)
    (xy -8.4 -5.4)
    (xy 8.4 -5.4)) (layer "F.Mask") (width 0.1) (fill solid) (tstamp 42028a80-18ef-4cab-a797-2328d1ae0ede))
  (fp_line (start 0 2.245) (end 0.075 2.245) (layer "Dwgs.User") (width 0.01) (tstamp 01329d28-6bce-423f-aad7-912bec7c7822))
  (fp_line (start 0.275 2.245) (end 0.275 2.385) (layer "Dwgs.User") (width 0.01) (tstamp 0157421d-7371-47e5-b87a-67c2f2a0363d))
  (fp_line (start 1.575 2.245) (end 1.575 2.385) (layer "Dwgs.User") (width 0.01) (tstamp 018e7f79-8ce7-4205-b460-f96965741155))
  (fp_line (start 2.475 -0.85) (end 2.475 -0.775) (layer "Dwgs.User") (width 0.01) (tstamp 01a2d38d-3e24-4e53-9487-4a75ede2f99f))
  (fp_line (start 2.475 -1.75) (end 2.475 -1.675) (layer "Dwgs.User") (width 0.01) (tstamp 01dee2a1-8bad-4bbf-9f8e-0e88d81fc733))
  (fp_line (start 2.4 -1.85) (end 2.475 -1.85) (layer "Dwgs.User") (width 0.01) (tstamp 034a2db6-0b62-43ad-9342-e393697ec711))
  (fp_line (start -1.425 2.245) (end -1.425 2.385) (layer "Dwgs.User") (width 0.01) (tstamp 0510ae44-3129-4133-ad0b-8b19a12c2805))
  (fp_line (start 2.4 -1.45) (end 2.475 -1.45) (layer "Dwgs.User") (width 0.01) (tstamp 0542aa31-7d8b-487d-99e3-2b93c183e3b2))
  (fp_line (start -0.5 2.245) (end -0.5 2.385) (layer "Dwgs.User") (width 0.01) (tstamp 056f4eda-63a6-4eda-a169-a11c7c5cd901))
  (fp_line (start -2.475 -1.35) (end -2.4 -1.35) (layer "Dwgs.User") (width 0.01) (tstamp 05af115a-f4ec-436a-90ea-b5cbaa028d30))
  (fp_line (start -2.4 -1.675) (end -2.475 -1.675) (layer "Dwgs.User") (width 0.01) (tstamp 05c30cbd-b45d-4bc1-b8a2-9eddf86ca3de))
  (fp_line (start -2.1 2.245) (end -2.1 2.385) (layer "Dwgs.User") (width 0.01) (tstamp 05d14020-984f-4c78-b640-b4fcc146908f))
  (fp_line (start 2.475 -1.675) (end 2.4 -1.675) (layer "Dwgs.User") (width 0.01) (tstamp 06f2cf6d-456a-42ba-b165-d18d150022ac))
  (fp_line (start 2.4 -1.95) (end 2.4 -1.875) (layer "Dwgs.User") (width 0.01) (tstamp 06f841df-5df4-4be6-a9a2-02f41387232e))
  (fp_line (start 2.4 -1.45) (end 2.4 -1.375) (layer "Dwgs.User") (width 0.01) (tstamp 08b2d78f-e695-4fc5-ae44-9d5a88d35ab2))
  (fp_line (start 1.8 2.245) (end 1.875 2.245) (layer "Dwgs.User") (width 0.01) (tstamp 08e6daac-c59b-4e88-8325-f2882371de6e))
  (fp_line (start -2.4 -1.35) (end -2.4 -1.275) (layer "Dwgs.User") (width 0.01) (tstamp 0a94ef13-7f1b-4e05-869e-4073d0ae098a))
  (fp_line (start -0.625 2.245) (end -0.625 2.385) (layer "Dwgs.User") (width 0.01) (tstamp 0ad8bb46-9067-4dac-9434-7fe5a2653701))
  (fp_line (start -2.4 2.245) (end -2.325 2.245) (layer "Dwgs.User") (width 0.01) (tstamp 0c1357eb-e936-4bc1-b010-951c9496056b))
  (fp_line (start 2.075 2.385) (end 2 2.385) (layer "Dwgs.User") (width 0.01) (tstamp 0d7f181a-a3a8-4881-9b9c-a8d1beb1f152))
  (fp_line (start -1.2 2.245) (end -1.2 2.385) (layer "Dwgs.User") (width 0.01) (tstamp 0dbd0614-7d6e-458f-afda-5ee26c0f2c61))
  (fp_line (start 2.475 -1.05) (end 2.475 -0.975) (layer "Dwgs.User") (width 0.01) (tstamp 0dcbc568-94d3-4ac4-ab16-ff26061330c8))
  (fp_line (start -0.7 2.245) (end -0.7 2.385) (layer "Dwgs.User") (width 0.01) (tstamp 0e80423e-038e-4100-8712-24252332a300))
  (fp_line (start 2.4 -0.55) (end 2.475 -0.55) (layer "Dwgs.User") (width 0.01) (tstamp 0ef0e019-8169-4353-89e7-2763dd155c2e))
  (fp_line (start 0.2 2.245) (end 0.2 2.385) (layer "Dwgs.User") (width 0.01) (tstamp 0f723104-147d-43f0-b5b4-55c4295a33bd))
  (fp_line (start 2.1 2.245) (end 2.175 2.245) (layer "Dwgs.User") (width 0.01) (tstamp 0f796e61-f970-4f74-9605-85dfc3bafeda))
  (fp_line (start -1.725 2.385) (end -1.8 2.385) (layer "Dwgs.User") (width 0.01) (tstamp 0f89dce1-c227-4c12-ab2d-5489f2f23494))
  (fp_line (start -2.225 2.385) (end -2.3 2.385) (layer "Dwgs.User") (width 0.01) (tstamp 0ff26913-f3eb-49fb-987b-faf3ca444ce8))
  (fp_line (start -2.4 -1.65) (end -2.4 -1.575) (layer "Dwgs.User") (width 0.01) (tstamp 1094d37d-9c12-4119-87eb-a24d92c335cb))
  (fp_line (start -1.4 2.245) (end -1.4 2.385) (layer "Dwgs.User") (width 0.01) (tstamp 10afe359-dc19-4f95-87f3-958b5ceaedbf))
  (fp_line (start 2.5 2.42) (end -2.5 2.42) (layer "Dwgs.User") (width 0.01) (tstamp 112f8b0c-43ab-4cef-b3fe-f9fa12024ba3))
  (fp_line (start -0.1 2.245) (end -0.1 2.385) (layer "Dwgs.User") (width 0.01) (tstamp 11e5ac74-6149-4f12-8a0b-6104af49b728))
  (fp_line (start 2.4 -1.25) (end 2.4 -1.175) (layer "Dwgs.User") (width 0.01) (tstamp 11fabebb-8089-4dda-83ac-725356e753c3))
  (fp_line (start -0.025 2.385) (end -0.1 2.385) (layer "Dwgs.User") (width 0.01) (tstamp 11fc1d15-a6d2-4577-ac9c-b48c1c7c628c))
  (fp_line (start -0.225 2.245) (end -0.225 2.385) (layer "Dwgs.User") (width 0.01) (tstamp 12431812-37f9-43cb-88dc-b571bea5def5))
  (fp_line (start -2.475 -1.75) (end -2.4 -1.75) (layer "Dwgs.User") (width 0.01) (tstamp 14db0c26-04bb-42d5-be44-4c6b4fe51ad6))
  (fp_line (start -0.125 2.385) (end -0.2 2.385) (layer "Dwgs.User") (width 0.01) (tstamp 15c5bafa-a0f1-44f2-a09d-ed824fc3610b))
  (fp_line (start 2.475 -1.775) (end 2.4 -1.775) (layer "Dwgs.User") (width 0.01) (tstamp 15f86a00-4eb4-42fe-9db4-3cb0f8af33d8))
  (fp_line (start -0.225 2.385) (end -0.3 2.385) (layer "Dwgs.User") (width 0.01) (tstamp 17f122fe-2164-4436-85a6-bf3232c1e052))
  (fp_line (start -1.325 2.245) (end -1.325 2.385) (layer "Dwgs.User") (width 0.01) (tstamp 181ce0b3-b509-4fb6-878d-eaeab6f7cc94))
  (fp_line (start -0.3 2.245) (end -0.3 2.385) (layer "Dwgs.User") (width 0.01) (tstamp 1844851a-c476-4c0e-b4c3-410cef4ffa5d))
  (fp_line (start -0.925 2.245) (end -0.925 2.385) (layer "Dwgs.User") (width 0.01) (tstamp 186ccf1f-ac32-4a7e-bc7b-1adcc489a269))
  (fp_line (start 2.275 2.245) (end 2.275 2.385) (layer "Dwgs.User") (width 0.01) (tstamp 1947e94e-761f-4da8-b066-c2a48a6a0cd8))
  (fp_line (start -2.475 -1.65) (end -2.4 -1.65) (layer "Dwgs.User") (width 0.01) (tstamp 1a930c21-7ed7-465e-b5d4-182d1d4d555a))
  (fp_line (start 2.3 2.245) (end 2.375 2.245) (layer "Dwgs.User") (width 0.01) (tstamp 1b7240eb-3b0f-4289-9817-cf5392e7b9ec))
  (fp_line (start 2.475 -0.575) (end 2.4 -0.575) (layer "Dwgs.User") (width 0.01) (tstamp 1c40eb0f-2e4a-4636-a1c4-f049fbe820b9))
  (fp_line (start -1.925 2.245) (end -1.925 2.385) (layer "Dwgs.User") (width 0.01) (tstamp 1c60f2a9-ac07-4d2b-b28a-218078aee07e))
  (fp_line (start 0.775 2.385) (end 0.7 2.385) (layer "Dwgs.User") (width 0.01) (tstamp 1c74546c-c6b3-430e-88ff-d0c9a27ef6cd))
  (fp_line (start 1.4 2.245) (end 1.4 2.385) (layer "Dwgs.User") (width 0.01) (tstamp 1cb151d7-9876-4502-9ba9-51b5919b7f59))
  (fp_line (start 1.6 2.245) (end 1.6 2.385) (layer "Dwgs.User") (width 0.01) (tstamp 1dab4349-cb0e-407d-9541-1625112ec768))
  (fp_line (start -2.475 -1.85) (end -2.475 -1.775) (layer "Dwgs.User") (width 0.01) (tstamp 1e1f4779-b969-42ef-bc0e-fa6caf321634))
  (fp_line (start -2.475 -0.85) (end -2.475 -0.775) (layer "Dwgs.User") (width 0.01) (tstamp 1f6ff4a0-8e60-42a5-b4ae-bd459c5b22b5))
  (fp_line (start -2.025 2.245) (end -2.025 2.385) (layer "Dwgs.User") (width 0.01) (tstamp 1fbcb170-dc39-47b2-8f3a-6938b3ef21cb))
  (fp_line (start 2.4 -1.55) (end 2.4 -1.475) (layer "Dwgs.User") (width 0.01) (tstamp 223f36b2-9e2a-44b6-94f3-b23ecbe7a8f0))
  (fp_line (start 0.7 2.245) (end 0.7 2.385) (layer "Dwgs.User") (width 0.01) (tstamp 2447fb37-06b9-40b6-ada0-18cebd618789))
  (fp_line (start 2.475 -0.775) (end 2.4 -0.775) (layer "Dwgs.User") (width 0.01) (tstamp 24a12ad7-6cfd-4690-a30a-82768a54a3dd))
  (fp_line (start 2.475 -1.175) (end 2.4 -1.175) (layer "Dwgs.User") (width 0.01) (tstamp 24c9a574-baf4-4907-8552-2b2dcf4f81bd))
  (fp_line (start -2.325 2.245) (end -2.325 2.385) (layer "Dwgs.User") (width 0.01) (tstamp 251bb4b8-fccb-423c-b564-aa12defbd10b))
  (fp_line (start 0.4 2.245) (end 0.475 2.245) (layer "Dwgs.User") (width 0.01) (tstamp 26f5e788-8cc7-4aee-8da9-410d54c8e4aa))
  (fp_line (start -2.475 -1.55) (end -2.475 -1.475) (layer "Dwgs.User") (width 0.01) (tstamp 26ff37fc-7fac-47c3-90e6-b4cacb3806c2))
  (fp_line (start 2.4 -1.85) (end 2.4 -1.775) (layer "Dwgs.User") (width 0.01) (tstamp 27e52ec5-786a-48a1-9a35-d5b126e78ca7))
  (fp_line (start 2.375 2.245) (end 2.375 2.385) (layer "Dwgs.User") (width 0.01) (tstamp 288d0b3c-89a7-4088-95d6-0270c4a1321f))
  (fp_line (start 1.975 2.385) (end 1.9 2.385) (layer "Dwgs.User") (width 0.01) (tstamp 29564d62-ca3d-4593-9fb4-1a6c1f6287d0))
  (fp_line (start -2.4 -0.775) (end -2.475 -0.775) (layer "Dwgs.User") (width 0.01) (tstamp 2a0954f2-91fa-4632-8a72-32ccf1a18faa))
  (fp_line (start -1.625 2.385) (end -1.7 2.385) (layer "Dwgs.User") (width 0.01) (tstamp 2b4e9d95-b687-438d-9929-b16f8b32bb30))
  (fp_line (start -2.4 -0.95) (end -2.4 -0.875) (layer "Dwgs.User") (width 0.01) (tstamp 2c8c6e90-a828-4a1e-a586-af6de13eaeab))
  (fp_line (start 2.4 -0.75) (end 2.4 -0.675) (layer "Dwgs.User") (width 0.01) (tstamp 2dc0d14e-b826-45e8-a0dc-b6aaeb75c38f))
  (fp_line (start 2.175 2.385) (end 2.1 2.385) (layer "Dwgs.User") (width 0.01) (tstamp 2f01bd7c-327d-4c37-a5e4-fa70d03c688f))
  (fp_line (start 0.1 2.245) (end 0.175 2.245) (layer "Dwgs.User") (width 0.01) (tstamp 2f2dd846-52c6-4bdb-bdad-dd35f2c17986))
  (fp_line (start 0.2 2.245) (end 0.275 2.245) (layer "Dwgs.User") (width 0.01) (tstamp 2f42163a-088f-4b28-82e4-bfd5cd9237a7))
  (fp_line (start -1 2.245) (end -0.925 2.245) (layer "Dwgs.User") (width 0.01) (tstamp 2fb4567e-1998-44a6-a4cc-633739545f4a))
  (fp_line (start 0.475 2.245) (end 0.475 2.385) (layer "Dwgs.User") (width 0.01) (tstamp 31543cca-c34c-4286-a9c1-4c993acafb31))
  (fp_line (start -2.475 -1.15) (end -2.4 -1.15) (layer "Dwgs.User") (width 0.01) (tstamp 31cdc888-b941-4acb-8a1f-9e7c906a7adc))
  (fp_line (start -1.8 2.245) (end -1.725 2.245) (layer "Dwgs.User") (width 0.01) (tstamp 331a648e-fd60-4f9d-808d-23f8f676cfb3))
  (fp_line (start -0.9 2.245) (end -0.9 2.385) (layer "Dwgs.User") (width 0.01) (tstamp 348cf873-a58d-413b-8137-55f353888f79))
  (fp_line (start -0.525 2.245) (end -0.525 2.385) (layer "Dwgs.User") (width 0.01) (tstamp 34bf5a2f-b7d7-4468-8ac1-3f64188f537a))
  (fp_line (start 0.5 2.245) (end 0.575 2.245) (layer "Dwgs.User") (width 0.01) (tstamp 351ece11-4109-44d1-b519-68b0a3c7c393))
  (fp_line (start 2.475 -1.375) (end 2.4 -1.375) (layer "Dwgs.User") (width 0.01) (tstamp 35b6d9ce-e291-4865-822c-5d099b2e0b3b))
  (fp_line (start -1.9 2.245) (end -1.9 2.385) (layer "Dwgs.User") (width 0.01) (tstamp 3616c055-8cf3-442c-a64d-5ad16bb76a20))
  (fp_line (start 2.4 -0.55) (end 2.4 -0.475) (layer "Dwgs.User") (width 0.01) (tstamp 377deb4c-82fa-47b1-a6d3-eb7634d96a99))
  (fp_line (start -1.725 2.245) (end -1.725 2.385) (layer "Dwgs.User") (width 0.01) (tstamp 3a8d6f34-f3cd-41a8-888b-8450c99646aa))
  (fp_line (start 1.4 2.245) (end 1.475 2.245) (layer "Dwgs.User") (width 0.01) (tstamp 3ac658ce-6286-4992-a756-c019ec38af3c))
  (fp_line (start -2.3 2.245) (end -2.3 2.385) (layer "Dwgs.User") (width 0.01) (tstamp 3afa9ef0-b392-4337-881c-d579ec30d151))
  (fp_line (start 2.1 2.245) (end 2.1 2.385) (layer "Dwgs.User") (width 0.01) (tstamp 3b132a04-e7f7-4a75-9cde-3f2619c90e84))
  (fp_line (start -0.025 2.245) (end -0.025 2.385) (layer "Dwgs.User") (width 0.01) (tstamp 3b790294-365b-4e05-bfdb-9886f9974096))
  (fp_line (start 2.4 -1.65) (end 2.4 -1.575) (layer "Dwgs.User") (width 0.01) (tstamp 3bbb027e-5ee6-4f64-ba81-c0d3a9f14199))
  (fp_line (start 2.175 2.245) (end 2.175 2.385) (layer "Dwgs.User") (width 0.01) (tstamp 3c0fadb8-435b-478e-8e3e-cd5e28a4b33e))
  (fp_line (start -1.7 2.245) (end -1.625 2.245) (layer "Dwgs.User") (width 0.01) (tstamp 3c264d2a-5cb1-4c04-a0be-52626a17300c))
  (fp_line (start -2.475 -1.85) (end -2.4 -1.85) (layer "Dwgs.User") (width 0.01) (tstamp 3c5b36c7-c5d2-4961-a0f6-605162294d92))
  (fp_line (start 0.6 2.245) (end 0.6 2.385) (layer "Dwgs.User") (width 0.01) (tstamp 3d69a4c4-3290-4641-bf32-3b883b13588d))
  (fp_line (start -1.1 2.245) (end -1.025 2.245) (layer "Dwgs.User") (width 0.01) (tstamp 3e963a06-d6da-46b4-9e05-4026c190a694))
  (fp_line (start -0.425 2.245) (end -0.425 2.385) (layer "Dwgs.User") (width 0.01) (tstamp 3eb7ce96-b346-45a5-9b59-10652e9593b8))
  (fp_line (start -1.325 2.385) (end -1.4 2.385) (layer "Dwgs.User") (width 0.01) (tstamp 3fc79bc0-7b77-4ab5-9fe1-774767ca6fb9))
  (fp_line (start 0.575 2.385) (end 0.5 2.385) (layer "Dwgs.User") (width 0.01) (tstamp 401feacd-ed30-4ced-864b-8671de3bba90))
  (fp_line (start 2.475 -2.15) (end 2.475 -2.075) (layer "Dwgs.User") (width 0.01) (tstamp 41526729-a6f4-4849-af73-d4b5701ac657))
  (fp_line (start -2.5 -2.45) (end 2.5 -2.45) (layer "Dwgs.User") (width 0.01) (tstamp 4533e5db-7cf9-4ce3-bb99-f56f78ceec1d))
  (fp_line (start 2.475 -1.575) (end 2.4 -1.575) (layer "Dwgs.User") (width 0.01) (tstamp 45903a35-b911-43a8-98f1-599fe330f1f2))
  (fp_line (start -2.475 -2.25) (end -2.4 -2.25) (layer "Dwgs.User") (width 0.01) (tstamp 45a2510f-8f87-496e-ad24-52e84c187ff9))
  (fp_line (start -1.7 2.245) (end -1.7 2.385) (layer "Dwgs.User") (width 0.01) (tstamp 45c01b9f-84ce-40f5-ab9f-541518738cd5))
  (fp_line (start 2.475 -0.975) (end 2.4 -0.975) (layer "Dwgs.User") (width 0.01) (tstamp 45c71d62-233c-4ef8-be8e-ec66e339ac44))
  (fp_line (start -2.475 -1.05) (end -2.475 -0.975) (layer "Dwgs.User") (width 0.01) (tstamp 4774a1f1-86fa-4b68-9fb3-3ab32da332f0))
  (fp_line (start -2.4 -1.875) (end -2.475 -1.875) (layer "Dwgs.User") (width 0.01) (tstamp 478db3da-05da-4efe-8ee9-4794d6f28fe6))
  (fp_line (start 1.275 2.385) (end 1.2 2.385) (layer "Dwgs.User") (width 0.01) (tstamp 4a1d64da-4c2e-470f-8bf7-d659bcf83fd4))
  (fp_line (start 2.475 -1.475) (end 2.4 -1.475) (layer "Dwgs.User") (width 0.01) (tstamp 4a6b9141-9204-4352-a93d-390676607138))
  (fp_line (start -2.4 -1.15) (end -2.4 -1.075) (layer "Dwgs.User") (width 0.01) (tstamp 4a926f0c-d46b-4aa0-b1ce-1285ab7c13ea))
  (fp_line (start 0.4 2.245) (end 0.4 2.385) (layer "Dwgs.User") (width 0.01) (tstamp 4c54f71b-164a-45be-b679-ad06deabc609))
  (fp_line (start 1.9 2.245) (end 1.9 2.385) (layer "Dwgs.User") (width 0.01) (tstamp 4ccc4bac-6bdf-4a63-a4e1-395b3510748c))
  (fp_line (start -0.3 2.245) (end -0.225 2.245) (layer "Dwgs.User") (width 0.01) (tstamp 4db48a19-f3e3-4e6e-9424-0f648a76139e))
  (fp_line (start -1.5 2.245) (end -1.425 2.245) (layer "Dwgs.User") (width 0.01) (tstamp 4faeb72e-5834-473f-b185-b0ca81dd9d4f))
  (fp_line (start 0.875 2.245) (end 0.875 2.385) (layer "Dwgs.User") (width 0.01) (tstamp 510b267c-5a94-4073-ac30-ecee8d9985c9))
  (fp_line (start -0.825 2.245) (end -0.825 2.385) (layer "Dwgs.User") (width 0.01) (tstamp 51c60543-7299-456a-b62a-851bfc4a73d9))
  (fp_line (start 1.675 2.385) (end 1.6 2.385) (layer "Dwgs.User") (width 0.01) (tstamp 525efd8d-3389-47ec-b36d-1b1e274b8571))
  (fp_line (start 0.7 2.245) (end 0.775 2.245) (layer "Dwgs.User") (width 0.01) (tstamp 53268ac8-2e8a-4843-b322-117bbdc58d96))
  (fp_line (start -0.325 2.245) (end -0.325 2.385) (layer "Dwgs.User") (width 0.01) (tstamp 538e3617-613d-49bd-a3e3-3bcfd4c026e7))
  (fp_line (start -0.5 2.245) (end -0.425 2.245) (layer "Dwgs.User") (width 0.01) (tstamp 539f3959-b5ef-41f0-8b95-e4f26a41a007))
  (fp_line (start -2.4 -1.175) (end -2.475 -1.175) (layer "Dwgs.User") (width 0.01) (tstamp 55709649-6a79-4a49-ae17-c1a5ba551edf))
  (fp_line (start -2.4 -0.975) (end -2.475 -0.975) (layer "Dwgs.User") (width 0.01) (tstamp 560d2484-03e5-4de9-b6f3-f30ec82e462f))
  (fp_line (start -0.425 2.385) (end -0.5 2.385) (layer "Dwgs.User") (width 0.01) (tstamp 5633ff46-ee82-4afc-9235-216e1a636eab))
  (fp_line (start -2.4 -0.85) (end -2.4 -0.775) (layer "Dwgs.User") (width 0.01) (tstamp 573e0b9e-86eb-4628-8c66-de6be6754108))
  (fp_line (start 2.475 -1.45) (end 2.475 -1.375) (layer "Dwgs.User") (width 0.01) (tstamp 587389cf-7ccf-4627-9732-a1750a2adc3b))
  (fp_line (start -2.475 -2.25) (end -2.475 -2.175) (layer "Dwgs.User") (width 0.01) (tstamp 5b21d561-61ef-453c-88cd-fa7272d5a828))
  (fp_line (start -0.4 2.245) (end -0.325 2.245) (layer "Dwgs.User") (width 0.01) (tstamp 5b655c60-189b-43d2-b6e8-2694568d4ad7))
  (fp_line (start -1.4 2.245) (end -1.325 2.245) (layer "Dwgs.User") (width 0.01) (tstamp 5c6d6f6e-9785-49f9-ab4c-b1d1945de1fd))
  (fp_line (start 2.475 -1.55) (end 2.475 -1.475) (layer "Dwgs.User") (width 0.01) (tstamp 5ccd1b86-9237-4f44-acda-7a2b07d3fb05))
  (fp_line (start 2.475 -1.15) (end 2.475 -1.075) (layer "Dwgs.User") (width 0.01) (tstamp 5d9f02ea-8f0d-49e4-98db-0ccaff8135b6))
  (fp_line (start 2.3 2.245) (end 2.3 2.385) (layer "Dwgs.User") (width 0.01) (tstamp 5dfd26b0-47ef-4fae-9c5d-bc3a47cfb9ac))
  (fp_line (start 1.9 2.245) (end 1.975 2.245) (layer "Dwgs.User") (width 0.01) (tstamp 5e78186f-b981-449a-9a66-1fee32914d06))
  (fp_line (start -1.3 2.245) (end -1.3 2.385) (layer "Dwgs.User") (width 0.01) (tstamp 5eaf6fbf-bfaf-40cb-a1bf-d4360f753e2a))
  (fp_line (start -2.4 2.245) (end -2.4 2.385) (layer "Dwgs.User") (width 0.01) (tstamp 6060ace9-b26d-4a94-b91c-08ef5a9955cd))
  (fp_line (start 2.4 -1.75) (end 2.475 -1.75) (layer "Dwgs.User") (width 0.01) (tstamp 624cf7e8-c300-416d-83d5-b605ff03f62e))
  (fp_line (start 2.4 -1.05) (end 2.4 -0.975) (layer "Dwgs.User") (width 0.01) (tstamp 6259ebea-1a8b-423f-aa9d-6c9cc5d0eaae))
  (fp_line (start -2.5 -2.45) (end -2.5 2.42) (layer "Dwgs.User") (width 0.01) (tstamp 63b72cc4-c176-424d-9451-f28d29fd2d46))
  (fp_line (start -2.2 2.245) (end -2.2 2.385) (layer "Dwgs.User") (width 0.01) (tstamp 6469f806-cb5c-4e70-bf17-96d7cfd164c2))
  (fp_line (start 0.8 2.245) (end 0.875 2.245) (layer "Dwgs.User") (width 0.01) (tstamp 6669ff65-6e4f-4afa-ad59-c6539e488306))
  (fp_line (start 0.3 2.245) (end 0.3 2.385) (layer "Dwgs.User") (width 0.01) (tstamp 6813b620-7414-4100-acbe-f6523060bc39))
  (fp_line (start -0.9 2.245) (end -0.825 2.245) (layer "Dwgs.User") (width 0.01) (tstamp 69731e28-9aec-4f64-9c0f-f655343db04e))
  (fp_line (start 2.375 1.98) (end 2.375 2.055) (layer "Dwgs.User") (width 0.01) (tstamp 6be93aa1-8ea1-4a8b-986c-ecfc0c9b2daa))
  (fp_line (start -2.4 -1.475) (end -2.475 -1.475) (layer "Dwgs.User") (width 0.01) (tstamp 6c454bb4-db5c-4e15-82c3-03067c98eb1b))
  (fp_line (start -2.4 -1.575) (end -2.475 -1.575) (layer "Dwgs.User") (width 0.01) (tstamp 6ddb7f68-c0fd-4a35-aec6-0d164d56186e))
  (fp_line (start 1.7 2.245) (end 1.7 2.385) (layer "Dwgs.User") (width 0.01) (tstamp 6deef3cf-5692-4e28-a5d7-c25eca798f16))
  (fp_line (start 0.3 2.245) (end 0.375 2.245) (layer "Dwgs.User") (width 0.01) (tstamp 6e1cbbd4-3fb7-41d9-8ae0-cfe13dc8a4ef))
  (fp_line (start 1.875 2.385) (end 1.8 2.385) (layer "Dwgs.User") (width 0.01) (tstamp 6e9e02f7-e601-4d54-b97b-3a57e5ab932c))
  (fp_line (start -2.4 -2.25) (end -2.4 -2.175) (layer "Dwgs.User") (width 0.01) (tstamp 6ed575fa-756a-4e73-944b-beb52fd3e846))
  (fp_line (start 2.475 -0.55) (end 2.475 -0.475) (layer "Dwgs.User") (width 0.01) (tstamp 6f9fe1c2-7951-43a9-a691-19c4bb5e58a3))
  (fp_line (start 2.475 -1.875) (end 2.4 -1.875) (layer "Dwgs.User") (width 0.01) (tstamp 6ff3cbf6-6391-427d-9bbf-a22a3e1c35a4))
  (fp_line (start -2.475 -1.25) (end -2.475 -1.175) (layer "Dwgs.User") (width 0.01) (tstamp 7051a5e5-ea02-410b-a61a-4fffbe9fe5f6))
  (fp_line (start -2.4 -1.45) (end -2.4 -1.375) (layer "Dwgs.User") (width 0.01) (tstamp 70c555ce-4278-496e-a367-c45356496f1b))
  (fp_line (start -2.3 2.245) (end -2.225 2.245) (layer "Dwgs.User") (width 0.01) (tstamp 72ff0f65-b6a7-4326-b081-fca2ac619474))
  (fp_line (start 2.4 -0.75) (end 2.475 -0.75) (layer "Dwgs.User") (width 0.01) (tstamp 73c67c6b-3680-4f21-b6b8-b8720a3b800d))
  (fp_line (start 2.4 -1.35) (end 2.4 -1.275) (layer "Dwgs.User") (width 0.01) (tstamp 74d577b4-0891-4ae3-92a5-f16182869cd8))
  (fp_line (start -0.525 2.385) (end -0.6 2.385) (layer "Dwgs.User") (width 0.01) (tstamp 75a679f8-ec64-460a-81e4-bb1d20a54dd7))
  (fp_line (start -1 2.245) (end -1 2.385) (layer "Dwgs.User") (width 0.01) (tstamp 76183b0e-b76d-4b19-be6e-b03ccbb5b893))
  (fp_line (start 2.4 -0.65) (end 2.4 -0.575) (layer "Dwgs.User") (width 0.01) (tstamp 7694ad46-9ada-49ce-b753-b4fcd3337b87))
  (fp_line (start -1.525 2.385) (end -1.6 2.385) (layer "Dwgs.User") (width 0.01) (tstamp 76fee97f-4648-468a-bf67-acad559c3e9c))
  (fp_line (start 0.375 2.385) (end 0.3 2.385) (layer "Dwgs.User") (width 0.01) (tstamp 78ba6298-51a2-4fe5-ac75-99e7029f08b3))
  (fp_line (start 1.7 2.245) (end 1.775 2.245) (layer "Dwgs.User") (width 0.01) (tstamp 79c5a469-fdfd-4793-87d7-af1e998dfef4))
  (fp_line (start 1.375 2.245) (end 1.375 2.385) (layer "Dwgs.User") (width 0.01) (tstamp 7ac48b1e-44ce-4c1a-97ea-5513cffea73e))
  (fp_line (start 2.4 -1.95) (end 2.475 -1.95) (layer "Dwgs.User") (width 0.01) (tstamp 7c1d3d46-5713-49d0-86c7-ade5d1f2501c))
  (fp_line (start 1.5 2.245) (end 1.5 2.385) (layer "Dwgs.User") (width 0.01) (tstamp 7ca9e6f0-2dee-4a26-bec1-f8b0c25e029e))
  (fp_line (start 2.475 -1.65) (end 2.475 -1.575) (layer "Dwgs.User") (width 0.01) (tstamp 7d941e3f-e795-4f89-8450-d42b6d3211cc))
  (fp_line (start -2.475 -1.95) (end -2.4 -1.95) (layer "Dwgs.User") (width 0.01) (tstamp 7e2c9527-bf9a-4768-9006-e818bac4bcb3))
  (fp_line (start 2.375 2.055) (end 2.3 2.055) (layer "Dwgs.User") (width 0.01) (tstamp 7e38b5a2-be94-4763-b571-9c7353a378e1))
  (fp_line (start 2.475 -1.95) (end 2.475 -1.875) (layer "Dwgs.User") (width 0.01) (tstamp 7f0c64ca-4ad6-46ce-be50-f92f5d0e94bb))
  (fp_line (start -1.925 2.385) (end -2 2.385) (layer "Dwgs.User") (width 0.01) (tstamp 7f32171c-5e82-454e-91f9-93cd067f2ff1))
  (fp_line (start -0.725 2.245) (end -0.725 2.385) (layer "Dwgs.User") (width 0.01) (tstamp 7fbb60a5-f319-4368-a0bb-b0f8d54bc89c))
  (fp_line (start 0.9 2.245) (end 0.9 2.385) (layer "Dwgs.User") (width 0.01) (tstamp 80340238-a347-46e4-8295-5fbd79ea56ae))
  (fp_line (start -1.525 2.245) (end -1.525 2.385) (layer "Dwgs.User") (width 0.01) (tstamp 80bb7edc-8b28-4f59-bd62-e49e06a056f5))
  (fp_line (start 2.3 1.98) (end 2.375 1.98) (layer "Dwgs.User") (width 0.01) (tstamp 813ca43b-ecc4-4449-8886-021598c9fc3a))
  (fp_line (start 2.4 -0.65) (end 2.475 -0.65) (layer "Dwgs.User") (width 0.01) (tstamp 81fd8e0e-c868-404b-8bc8-6412aed36d97))
  (fp_line (start -2.4 -1.375) (end -2.475 -1.375) (layer "Dwgs.User") (width 0.01) (tstamp 827e8ff6-20e9-48f1-b57e-28139505c4a5))
  (fp_line (start -1.8 2.245) (end -1.8 2.385) (layer "Dwgs.User") (width 0.01) (tstamp 838241fa-0b30-45d1-9722-712e3e64b113))
  (fp_line (start -2.025 2.385) (end -2.1 2.385) (layer "Dwgs.User") (width 0.01) (tstamp 83db9bdc-2038-43e2-ab88-b69eecb9ab89))
  (fp_line (start -2.4 -0.875) (end -2.475 -0.875) (layer "Dwgs.User") (width 0.01) (tstamp 86fb64da-6f61-4393-86cd-e4650e7cecc4))
  (fp_line (start -0.625 2.385) (end -0.7 2.385) (layer "Dwgs.User") (width 0.01) (tstamp 87c84458-80fd-451f-89b8-0cc1ae9b7a51))
  (fp_line (start 2.4 -1.65) (end 2.475 -1.65) (layer "Dwgs.User") (width 0.01) (tstamp 8af08b25-0e00-4157-87db-6b4483f3595e))
  (fp_line (start -0.725 2.385) (end -0.8 2.385) (layer "Dwgs.User") (width 0.01) (tstamp 8b7be5ff-d232-4894-a2f8-b41f2557bb5f))
  (fp_line (start 1.675 2.245) (end 1.675 2.385) (layer "Dwgs.User") (width 0.01) (tstamp 8c9b97b0-b03a-4589-b9f1-65800d9ebb3c))
  (fp_line (start -1.225 2.245) (end -1.225 2.385) (layer "Dwgs.User") (width 0.01) (tstamp 8d594c24-237a-4cbc-b82b-8a2163454372))
  (fp_line (start 2.4 -0.95) (end 2.475 -0.95) (layer "Dwgs.User") (width 0.01) (tstamp 8dafd521-52de-4aa7-8a2b-086cb4c359e6))
  (fp_line (start -2.4 -1.05) (end -2.4 -0.975) (layer "Dwgs.User") (width 0.01) (tstamp 8fff4113-f8f1-44eb-bbab-d68acf102f3e))
  (fp_line (start 0.875 2.385) (end 0.8 2.385) (layer "Dwgs.User") (width 0.01) (tstamp 90bcfbd6-1b6c-4d38-bb05-f36ece83cd14))
  (fp_line (start 2.4 -0.85) (end 2.4 -0.775) (layer "Dwgs.User") (width 0.01) (tstamp 91ab5378-6cb8-4272-b616-9ae4cd9c6ce1))
  (fp_line (start -2.225 2.245) (end -2.225 2.385) (layer "Dwgs.User") (width 0.01) (tstamp 91d7dd55-d434-4bc6-848c-a930b5f1a949))
  (fp_line (start 2.4 -0.95) (end 2.4 -0.875) (layer "Dwgs.User") (width 0.01) (tstamp 92467d8f-8bd0-4633-acbb-eb538934b683))
  (fp_line (start -1.425 2.385) (end -1.5 2.385) (layer "Dwgs.User") (width 0.01) (tstamp 933000f1-30e4-4805-b578-25b0e7ea0dfb))
  (fp_line (start 2.3 1.98) (end 2.3 2.055) (layer "Dwgs.User") (width 0.01) (tstamp 94be31ea-7578-4812-88f1-e14315fe0630))
  (fp_line (start -0.6 2.245) (end -0.6 2.385) (layer "Dwgs.User") (width 0.01) (tstamp 951a3b25-48f4-4a2d-baa4-72f5a82efb36))
  (fp_line (start 1.875 2.245) (end 1.875 2.385) (layer "Dwgs.User") (width 0.01) (tstamp 95df4e9a-94c5-424e-9329-c60a6b0213f1))
  (fp_line (start -1.225 2.385) (end -1.3 2.385) (layer "Dwgs.User") (width 0.01) (tstamp 95e0143b-8622-42c9-9f55-afe4d622c381))
  (fp_line (start -1.025 2.245) (end -1.025 2.385) (layer "Dwgs.User") (width 0.01) (tstamp 96f8e53a-a196-44a4-8d00-47be68e59950))
  (fp_line (start -1.9 2.245) (end -1.825 2.245) (layer "Dwgs.User") (width 0.01) (tstamp 97dc25f0-f176-4455-a1e3-f0c0fdc0415a))
  (fp_line (start 1.275 2.245) (end 1.275 2.385) (layer "Dwgs.User") (width 0.01) (tstamp 987afce5-76b5-4d74-9874-bc20a95a7c80))
  (fp_line (start 0.1 2.245) (end 0.1 2.385) (layer "Dwgs.User") (width 0.01) (tstamp 994680f8-444f-459c-8cba-3e9259ac2de5))
  (fp_line (start 2.475 -1.25) (end 2.475 -1.175) (layer "Dwgs.User") (width 0.01) (tstamp 99c9e344-0814-4ec5-b90d-90cb9736216b))
  (fp_line (start 1.075 2.385) (end 1 2.385) (layer "Dwgs.User") (width 0.01) (tstamp 9a1ba162-a0ef-4d4d-9dfe-29e7c5b53c76))
  (fp_line (start -2.4 -1.075) (end -2.475 -1.075) (layer "Dwgs.User") (width 0.01) (tstamp 9a371e62-31e5-4462-88aa-f33178a4a389))
  (fp_line (start 1 2.245) (end 1.075 2.245) (layer "Dwgs.User") (width 0.01) (tstamp 9b342360-8e02-4c11-812a-736d30b9f548))
  (fp_line (start -2.4 -1.25) (end -2.4 -1.175) (layer "Dwgs.User") (width 0.01) (tstamp 9b8d3407-e830-4f6f-94bf-5ed508a1841f))
  (fp_line (start 0.275 2.385) (end 0.2 2.385) (layer "Dwgs.User") (width 0.01) (tstamp 9bad1a55-ff71-4465-afa6-b8b0bff3c637))
  (fp_line (start 0.775 2.245) (end 0.775 2.385) (layer "Dwgs.User") (width 0.01) (tstamp 9c3b0b53-d8a5-4b35-851d-832284cfcc63))
  (fp_line (start -1.1 2.245) (end -1.1 2.385) (layer "Dwgs.User") (width 0.01) (tstamp 9da61178-2a18-43d6-8811-14cd255cf8b2))
  (fp_line (start -2 2.245) (end -2 2.385) (layer "Dwgs.User") (width 0.01) (tstamp 9e2b70ca-bf3b-44ab-9720-4c80b5525871))
  (fp_line (start 0.9 2.245) (end 0.975 2.245) (layer "Dwgs.User") (width 0.01) (tstamp 9e4b04b2-f7f5-4d5d-9c05-8725adbfeea9))
  (fp_line (start 0.8 2.245) (end 0.8 2.385) (layer "Dwgs.User") (width 0.01) (tstamp 9f61952d-3fe4-4b7c-9b30-a1eb1254ab7e))
  (fp_line (start -0.8 2.245) (end -0.725 2.245) (layer "Dwgs.User") (width 0.01) (tstamp 9f9e6420-34cc-48a1-85d3-0a4576abaff0))
  (fp_line (start 1.8 2.245) (end 1.8 2.385) (layer "Dwgs.User") (width 0.01) (tstamp a156aeff-4d41-4bec-820d-1f14b965581c))
  (fp_line (start 2.475 -0.475) (end 2.4 -0.475) (layer "Dwgs.User") (width 0.01) (tstamp a2973d4e-54cd-4ca2-9fe0-ef7cb9d8d2bc))
  (fp_line (start 2.475 -0.675) (end 2.4 -0.675) (layer "Dwgs.User") (width 0.01) (tstamp a2b8e3a5-5d62-4812-8b92-7c3ceae063b7))
  (fp_line (start 2.275 2.385) (end 2.2 2.385) (layer "Dwgs.User") (width 0.01) (tstamp a311bea6-1027-4a4f-9a9c-ff5f3f9a81da))
  (fp_line (start 1.1 2.245) (end 1.175 2.245) (layer "Dwgs.User") (width 0.01) (tstamp a41941bb-be20-4ca0-b4b7-7ae4fa8e437b))
  (fp_line (start 0.175 2.385) (end 0.1 2.385) (layer "Dwgs.User") (width 0.01) (tstamp a4fb9953-23d2-4c24-8864-0aeb5634bcac))
  (fp_line (start -0.7 2.245) (end -0.625 2.245) (layer "Dwgs.User") (width 0.01) (tstamp a65f80be-c875-4dc2-953f-96b52a2ecf5f))
  (fp_line (start 2.475 -1.075) (end 2.4 -1.075) (layer "Dwgs.User") (width 0.01) (tstamp a6956af1-e6e1-479e-9f57-b82d5b935c45))
  (fp_line (start -2.1 2.245) (end -2.025 2.245) (layer "Dwgs.User") (width 0.01) (tstamp a7028534-dea9-421b-a629-9b23de6c0369))
  (fp_line (start 2.4 -1.15) (end 2.4 -1.075) (layer "Dwgs.User") (width 0.01) (tstamp a7756150-c1d3-4b70-aeda-06dfef3e8210))
  (fp_line (start 1.775 2.385) (end 1.7 2.385) (layer "Dwgs.User") (width 0.01) (tstamp a7cefe61-dbec-461b-ac2a-78b1c47e22b7))
  (fp_line (start 1.6 2.245) (end 1.675 2.245) (layer "Dwgs.User") (width 0.01) (tstamp a8b9d1f5-f2fe-4272-ac1c-7965f917689b))
  (fp_line (start 2.4 -0.85) (end 2.475 -0.85) (layer "Dwgs.User") (width 0.01) (tstamp ac5af574-21c0-442e-8416-da3496542692))
  (fp_line (start -0.2 2.245) (end -0.125 2.245) (layer "Dwgs.User") (width 0.01) (tstamp ac8180f0-7074-4c82-bd9f-bb4bae9b0d15))
  (fp_line (start 1.575 2.385) (end 1.5 2.385) (layer "Dwgs.User") (width 0.01) (tstamp ac9609fd-295e-44ab-9f62-8df2a766648b))
  (fp_line (start 2.2 2.245) (end 2.2 2.385) (layer "Dwgs.User") (width 0.01) (tstamp ad542f82-adac-4e76-8547-843aa7cf51e0))
  (fp_line (start 1 2.245) (end 1 2.385) (layer "Dwgs.User") (width 0.01) (tstamp ad650905-7d27-489e-9b77-ef07c72528e4))
  (fp_line (start 2.475 -0.875) (end 2.4 -0.875) (layer "Dwgs.User") (width 0.01) (tstamp ae2d76a8-68f8-4801-8b66-1bca7d60d342))
  (fp_line (start 1.775 2.245) (end 1.775 2.385) (layer "Dwgs.User") (width 0.01) (tstamp aec357ed-918e-400f-bba1-65569b872785))
  (fp_line (start 0.375 2.245) (end 0.375 2.385) (layer "Dwgs.User") (width 0.01) (tstamp af15f259-c19f-4646-9326-6a49d676ed9e))
  (fp_line (start -0.4 2.245) (end -0.4 2.385) (layer "Dwgs.User") (width 0.01) (tstamp af6afbd6-3f1f-4b42-9c8a-0ff070bebaf6))
  (fp_line (start -0.325 2.385) (end -0.4 2.385) (layer "Dwgs.User") (width 0.01) (tstamp afba5258-063f-4ff0-8116-81545c62bbff))
  (fp_line (start -2.475 -1.35) (end -2.475 -1.275) (layer "Dwgs.User") (width 0.01) (tstamp b1cc6f19-c2fe-4bb9-b057-c5240f50a2e3))
  (fp_line (start -2.475 -1.65) (end -2.475 -1.575) (layer "Dwgs.User") (width 0.01) (tstamp b345b670-2a96-4bbf-9825-80c1070d9604))
  (fp_line (start -2 2.245) (end -1.925 2.245) (layer "Dwgs.User") (width 0.01) (tstamp b4a3ea2d-5655-47dd-b440-7f608665c2a2))
  (fp_line (start -2.4 -1.275) (end -2.475 -1.275) (layer "Dwgs.User") (width 0.01) (tstamp b4d299eb-b596-4424-87e2-8e870733dc2f))
  (fp_line (start 0.575 2.245) (end 0.575 2.385) (layer "Dwgs.User") (width 0.01) (tstamp b65a3e83-6c16-470b-a121-5f4f0bf9ac90))
  (fp_line (start -0.6 2.245) (end -0.525 2.245) (layer "Dwgs.User") (width 0.01) (tstamp b7235f72-8066-4d83-b32f-d374b27bf745))
  (fp_line (start 0.975 2.245) (end 0.975 2.385) (layer "Dwgs.User") (width 0.01) (tstamp b8ba9572-72b9-41e7-ae88-a20efe8f12b8))
  (fp_line (start 1.375 2.385) (end 1.3 2.385) (layer "Dwgs.User") (width 0.01) (tstamp b8d4c0eb-206a-47b0-9dea-6de08e040c24))
  (fp_line (start -2.475 -1.45) (end -2.475 -1.375) (layer "Dwgs.User") (width 0.01) (tstamp b932d020-61f4-42fa-849b-c4b512f84a64))
  (fp_line (start 2.4 -1.75) (end 2.4 -1.675) (layer "Dwgs.User") (width 0.01) (tstamp b9ec23d2-8dde-4ddd-9a9a-319be0f27f9a))
  (fp_line (start -0.2 2.245) (end -0.2 2.385) (layer "Dwgs.User") (width 0.01) (tstamp bc3a0664-5830-45e4-9091-3c0a5d4b221d))
  (fp_line (start 1.3 2.245) (end 1.3 2.385) (layer "Dwgs.User") (width 0.01) (tstamp bc686ec7-8a3c-47de-b45f-2786b8b7d9b4))
  (fp_line (start 0.075 2.245) (end 0.075 2.385) (layer "Dwgs.User") (width 0.01) (tstamp bdad0652-030f-478b-a60d-f35e778a41c7))
  (fp_line (start 2.4 -1.15) (end 2.475 -1.15) (layer "Dwgs.User") (width 0.01) (tstamp bdf2618f-c3dd-4c73-abe3-540dca62dc75))
  (fp_line (start -2.4 -1.55) (end -2.4 -1.475) (layer "Dwgs.User") (width 0.01) (tstamp be988859-a2d3-40c6-836e-5551a432d5b8))
  (fp_line (start 2.4 -1.05) (end 2.475 -1.05) (layer "Dwgs.User") (width 0.01) (tstamp bed7f486-3001-4f66-9d02-0456cb686462))
  (fp_line (start -1.825 2.385) (end -1.9 2.385) (layer "Dwgs.User") (width 0.01) (tstamp c190500b-ff6d-4c47-a2f7-bcb50cf4f1ec))
  (fp_line (start -0.825 2.385) (end -0.9 2.385) (layer "Dwgs.User") (width 0.01) (tstamp c266d2c0-8f57-4c23-acc3-7b600302a058))
  (fp_line (start 2.075 2.245) (end 2.075 2.385) (layer "Dwgs.User") (width 0.01) (tstamp c2bd513e-236a-4be8-8b96-d8a4dc5f13ea))
  (fp_line (start -2.4 -1.775) (end -2.475 -1.775) (layer "Dwgs.User") (width 0.01) (tstamp c481852a-5782-4efd-8160-d20ef6ce1e72))
  (fp_line (start -2.475 -1.15) (end -2.475 -1.075) (layer "Dwgs.User") (width 0.01) (tstamp c5463fd7-ad59-4dd0-8aa6-d7c0b9412d7b))
  (fp_line (start -2.475 -1.45) (end -2.4 -1.45) (layer "Dwgs.User") (width 0.01) (tstamp c5e1cfe4-b55d-4fc2-8920-15c07fe7c2c3))
  (fp_line (start 2.475 -1.275) (end 2.4 -1.275) (layer "Dwgs.User") (width 0.01) (tstamp c7058365-bf1e-4de8-87d1-7ad907bcc25b))
  (fp_line (start 2.4 -1.35) (end 2.475 -1.35) (layer "Dwgs.User") (width 0.01) (tstamp c7e477b7-79a4-4382-9ced-0ebd67f7dfce))
  (fp_line (start -0.8 2.245) (end -0.8 2.385) (layer "Dwgs.User") (width 0.01) (tstamp c7fafc9e-57fe-4f53-ab61-cd4bd18644bd))
  (fp_line (start -2.325 2.385) (end -2.4 2.385) (layer "Dwgs.User") (width 0.01) (tstamp c8332389-dc91-4910-9d19-51345f2608dc))
  (fp_line (start 2.375 2.385) (end 2.3 2.385) (layer "Dwgs.User") (width 0.01) (tstamp c954f523-8d89-4d71-9d6b-874ef7fd2806))
  (fp_line (start 2 2.245) (end 2 2.385) (layer "Dwgs.User") (width 0.01) (tstamp ca440eeb-250f-4b6c-a700-6cd8cea15095))
  (fp_line (start -2.125 2.245) (end -2.125 2.385) (layer "Dwgs.User") (width 0.01) (tstamp caa71ec5-c722-4029-91a8-6fb05fa855b9))
  (fp_line (start -2.2 2.245) (end -2.125 2.245) (layer "Dwgs.User") (width 0.01) (tstamp cbc623ce-286f-4ac4-a1bb-a17dac9239c8))
  (fp_line (start -2.475 -1.25) (end -2.4 -1.25) (layer "Dwgs.User") (width 0.01) (tstamp cc1fcdee-49c4-4656-9e26-964e8fb82370))
  (fp_line (start -2.475 -0.95) (end -2.475 -0.875) (layer "Dwgs.User") (width 0.01) (tstamp cc322a5e-52cc-4a7b-95e3-b5e508cdf54d))
  (fp_line (start -0.125 2.245) (end -0.125 2.385) (layer "Dwgs.User") (width 0.01) (tstamp cdaaf771-3313-4769-9776-fc6c3c1bf30d))
  (fp_line (start -2.4 -1.95) (end -2.4 -1.875) (layer "Dwgs.User") (width 0.01) (tstamp ceaf1891-7106-41be-99db-2f86f6fa678f))
  (fp_line (start -2.475 -0.85) (end -2.4 -0.85) (layer "Dwgs.User") (width 0.01) (tstamp d01573f4-0d84-4d93-af08-55f57f1683b8))
  (fp_line (start -1.025 2.385) (end -1.1 2.385) (layer "Dwgs.User") (width 0.01) (tstamp d031760a-9a63-4489-b86d-bed5139dc471))
  (fp_line (start 1.975 2.245) (end 1.975 2.385) (layer "Dwgs.User") (width 0.01) (tstamp d1a0cbb5-4049-4688-bf93-57d123f0bbbe))
  (fp_line (start 2.4 -1.25) (end 2.475 -1.25) (layer "Dwgs.User") (width 0.01) (tstamp d22fb61f-b3e7-488a-a7ef-4c3aba223604))
  (fp_line (start -1.3 2.245) (end -1.225 2.245) (layer "Dwgs.User") (width 0.01) (tstamp d2376310-ccb3-4afc-9099-aaaa4aecd637))
  (fp_line (start -1.6 2.245) (end -1.525 2.245) (layer "Dwgs.User") (width 0.01) (tstamp d31929bd-ef6a-4052-892c-b52e8c371f0b))
  (fp_line (start -1.825 2.245) (end -1.825 2.385) (layer "Dwgs.User") (width 0.01) (tstamp d3e6961d-2ae6-4d17-9789-1c3f5250b74d))
  (fp_line (start -2.475 -1.95) (end -2.475 -1.875) (layer "Dwgs.User") (width 0.01) (tstamp d3e97d5a-bdd1-4641-8348-af695b3585ea))
  (fp_line (start -2.475 -0.95) (end -2.4 -0.95) (layer "Dwgs.User") (width 0.01) (tstamp d3fe36ca-9d0e-4b9e-a87c-1d2217c448da))
  (fp_line (start 1.175 2.245) (end 1.175 2.385) (layer "Dwgs.User") (width 0.01) (tstamp d566bf6d-f9ec-4a4f-8823-5e7ad264d4f4))
  (fp_line (start 2.475 -2.075) (end 2.4 -2.075) (layer "Dwgs.User") (width 0.01) (tstamp d620e917-6107-446f-b42e-67b9ff35b7a8))
  (fp_line (start 2.475 -0.75) (end 2.475 -0.675) (layer "Dwgs.User") (width 0.01) (tstamp d68fdd3f-c9a1-484d-b571-e78f02a65b62))
  (fp_line (start 0.475 2.385) (end 0.4 2.385) (layer "Dwgs.User") (width 0.01) (tstamp d709a33a-d870-49fa-871e-964f1a95e467))
  (fp_line (start 1.1 2.245) (end 1.1 2.385) (layer "Dwgs.User") (width 0.01) (tstamp d715c6d0-496c-4ece-8a29-e7d3c05b7c6d))
  (fp_line (start 2.4 -1.55) (end 2.475 -1.55) (layer "Dwgs.User") (width 0.01) (tstamp d7d04739-ae1a-47d1-b23e-b6c300e9315f))
  (fp_line (start -1.125 2.385) (end -1.2 2.385) (layer "Dwgs.User") (width 0.01) (tstamp d88e8919-3906-4c3a-9f23-b4c8b370561a))
  (fp_line (start 0.675 2.245) (end 0.675 2.385) (layer "Dwgs.User") (width 0.01) (tstamp d9eed026-7044-451e-bedd-5a922d4d5abe))
  (fp_line (start -1.125 2.245) (end -1.125 2.385) (layer "Dwgs.User") (width 0.01) (tstamp dac70435-275a-4c15-b544-8b3cad241bc0))
  (fp_line (start 2.4 -2.15) (end 2.475 -2.15) (layer "Dwgs.User") (width 0.01) (tstamp db85f303-89ec-42ff-8a1f-5dfdd7c33a0f))
  (fp_line (start 2.475 -1.85) (end 2.475 -1.775) (layer "Dwgs.User") (width 0.01) (tstamp dba6d1eb-7343-4208-b96b-a65a2116efdd))
  (fp_line (start -1.6 2.245) (end -1.6 2.385) (layer "Dwgs.User") (width 0.01) (tstamp de1376ee-3f0c-4ed7-a113-e2a116953845))
  (fp_line (start 1.5 2.245) (end 1.575 2.245) (layer "Dwgs.User") (width 0.01) (tstamp de3a4e2b-bcec-4744-bf76-b8b53589adb8))
  (fp_line (start 2.475 -0.95) (end 2.475 -0.875) (layer "Dwgs.User") (width 0.01) (tstamp dfc01e8b-805d-4cd9-a043-4c6806ceb4dd))
  (fp_line (start -2.475 -1.05) (end -2.4 -1.05) (layer "Dwgs.User") (width 0.01) (tstamp e07dd995-b11f-4d49-839b-def23f590994))
  (fp_line (start 1.175 2.385) (end 1.1 2.385) (layer "Dwgs.User") (width 0.01) (tstamp e0b14231-f9cc-4661-bd00-96ae1e2fee46))
  (fp_line (start -2.475 -1.55) (end -2.4 -1.55) (layer "Dwgs.User") (width 0.01) (tstamp e1c8e358-58f0-458e-bb6b-1ca375e74c0d))
  (fp_line (start 2.5 -2.45) (end 2.5 2.42) (layer "Dwgs.User") (width 0.01) (tstamp e3be47c5-c0dd-4c70-85ea-1e0cc0a242ef))
  (fp_line (start 2.475 -0.65) (end 2.475 -0.575) (layer "Dwgs.User") (width 0.01) (tstamp e5276071-d05b-475e-b4d2-aecda0606b44))
  (fp_line (start -1.5 2.245) (end -1.5 2.385) (layer "Dwgs.User") (width 0.01) (tstamp e5fe7ae9-2360-4c87-844f-f91af34afa78))
  (fp_line (start 0.6 2.245) (end 0.675 2.245) (layer "Dwgs.User") (width 0.01) (tstamp e6d9654d-d3fb-41c8-85b2-dec1f0538ef5))
  (fp_line (start 2.475 -1.35) (end 2.475 -1.275) (layer "Dwgs.User") (width 0.01) (tstamp eb70df51-b0ea-4f02-a2ab-a1d010805153))
  (fp_line (start 0.175 2.245) (end 0.175 2.385) (layer "Dwgs.User") (width 0.01) (tstamp eba3718b-a549-4872-bd14-c1fa01fd8e63))
  (fp_line (start 0.5 2.245) (end 0.5 2.385) (layer "Dwgs.User") (width 0.01) (tstamp ed3301d8-43c3-4302-846f-0ec6403c9662))
  (fp_line (start 2.2 2.245) (end 2.275 2.245) (layer "Dwgs.User") (width 0.01) (tstamp ee594481-9e29-40f4-ab19-dbba2ee2f9b1))
  (fp_line (start -0.925 2.385) (end -1 2.385) (layer "Dwgs.User") (width 0.01) (tstamp f026c4af-725f-44bf-99a0-aac5da88b8b2))
  (fp_line (start 1.475 2.385) (end 1.4 2.385) (layer "Dwgs.User") (width 0.01) (tstamp f0b210ef-37c0-49fb-b4e7-d5746df658bf))
  (fp_line (start 0.675 2.385) (end 0.6 2.385) (layer "Dwgs.User") (width 0.01) (tstamp f1448188-b21e-4712-8489-490988dde5d1))
  (fp_line (start -1.625 2.245) (end -1.625 2.385) (layer "Dwgs.User") (width 0.01) (tstamp f3f0ed20-8566-43fd-94ec-2101567220fa))
  (fp_line (start -2.4 -1.85) (end -2.4 -1.775) (layer "Dwgs.User") (width 0.01) (tstamp f4142b88-83fe-4be5-8849-986fe845155f))
  (fp_line (start 1.3 2.245) (end 1.375 2.245) (layer "Dwgs.User") (width 0.01) (tstamp f5c2e55e-5a70-44ff-ac19-1f3bcdf3bc17))
  (fp_line (start 0 2.245) (end 0 2.385) (layer "Dwgs.User") (width 0.01) (tstamp f6deea9b-b0e6-42c4-8f40-6595b34c1598))
  (fp_line (start -2.125 2.385) (end -2.2 2.385) (layer "Dwgs.User") (width 0.01) (tstamp f7775f61-3bdb-4603-9cfb-fb7857c12e3c))
  (fp_line (start 1.2 2.245) (end 1.2 2.385) (layer "Dwgs.User") (width 0.01) (tstamp f802008e-d654-447a-9fb7-7a887dfe21e9))
  (fp_line (start 0.075 2.385) (end 0 2.385) (layer "Dwgs.User") (width 0.01) (tstamp f8226ef6-1cd2-4c7b-bdc6-16db330dd7ee))
  (fp_line (start -2.475 -1.75) (end -2.475 -1.675) (layer "Dwgs.User") (width 0.01) (tstamp f8547284-0f41-4dc0-add0-fcf5c8500429))
  (fp_line (start -0.1 2.245) (end -0.025 2.245) (layer "Dwgs.User") (width 0.01) (tstamp f92eb0fe-98ff-4113-9d53-a3cd5eec0d64))
  (fp_line (start 1.475 2.245) (end 1.475 2.385) (layer "Dwgs.User") (width 0.01) (tstamp f96708f5-598c-48fe-807a-7bbfb74149c4))
  (fp_line (start 2.4 -2.15) (end 2.4 -2.075) (layer "Dwgs.User") (width 0.01) (tstamp f98b0228-17e6-4730-a692-b6a930496638))
  (fp_line (start 1.2 2.245) (end 1.275 2.245) (layer "Dwgs.User") (width 0.01) (tstamp fa154d89-9290-40f7-b807-c591ecbce271))
  (fp_line (start -2.4 -1.75) (end -2.4 -1.675) (layer "Dwgs.User") (width 0.01) (tstamp fba02071-3bac-4008-8c6c-eff4525983f3))
  (fp_line (start 1.075 2.245) (end 1.075 2.385) (layer "Dwgs.User") (width 0.01) (tstamp fbd2d3af-2010-4685-8728-8725dc06b77d))
  (fp_line (start 0.975 2.385) (end 0.9 2.385) (layer "Dwgs.User") (width 0.01) (tstamp fd0582d9-7941-427b-be7c-7a0dc0857f93))
  (fp_line (start 2 2.245) (end 2.075 2.245) (layer "Dwgs.User") (width 0.01) (tstamp fe6aab93-1356-40c4-8575-ef0cfc1eafdb))
  (fp_line (start -1.2 2.245) (end -1.125 2.245) (layer "Dwgs.User") (width 0.01) (tstamp ff0917fc-c2c7-4b7e-91cb-6ca278bb82fa))
  (fp_line (start -2.4 -2.175) (end -2.475 -2.175) (layer "Dwgs.User") (width 0.01) (tstamp ff1fe193-1078-4ed7-892a-1a966dba2693))
  (pad "1" smd rect (at -6.142 8.412 90) (locked) (size 0.4 1) (layers "F.Cu" "F.Paste" "F.Mask") (tstamp a9ae454b-bf54-4290-b18d-330fa88f353a))
  (pad "2" smd rect (at -6.142 9.682 90) (locked) (size 0.4 1) (layers "F.Cu" "F.Paste" "F.Mask") (tstamp 46a3780e-23f2-44b2-b95d-5c518cdfbeae))
  (pad "3" smd rect (at -6.142 11.0028 90) (locked) (size 0.4 1) (layers "F.Cu" "F.Paste" "F.Mask") (tstamp 8aa90827-f699-450f-b932-c3ad9f1886fe))
  (pad "4" smd rect (at -5.1768 8.4536) (locked) (size 0.15 0.5) (layers "F.Cu" "F.Paste" "F.Mask") (tstamp 0d20813e-4fc4-4834-b319-f1703f99e44e))
  (pad "5" smd rect (at -4.7768 9.7536) (locked) (size 0.15 0.5) (layers "F.Cu" "F.Paste" "F.Mask") (tstamp 51095ce1-e505-462b-a55a-15c364a854b3))
  (pad "6" smd rect (at -5.1768 11.0536) (locked) (size 0.15 0.5) (layers "F.Cu" "F.Paste" "F.Mask") (tstamp 9381cd3e-1cb2-48c4-bb8c-500400776d8e))
  (pad "7" smd rect (at -4.2992 8.4536) (locked) (size 0.15 0.5) (layers "F.Cu" "F.Paste" "F.Mask") (tstamp d58c851b-6d18-4be8-82cb-cd7b092bc972))
  (pad "8" smd rect (at -3.8992 9.7536) (locked) (size 0.15 0.5) (layers "F.Cu" "F.Paste" "F.Mask") (tstamp 0ada2a0a-5459-4655-8c71-68a15c96fb16))
  (pad "9" smd rect (at -4.2992 11.0536) (locked) (size 0.15 0.5) (layers "F.Cu" "F.Paste" "F.Mask") (tstamp 370cdbc9-c278-4171-ad5f-933c0dbb48dd))
  (pad "10" smd rect (at -3.4992 8.4536) (locked) (size 0.15 0.5) (layers "F.Cu" "F.Paste" "F.Mask") (tstamp 3f19834a-2759-469a-bdfe-7c18eaf16feb))
  (pad "11" smd rect (at -3.0992 9.7536) (locked) (size 0.15 0.5) (layers "F.Cu" "F.Paste" "F.Mask") (tstamp db6c5256-3e3e-4516-8047-463330db3457))
  (pad "12" smd rect (at -3.4992 11.0536) (locked) (size 0.15 0.5) (layers "F.Cu" "F.Paste" "F.Mask") (tstamp 683dc9c8-2b73-4734-b335-a91637146594))
  (pad "13" smd rect (at -2.6992 8.4536) (locked) (size 0.15 0.5) (layers "F.Cu" "F.Paste" "F.Mask") (tstamp b35ca38e-ec8c-4fc8-a409-16ac8949ebcf))
  (pad "14" smd rect (at -2.2992 9.7536) (locked) (size 0.15 0.5) (layers "F.Cu" "F.Paste" "F.Mask") (tstamp 92b67858-3951-4024-89ab-fc415de83e93))
  (pad "15" smd rect (at -2.6992 11.0536) (locked) (size 0.15 0.5) (layers "F.Cu" "F.Paste" "F.Mask") (tstamp 0ba5d172-ed68-4458-bedd-9fb2e383eb63))
  (pad "16" smd rect (at -1.8992 8.4536) (locked) (size 0.15 0.5) (layers "F.Cu" "F.Paste" "F.Mask") (tstamp c34ab1b6-f9dc-485b-8787-e48aa7d72b60))
  (pad "17" smd rect (at -1.4992 9.7536) (locked) (size 0.15 0.5) (layers "F.Cu" "F.Paste" "F.Mask") (tstamp 12277e57-b0bc-4515-a207-e3b3ab3b5a84))
  (pad "18" smd rect (at -1.8992 11.0536) (locked) (size 0.15 0.5) (layers "F.Cu" "F.Paste" "F.Mask") (tstamp e1de9927-db0a-4986-9113-f278b2f8e6f5))
  (pad "19" smd rect (at -0.9712 8.4536) (locked) (size 0.15 0.5) (layers "F.Cu" "F.Paste" "F.Mask") (tstamp a522bc1f-870d-45ae-8bb8-db2a0959b919))
  (pad "20" smd rect (at -0.5712 9.7536) (locked) (size 0.15 0.5) (layers "F.Cu" "F.Paste" "F.Mask") (tstamp 9f2340df-39eb-4579-ac8f-29451e247906))
  (pad "21" smd rect (at -0.9712 11.0536) (locked) (size 0.15 0.5) (layers "F.Cu" "F.Paste" "F.Mask") (tstamp 70ebb5db-4d5d-477a-b90b-6fc79754c5cb))
  (pad "22" smd rect (at -0.1712 8.4536) (locked) (size 0.15 0.5) (layers "F.Cu" "F.Paste" "F.Mask") (tstamp c3d64065-9c66-4fda-9f3e-7bdb22f3d152))
  (pad "23" smd rect (at 0.3304 9.7536) (locked) (size 0.15 0.5) (layers "F.Cu" "F.Paste" "F.Mask") (tstamp 3a16bc66-164f-4247-acb6-652f3c61ab53))
  (pad "24" smd rect (at -0.1712 11.0536) (locked) (size 0.15 0.5) (layers "F.Cu" "F.Paste" "F.Mask") (tstamp 0470d624-31fa-45e1-86f9-8c936ead31ff))
  (pad "25" smd rect (at 0.7304 8.4536) (locked) (size 0.15 0.5) (layers "F.Cu" "F.Paste" "F.Mask") (tstamp fd1a04e7-cab1-414a-ab83-f11fefa758d7))
  (pad "26" smd rect (at 1.9304 9.7536) (locked) (size 0.15 0.5) (layers "F.Cu" "F.Paste" "F.Mask") (tstamp f7141d9d-601d-46e2-b336-94eb78138d51))
  (pad "27" smd rect (at 0.7304 11.0536) (locked) (size 0.15 0.5) (layers "F.Cu" "F.Paste" "F.Mask") (tstamp c42155ca-94f1-4049-8b7e-dc67c690be39))
  (pad "28" smd rect (at 1.5304 8.4536) (locked) (size 0.15 0.5) (layers "F.Cu" "F.Paste" "F.Mask") (tstamp 8b8e0497-5160-46fe-bb73-c286a4de32e6))
  (pad "29" smd rect (at 1.1304 9.7536) (locked) (size 0.15 0.5) (layers "F.Cu" "F.Paste" "F.Mask") (tstamp cd99d83a-8271-4fe5-a42f-5744819d1b89))
  (pad "30" smd rect (at 1.5304 11.0536) (locked) (size 0.15 0.5) (layers "F.Cu" "F.Paste" "F.Mask") (tstamp f9c6a55b-e99a-48ac-9ab9-6f90cc0ea1f7))
  (pad "31" smd rect (at 2.3304 8.4536) (locked) (size 0.15 0.5) (layers "F.Cu" "F.Paste" "F.Mask") (tstamp e641a77a-3d5c-4e74-a68d-285efe266ad4))
  (pad "32" smd rect (at 2.7304 9.7536) (locked) (size 0.15 0.5) (layers "F.Cu" "F.Paste" "F.Mask") (tstamp a81b0332-5d2d-4b0e-8df8-b6c67641affe))
  (pad "33" smd rect (at 2.3304 11.2776) (locked) (size 0.4 1) (layers "F.Cu" "F.Paste" "F.Mask") (tstamp ab21005a-2504-4e19-aed4-321bf95f5072))
  (pad "34" smd rect (at 3.1304 8.4536) (locked) (size 0.15 0.5) (layers "F.Cu" "F.Paste" "F.Mask") (tstamp ae219c82-f539-45c3-9052-0475c125ad50))
  (pad "35" smd rect (at 3.5304 9.7536) (locked) (size 0.15 0.5) (layers "F.Cu" "F.Paste" "F.Mask") (tstamp d8a0d63b-3228-4c80-b4b3-c00e59bd2815))
  (pad "36" smd rect (at 3.1304 11.0536) (locked) (size 0.15 0.5) (layers "F.Cu" "F.Paste" "F.Mask") (tstamp d49be038-c993-4a24-9a0c-b684726e90e9))
  (pad "37" smd rect (at 3.9304 8.4536) (locked) (size 0.15 0.5) (layers "F.Cu" "F.Paste" "F.Mask") (tstamp 7905c303-1baf-4dbd-9dcd-a1080a684ae0))
  (pad "38" smd rect (at 4.3304 9.7536) (locked) (size 0.15 0.5) (layers "F.Cu" "F.Paste" "F.Mask") (tstamp 06f3d519-6dc4-4378-9e66-abf2b936c28b))
  (pad "39" smd rect (at 3.9304 11.0536) (locked) (size 0.15 0.5) (layers "F.Cu" "F.Paste" "F.Mask") (tstamp 7fd497ba-7bf7-4bc5-b725-6693676215ea))
  (pad "40" smd rect (at 4.7304 8.4536) (locked) (size 0.15 0.5) (layers "F.Cu" "F.Paste" "F.Mask") (tstamp 9a212744-cde0-4e61-aa95-200d392b1ba4))
  (pad "41" smd rect (at 5.1304 9.7536) (locked) (size 0.15 0.5) (layers "F.Cu" "F.Paste" "F.Mask") (tstamp efce974b-8466-40bc-80fd-83f3ff874591))
  (pad "42" smd rect (at 4.7304 11.0536) (locked) (size 0.15 0.5) (layers "F.Cu" "F.Paste" "F.Mask") (tstamp 743ee41d-6a3a-4c0f-acf3-ed928a76ae2e))
  (pad "43" smd rect (at 5.5304 8.4536) (locked) (size 0.15 0.5) (layers "F.Cu" "F.Paste" "F.Mask") (tstamp dc2425bc-d5bd-4649-bb5b-b5cbf37ca4d0))
  (pad "44" smd rect (at 6.0764 9.7328 90) (locked) (size 0.4 1) (layers "F.Cu" "F.Paste" "F.Mask") (tstamp 1ade44f2-4a0a-4477-bc68-b94660aa51c6))
  (pad "45" smd rect (at 5.7716 11.0536 90) (locked) (size 0.4 1) (layers "F.Cu" "F.Paste" "F.Mask") (tstamp f8d21633-8052-4bf4-a127-80e7bb3ab84a))
  (pad "46" smd rect (at 6.178 8.412 180) (locked) (size 0.4 1) (layers "F.Cu" "F.Paste" "F.Mask") (tstamp 7d63a942-c875-4fc0-becd-80aa72cafa65))
  (pad "47" smd rect (at 7.0924 9.7328 180) (locked) (size 0.15 0.5) (layers "F.Cu" "F.Paste" "F.Mask") (tstamp 5acb4d97-e0a7-47d2-bb6f-721766655d6b))
  (pad "48" smd rect (at 6.8384 8.5644) (locked) (size 0.15 0.5) (layers "F.Cu" "F.Paste" "F.Mask") (tstamp 8b4de302-ec3b-4c8d-98df-97b5204ad216))
  (pad "49" smd rect (at -2.4384 -5.9436) (locked) (size 0.15 1) (layers "F.Cu" "F.Paste" "F.Mask") (tstamp 259526e0-b714-4374-90d5-d2e94d605c54))
  (pad "50" smd rect (at -10.4336 -3.6952 90) (locked) (size 0.15 1) (layers "F.Cu" "F.Paste" "F.Mask") (tstamp d6d6aa44-4bb3-4020-9aab-85d124e50f0a))
  (pad "51" smd rect (at -8.9408 -3.2888 90) (locked) (size 0.15 1) (layers "F.Cu" "F.Paste" "F.Mask") (tstamp 0d2a0189-859e-4853-99ca-631c56901747))
  (pad "52" smd rect (at -10.4648 -2.8956 90) (locked) (size 0.15 1) (layers "F.Cu" "F.Paste" "F.Mask") (tstamp 5eea1e0e-f81f-464e-bd20-4848766f3027))
  (pad "53" smd rect (at -8.9408 -2.4888 90) (locked) (size 0.15 1) (layers "F.Cu" "F.Paste" "F.Mask") (tstamp 7db115ae-a452-45ad-837e-8e2611a2fa0a))
  (pad "54" smd rect (at -10.4336 -2.0952 90) (locked) (size 0.15 1) (layers "F.Cu" "F.Paste" "F.Mask") (tstamp 713a86c0-3a77-472f-adaf-ee6b9a4702e4))
  (pad "55" smd rect (at -8.9408 -1.6888 90) (locked) (size 0.15 1) (layers "F.Cu" "F.Paste" "F.Mask") (tstamp 713d1297-c803-4514-858f-e4f192a43988))
  (pad "56" smd rect (at -10.414 -1.2952 90) (locked) (size 0.15 1) (layers "F.Cu" "F.Paste" "F.Mask") (tstamp b078ef59-b762-4a32-bcee-ac19a803d9fb))
  (pad "57" smd rect (at -8.9408 -0.8888 90) (locked) (size 0.15 1) (layers "F.Cu" "F.Paste" "F.Mask") (tstamp e3ff31f2-d36c-4994-868f-5624e9432043))
  (pad "58" smd rect (at -10.4336 -0.4952 90) (locked) (size 0.15 1) (layers "F.Cu" "F.Paste" "F.Mask") (tstamp 5b8f6353-d16c-4866-a0cf-c9002d2867df))
  (pad "59" smd rect (at -8.9408 -0.0888 90) (locked) (size 0.15 1) (layers "F.Cu" "F.Paste" "F.Mask") (tstamp 2b3a35f4-27c1-49de-8a19-6f9d36fa8d9d))
  (pad "60" smd rect (at -10.4648 0.3048 90) (locked) (size 0.15 1) (layers "F.Cu" "F.Paste" "F.Mask") (tstamp 9e342dfa-d706-4ad0-9b4d-90635590bee3))
  (pad "61" smd rect (at -8.9408 0.7112 90) (locked) (size 0.15 1) (layers "F.Cu" "F.Paste" "F.Mask") (tstamp a4e22a75-5b28-47f5-800d-64c4bf853bec))
  (pad "62" smd rect (at 2.4384 -5.9436) (locked) (size 0.15 1) (layers "F.Cu" "F.Paste" "F.Mask") (tstamp a8409f22-0a08-422f-8bf2-7bb392de47a1))
  (pad "63" smd rect (at 8.9408 -2.8448 90) (locked) (size 0.15 1) (layers "F.Cu" "F.Paste" "F.Mask") (tstamp e0618f88-ac0c-44df-94d2-6048ae718968))
  (pad "64" smd rect (at 11.0236 -2.8556 90) (locked) (size 0.15 1) (layers "F.Cu" "F.Paste" "F.Mask") (tstamp b4d25291-05f1-4d52-9eec-1732398d0a15))
  (pad "65" smd rect (at 8.9408 -2.3448 90) (locked) (size 0.15 1) (layers "F.Cu" "F.Paste" "F.Mask") (tstamp 5e6b0fd8-2691-4802-ae46-1318b21f0781))
  (pad "66" smd rect (at 11.0236 -2.210334 90) (locked) (size 0.15 1) (layers "F.Cu" "F.Paste" "F.Mask") (tstamp 72cf8f76-f8f1-4179-89df-4004813deeda))
  (pad "67" smd rect (at 8.9408 -1.8448 90) (locked) (size 0.15 1) (layers "F.Cu" "F.Paste" "F.Mask") (tstamp 7201c099-1701-47d5-8c8a-9f41eb7ca4ec))
  (pad "68" smd rect (at 11.0236 -1.565068 90) (locked) (size 0.15 1) (layers "F.Cu" "F.Paste" "F.Mask") (tstamp 610fb49b-bbb6-43df-a504-298720ea6e32))
  (pad "69" smd rect (at 8.9408 -1.3448 90) (locked) (size 0.15 1) (layers "F.Cu" "F.Paste" "F.Mask") (tstamp a93dab4b-9c2e-4311-8ecc-23203e0620bf))
  (pad "70" smd rect (at 11.0236 -0.919802 90) (locked) (size 0.15 1) (layers "F.Cu" "F.Paste" "F.Mask") (tstamp fa8cd2b7-d05b-49f6-a13d-eb92ac28d45b))
  (pad "71" smd rect (at 8.9408 -0.8448 90) (locked) (size 0.15 1) (layers "F.Cu" "F.Paste" "F.Mask") (tstamp 8a9f6e64-1afc-4e71-8736-12f337773690))
  (pad "72" smd rect (at 11.0236 -0.274536 90) (locked) (size 0.15 1) (layers "F.Cu" "F.Paste" "F.Mask") (tstamp 358bbafe-cf0a-4ad2-aab2-27044119530a))
  (pad "73" smd rect (at 8.9408 -0.3448 90) (locked) (size 0.15 1) (layers "F.Cu" "F.Paste" "F.Mask") (tstamp 9252f112-38b3-4f57-a052-dbf601f01f01))
  (pad "74" smd rect (at 11.0236 0.37073 90) (locked) (size 0.15 1) (layers "F.Cu" "F.Paste" "F.Mask") (tstamp 9da6ff3e-18b4-4f8e-9b3f-36ca82c46499))
  (pad "75" smd rect (at 8.9408 0.1552 90) (locked) (size 0.15 1) (layers "F.Cu" "F.Paste" "F.Mask") (tstamp 309232b3-bccf-488c-a7fb-3a634d48fab5))
  (pad "76" smd rect (at 11.0236 1.016 90) (locked) (size 0.15 1) (layers "F.Cu" "F.Paste" "F.Mask") (tstamp d646a63a-c0c4-4edd-9bb1-e6a4cd940d42))
  (pad "77" smd rect (at 8.9408 0.6552 90) (locked) (size 0.15 1) (layers "F.Cu" "F.Paste" "F.Mask") (tstamp 1bf8fd5e-2392-408a-8f4e-5fd40fc0992e))
  (pad "78" smd rect (at 8.9408 1.9812 90) (locked) (size 0.15 1) (layers "F.Cu" "F.Paste" "F.Mask") (tstamp e7ca180b-e2ea-46d7-899c-05cd7cca8918))
)
